Division,WeightClassKg,Place,Name,Team,BodyweightKg,Best3SquatKg,Best3BenchKg,Best3DeadliftKg,TotalKg,Equipment,Event,Sex,BirthDate
Girls,44.23,1,Jennifer Lopez,Ferris,39.55,72.57,31.75,90.72,195.04,Unlimited,SBD,F,
Girls,44.23,2,Jocelyn Romero,Ferris,42.82,61.23,43.09,79.38,183.7,Unlimited,SBD,F,
Girls,47.85,1,Alecs Burch,Quinlan Ford,47.08,131.54,61.23,136.08,328.85,Unlimited,SBD,F,
Girls,47.85,2,Ryleigh Glenn,Elkhart,47.81,124.74,79.38,113.4,317.51,Unlimited,SBD,F,
Girls,47.85,3,Bella Beltran,Ferris,47.17,106.59,58.97,106.59,272.16,Unlimited,SBD,F,
Girls,47.85,4,Jennifer Sanchez,Quinlan Ford,47.17,102.06,49.9,120.2,272.16,Unlimited,SBD,F,
Girls,47.85,5,Marley Martin,Pollok Central,45.27,106.59,68.04,95.25,269.89,Unlimited,SBD,F,
Girls,47.85,6,Ella Reese,Whitehouse,46.81,95.25,54.43,97.52,247.21,Unlimited,SBD,F,
Girls,47.85,7,Rachel Rodriguez,Whitehouse,47.36,90.72,52.16,102.06,244.94,Unlimited,SBD,F,
Girls,47.85,8,Jamie Kral,Wills Point,45.18,90.72,58.97,88.45,238.14,Unlimited,SBD,F,
Girls,47.85,9,Kayla Rose,Argyle,46.54,95.25,40.82,92.99,229.06,Unlimited,SBD,F,
Girls,47.85,10,Allison Gonzales,Sunnyvale,46.99,83.91,43.09,88.45,215.46,Unlimited,SBD,F,
Girls,51.94,1,Cecilia Rodriguez,Quinlan Ford,50.44,104.33,45.36,113.4,263.08,Unlimited,SBD,F,
Girls,51.94,2,Kayla Jones,Wills Point,51.71,111.13,40.82,102.06,254.01,Unlimited,SBD,F,
Girls,51.94,3,Kaitlyn Gonzales,Sunnyvale,50.44,92.99,47.63,99.79,240.4,Unlimited,SBD,F,
Girls,51.94,4,Lindsey Cope,Mabank,51.35,97.52,43.09,95.25,235.87,Unlimited,SBD,F,
Girls,51.94,5,Zerena Martinez,Wills Point,48.17,95.25,38.56,97.52,231.33,Unlimited,SBD,F,
Girls,51.94,6,Allison Lopez,Wills Point,50.53,92.99,40.82,92.99,226.8,Unlimited,SBD,F,
Girls,51.94,7,Bella Chavarria,Ferris,51.35,86.18,45.36,86.18,217.72,Unlimited,SBD,F,
Girls,51.94,8,Natalie Clack,Mabank,51.44,74.84,40.82,86.18,201.85,Unlimited,SBD,F,
Girls,51.94,9,Janelly Duran,Dallas A+,50.08,70.31,29.48,83.91,183.7,Unlimited,SBD,F,
Girls,51.94,10,Madi McCleery,Terrell,51.71,72.57,27.22,74.84,174.63,Unlimited,SBD,F,
Girls,51.94,11,Azaleah Duenez,Terrell,51.89,68.04,27.22,70.31,165.56,Unlimited,SBD,F,
Girls,51.94,12,Sofia Gonzalez,Ennis,49.53,49.9,24.95,65.77,140.61,Unlimited,SBD,F,
Girls,51.94,13,Emily Rodriguez,Dallas Hillcrest,49.26,34.02,20.41,61.23,115.67,Unlimited,SBD,F,
Girls,51.94,DQ,Mia Johnston,Forney,48.26,,,,,Unlimited,SBD,F,
Girls,56.02,1,Victoria Shepherd,Mabank,55.07,138.35,79.38,136.08,353.8,Unlimited,SBD,F,
Girls,56.02,2,Braylee Glasscock,Whitehouse,55.07,106.59,54.43,113.4,274.42,Unlimited,SBD,F,
Girls,56.02,3,Gabby Vazquez,Malakoff Cross Roads,54.34,108.86,47.63,99.79,256.28,Unlimited,SBD,F,
Girls,56.02,4,Cheyanne Chanthaseng,Terrell,54.98,117.93,43.09,95.25,256.28,Unlimited,SBD,F,
Girls,56.02,5,Alexis Sudduth,Malakoff Cross Roads,53.61,88.45,40.82,106.59,235.87,Unlimited,SBD,F,
Girls,56.02,6,Lexi States,Terrell,54.88,97.52,34.02,86.18,217.72,Unlimited,SBD,F,
Girls,56.02,7,Sheila Pita,Ferris,55.43,72.57,47.63,97.52,217.72,Unlimited,SBD,F,
Girls,56.02,8,Ashlynn Cook,Malakoff Cross Roads,52.98,88.45,36.29,90.72,215.46,Unlimited,SBD,F,
Girls,56.02,9,Anastacia Njoroge,Wills Point,52.44,79.38,40.82,90.72,210.92,Unlimited,SBD,F,
Girls,56.02,10,Sounder Sockwell,Dallas Life Oak Cliff,54.98,52.16,24.95,79.38,156.49,Unlimited,SBD,F,
Girls,56.02,DQ,Jasmine Jones,Mabank,54.34,,,,,Unlimited,SBD,F,
Girls,60.1,1,Rhealee Sander,Elkhart,59.15,149.69,90.72,129.27,369.68,Unlimited,SBD,F,
Girls,60.1,2,Callie Riley,Mabank,57.52,136.08,74.84,124.74,335.66,Unlimited,SBD,F,
Girls,60.1,3,Noelle Feiden,Whitehouse,57.7,117.93,61.23,127.01,306.17,Unlimited,SBD,F,
Girls,60.1,4,Gloria Guzman,Dallas A+,58.79,102.06,54.43,117.93,274.42,Unlimited,SBD,F,
Girls,60.1,5,Madison Smith,Sunnyvale,56.79,111.13,56.7,95.25,263.08,Unlimited,SBD,F,
Girls,60.1,6,Tagen Azevedo,Wills Point,58.33,79.38,79.38,97.52,256.28,Unlimited,SBD,F,
Girls,60.1,7,Acadia Green,Malakoff Cross Roads,57.7,99.79,45.36,106.59,251.74,Unlimited,SBD,F,
Girls,60.1,8,Ava Glenn,Ennis,57.06,102.06,47.63,92.99,242.67,Unlimited,SBD,F,
Girls,60.1,9,Hailee Foley,Pollok Central,59.24,86.18,43.09,111.13,240.4,Unlimited,SBD,F,
Girls,60.1,10,Caroline Hooper,Whitehouse,56.52,88.45,47.63,99.79,235.87,Unlimited,SBD,F,
Girls,60.1,11,Jadynn Cook,Malakoff Cross Roads,58.69,88.45,43.09,99.79,231.33,Unlimited,SBD,F,
Girls,60.1,12,Elizabeth Collins,Ennis,59.06,88.45,40.82,97.52,226.8,Unlimited,SBD,F,
Girls,60.1,13,Kerstyn Cook,Pollok Central,59.24,81.65,47.63,95.25,224.53,Unlimited,SBD,F,
Girls,60.1,14,Adaora Odueze,Sunnyvale,56.06,88.45,43.09,86.18,217.72,Unlimited,SBD,F,
Girls,60.1,15,Brooke Johnson,Sunnyvale,59.51,86.18,43.09,88.45,217.72,Unlimited,SBD,F,
Girls,60.1,16,Abigail Baldwin,Sunnyvale,56.43,92.99,38.56,83.91,215.46,Unlimited,SBD,F,
Girls,60.1,17,Lana Chanthaseng,Terrell,58.51,88.45,36.29,88.45,213.19,Unlimited,SBD,F,
Girls,60.1,18,Isabella Sanchez,Terrell,58.15,61.23,27.22,83.91,172.37,Unlimited,SBD,F,
Girls,67.36,1,Sarah Mann,Elkhart,67.04,163.29,102.06,151.95,417.3,Unlimited,SBD,F,
Girls,67.36,2,Brooke Roby,Quinlan Ford,64.59,129.27,68.04,161.03,358.34,Unlimited,SBD,F,
Girls,67.36,3,Tara Herod,Elkhart,65.95,108.86,81.65,129.27,319.78,Unlimited,SBD,F,
Girls,67.36,4,Kayla Rodriguez,Elkhart,64.68,127.01,58.97,117.93,303.91,Unlimited,SBD,F,
Girls,67.36,5,Kyndal Anderson,Mabank,65.68,115.67,61.23,122.47,299.37,Unlimited,SBD,F,
Girls,67.36,6,Victoria Sanchez,Rockwall Heath,64.05,120.2,56.7,120.2,297.1,Unlimited,SBD,F,
Girls,67.36,7,Emma Williams,Whitehouse,64.59,117.93,70.31,108.86,297.1,Unlimited,SBD,F,
Girls,67.36,8,Fiona Harlan,Forney,65.05,102.06,65.77,115.67,283.5,Unlimited,SBD,F,
Girls,67.36,9,Trinity Westlake,Quinlan Ford,62.87,104.33,61.23,115.67,281.23,Unlimited,SBD,F,
Girls,67.36,10,Rachel Young,McKinney,65.86,113.4,54.43,90.72,258.55,Unlimited,SBD,F,
Girls,67.36,11,S Jacks,Ferris,64.05,102.06,52.16,102.06,256.28,Unlimited,SBD,F,
Girls,67.36,12,Donna Stovall,Malakoff Cross Roads,65.05,97.52,54.43,92.99,244.94,Unlimited,SBD,F,
Girls,67.36,13,Sylvia Baldwin,Sunnyvale,62.14,83.91,49.9,102.06,235.87,Unlimited,SBD,F,
Girls,67.36,14,Madison Aldama,Ennis,65.95,72.57,49.9,88.45,210.92,Unlimited,SBD,F,
Girls,67.36,15,Karen Gonzalez,Terrell,61.14,63.5,31.75,74.84,170.1,Unlimited,SBD,F,
Girls,67.36,16,America Ramirez,Terrell,60.24,74.84,31.75,61.23,167.83,Unlimited,SBD,F,
Girls,67.36,17,Yareli Olivera,Terrell,62.23,52.16,31.75,70.31,154.22,Unlimited,SBD,F,
Girls,67.36,18,Kayla De La Trinidad,Dallas A+,60.15,34.02,,,34.02,Unlimited,S,F,
Girls,67.36,DQ,Mireyli Castillo,Mesquite Poteet,61.42,95.25,,,,Unlimited,SBD,F,
Girls,67.36,DQ,Isabella Rios,Whitehouse,64.68,97.52,,,,Unlimited,SBD,F,
Girls,67.36,DQ,Julie Valadez,Terrell,66.5,52.16,,,,Unlimited,SBD,F,
Girls,67.36,DQ,Summer Posey,Terrell,62.23,,,,,Unlimited,SBD,F,
Girls,75.07,1,Lexi Taylor,Wills Point,72.76,145.15,102.06,163.29,410.5,Unlimited,SBD,F,
Girls,75.07,2,Alyssa Alcorta,Elkhart,74.93,163.29,95.25,145.15,403.7,Unlimited,SBD,F,
Girls,75.07,3,Cassidy Owen,Argyle,72.85,145.15,68.04,151.95,365.14,Unlimited,SBD,F,
Girls,75.07,4,Chyanne Cannon,Elkhart,71.12,133.81,65.77,108.86,308.44,Unlimited,SBD,F,
Girls,75.07,5,Alexis Smith,Wills Point,73.48,124.74,56.7,124.74,306.17,Unlimited,SBD,F,
Girls,75.07,6,Kayla Spencer,Wills Point,71.58,113.4,63.5,124.74,301.64,Unlimited,SBD,F,
Girls,75.07,7,July Soto,Malakoff Cross Roads,68.58,124.74,47.63,120.2,292.57,Unlimited,SBD,F,
Girls,75.07,8,Ellie Carr,Forney,68.13,104.33,54.43,115.67,274.42,Unlimited,SBD,F,
Girls,75.07,9,Melissa Lopez,Dallas Hillcrest,70.67,106.59,45.36,117.93,269.89,Unlimited,SBD,F,
Girls,75.07,10,Paris Jones,Sunnyvale,70.76,97.52,54.43,106.59,258.55,Unlimited,SBD,F,
Girls,75.07,11,Olivia Tanner,Forney,68.67,99.79,47.63,108.86,256.28,Unlimited,SBD,F,
Girls,75.07,12,Samantha Quintero,Forney,73.94,92.99,49.9,95.25,238.14,Unlimited,SBD,F,
Girls,75.07,13,Isabel Miller,North Forney,72.48,83.91,31.75,83.91,199.58,Unlimited,SBD,F,
Girls,75.07,14,Audrey Willoughby,Elkhart,72.76,70.31,49.9,79.38,199.58,Unlimited,SBD,F,
Girls,75.07,15,Waweru Rehema,North Forney,71.21,79.38,34.02,72.57,185.97,Unlimited,SBD,F,
Girls,75.07,16,Alyssa Rutherford,Ennis,72.85,65.77,38.56,70.31,174.63,Unlimited,SBD,F,
Girls,75.07,17,Kaylee Gonzalez,Dallas Life Oak Cliff,67.68,52.16,24.95,95.25,172.37,Unlimited,SBD,F,
Girls,75.07,18,Erika Portillo,Dallas Hillcrest,73.48,43.09,20.41,61.23,124.74,Unlimited,SBD,F,
Girls,75.07,DQ,Luna Rangel,Mesquite Poteet,70.03,74.84,,,,Unlimited,SBD,F,
Girls,75.07,DQ,Sophia McCaleb,Mesquite Poteet,72.39,90.72,,,,Unlimited,SBD,F,
Girls,75.07,DQ,D. Miller,Ferris,70.94,90.72,,,,Unlimited,SBD,F,
Girls,82.33,1,Addi Boren,Elkhart,80.2,179.17,97.52,138.35,415.04,Unlimited,SBD,F,
Girls,82.33,2,Emma Thomas,Whitehouse,81.37,142.88,79.38,140.61,362.87,Unlimited,SBD,F,
Girls,82.33,3,Ryleigh Casteel,Ferris,79.47,131.54,61.23,136.08,328.85,Unlimited,SBD,F,
Girls,82.33,4,Kailey Looney,Mabank,79.56,124.74,61.23,117.93,303.91,Unlimited,SBD,F,
Girls,82.33,5,Denise Romero,Quinlan Ford,76.75,115.67,65.77,115.67,297.1,Unlimited,SBD,F,
Girls,82.33,6,Camryon Redding,Wills Point,77.11,136.08,58.97,97.52,292.57,Unlimited,SBD,F,
Girls,82.33,7,Grace Miles,Sunnyvale,77.29,113.4,54.43,117.93,285.76,Unlimited,SBD,F,
Girls,82.33,8,Lily Cabrera,Sunnyvale,81.74,102.06,56.7,104.33,263.08,Unlimited,SBD,F,
Girls,82.33,9,Kaiyonna Hepburn,Dallas Life Oak Cliff,79.47,111.13,43.09,102.06,256.28,Unlimited,SBD,F,
Girls,82.33,10,Mykah Salgado,Dallas A+,79.29,102.06,45.36,102.06,249.48,Unlimited,SBD,F,
Girls,82.33,11,Bailey Loden,Elkhart,78.83,90.72,61.23,77.11,229.06,Unlimited,SBD,F,
Girls,82.33,12,Haley Gill-Wyatt,Dallas Life Oak Cliff,76.75,92.99,24.95,95.25,213.19,Unlimited,SBD,F,
Girls,82.33,DQ,Mia David,Sunnyvale,78.93,140.61,68.04,,,Unlimited,SBD,F,
Girls,90.04,1,Samantha Agan,Elkhart,88.54,163.29,122.47,129.27,415.04,Unlimited,SBD,F,
Girls,90.04,2,Lindsay McManus,Ennis,87.36,179.17,83.91,145.15,408.23,Unlimited,SBD,F,
Girls,90.04,3,Lily Webb,Ennis,87.54,127.01,83.91,142.88,353.8,Unlimited,SBD,F,
Girls,90.04,4,Belinda Yanez,Quinlan Ford,86.09,127.01,83.91,117.93,328.85,Unlimited,SBD,F,
Girls,90.04,5,Lillian Rodas,Ferris,87.72,106.59,70.31,117.93,294.84,Unlimited,SBD,F,
Girls,90.04,6,Danielle Hatley,Wills Point,88.54,124.74,61.23,104.33,290.3,Unlimited,SBD,F,
Girls,90.04,7,Katie Derleth,Sunnyvale,87.18,104.33,61.23,113.4,278.96,Unlimited,SBD,F,
Girls,90.04,8,Joanna Saah,North Forney,86.73,104.33,47.63,117.93,269.89,Unlimited,SBD,F,
Girls,90.04,9,Makayla Warren,North Forney,87.54,81.65,54.43,104.33,240.4,Unlimited,SBD,F,
Girls,90.04,10,Emmerson Avery,Forney,83.64,92.99,47.63,95.25,235.87,Unlimited,SBD,F,
Girls,100.02,1,Cheyenne McDonald,Elkhart,91.63,145.15,99.79,124.74,369.68,Unlimited,SBD,F,
Girls,100.02,2,Paw Lwe,Ferris,91.53,145.15,58.97,142.88,347,Unlimited,SBD,F,
Girls,100.02,3,Esmeralda Gullien,North Forney,95.07,99.79,52.16,104.33,256.28,Unlimited,SBD,F,
Girls,117.71,1,Katy Chaffins,Elkhart,108.32,210.92,149.69,181.44,542.04,Unlimited,SBD,F,
Girls,117.71,2,Mady Garcia,Wills Point,102.33,226.8,124.74,170.1,521.63,Unlimited,SBD,F,
Girls,117.71,3,Skyla High,Ferris,107.05,136.08,97.52,136.08,369.68,Unlimited,SBD,F,
Girls,117.71,4,Savannah Fisher,Whitehouse,102.87,115.67,79.38,127.01,322.05,Unlimited,SBD,F,
Girls,117.71,5,Briana Mares,Dallas A+,105.05,102.06,43.09,102.06,247.21,Unlimited,SBD,F,
Girls,117.71,6,Sanya Hamilton,Dallas Life Oak Cliff,105.78,92.99,52.16,74.84,219.99,Unlimited,SBD,F,
Girls,117.71,7,Tracy Sosa,Mesquite Poteet,105.14,63.5,45.36,92.99,201.85,Unlimited,SBD,F,
Girls,117.71,8,Angelica Mendoza,Dallas A+,112.13,83.91,34.02,83.91,201.85,Unlimited,SBD,F,
Girls,117.71+,1,Codi Miller,Ferris,120.66,172.37,90.72,149.69,412.77,Unlimited,SBD,F,
Girls,117.71+,2,Mackenzie Piper,Whitehouse,129.82,204.12,81.65,127.01,412.77,Unlimited,SBD,F,
Girls,117.71+,3,Tatum Wallace,Elkhart,122.65,127.01,81.65,117.93,326.59,Unlimited,SBD,F,
Girls,117.71+,4,Briana Rojas,Dallas A+,126.1,142.88,61.23,120.2,324.32,Unlimited,SBD,F,
Girls,117.71+,5,Monica Carrie,Dallas A+,133.08,102.06,52.16,102.06,256.28,Unlimited,SBD,F,
Girls,117.71+,DQ,Zaryiah Henderson,Terrell,135.62,124.74,,,,Unlimited,SBD,F,
