Division,WeightClassKg,Place,Name,Team,BodyweightKg,Best3SquatKg,Best3BenchKg,Best3DeadliftKg,TotalKg,Equipment,Event,Sex
Boys,51.71,1,Kyron Cobb,Wills Point,38.19,61.23,29.48,61.23,151.95,Single-ply,SBD,M
Boys,55.79,1,Richard Lowrie,Kemp,53.98,147.42,83.91,131.54,362.87,Single-ply,SBD,M
Boys,55.79,2,Omar Hernandez #3,Athens,55.43,113.4,88.45,158.76,360.61,Single-ply,SBD,M
Boys,55.79,3,Nate Mendoza,Kemp,52.89,106.59,58.97,138.35,303.91,Single-ply,SBD,M
Boys,55.79,4,Manuel Vazquez,Athens,55.7,115.67,70.31,117.93,303.91,Single-ply,SBD,M
Boys,55.79,5,Kaden McKinney,Van,55.79,102.06,49.9,127.01,278.96,Single-ply,SBD,M
Boys,55.79,6,Daniel Vazquez,Athens,52.89,97.52,61.23,106.59,265.35,Single-ply,SBD,M
Boys,55.79,DQ,Jalil Muhammed,Teague,55.34,,81.65,115.67,,Single-ply,SBD,M
Boys,59.87,1,Josh Williams,Troup,59.51,127.01,56.7,158.76,342.46,Single-ply,SBD,M
Boys,59.87,2,Chance Massaro,Brownsboro,58.15,117.93,72.57,129.27,319.78,Single-ply,SBD,M
Boys,59.87,3,Chad Cole,Troup,59.42,115.67,72.57,127.01,315.25,Single-ply,SBD,M
Boys,59.87,4,Larry Hampton,Winona,58.15,124.74,56.7,124.74,306.17,Single-ply,SBD,M
Boys,59.87,5,David Umana,Wills Point,58.97,104.33,58.97,136.08,299.37,Single-ply,SBD,M
Boys,59.87,DQ,Allen Schira,Van,57.15,102.06,,113.4,,Single-ply,SBD,M
Boys,67.13,1,Trevor Harrell,Wills Point,62.87,124.74,83.91,142.88,351.53,Single-ply,SBD,M
Boys,67.13,2,Julian Fierros,Longview Pine Tree,60.87,113.4,81.65,142.88,337.93,Single-ply,SBD,M
Boys,67.13,3,Luis Laborador,Kerens,60.78,120.2,74.84,136.08,331.12,Single-ply,SBD,M
Boys,67.13,4,Garrett Daniels,Grand Saline,66.86,120.2,72.57,136.08,328.85,Single-ply,SBD,M
Boys,67.13,DQ,Fabin Roman,Quitman,66.13,174.63,,185.97,,Single-ply,SBD,M
Boys,74.84,1,Justin Griffin,Eustace,71.85,204.12,124.74,206.38,535.24,Single-ply,SBD,M
Boys,74.84,2,Bryce Stephens,Brownsboro,70.03,190.51,117.93,174.63,483.08,Single-ply,SBD,M
Boys,74.84,3,Jax Tobias,Van,73.94,176.9,104.33,185.97,467.2,Single-ply,SBD,M
Boys,74.84,4,Alberto Alvarado,Brownsboro,72.48,188.24,81.65,195.04,464.93,Single-ply,SBD,M
Boys,74.84,5,Bryant King,Brownsboro,71.3,170.1,97.52,183.7,451.32,Single-ply,SBD,M
Boys,74.84,6,Clay Hinkle,Eustace,70.76,163.29,92.99,176.9,433.18,Single-ply,SBD,M
Boys,74.84,7,Humberto Cardosa,New London West Rusk,70.49,158.76,95.25,158.76,412.77,Single-ply,SBD,M
Boys,74.84,8,Jose Cerda,New London West Rusk,70.4,158.76,83.91,165.56,408.23,Single-ply,SBD,M
Boys,74.84,9,Bobby Posey,Brownsboro,73.03,145.15,86.18,161.03,392.36,Single-ply,SBD,M
Boys,74.84,10,Cody McCaleb,Kerens,73.21,142.88,77.11,133.81,353.8,Single-ply,SBD,M
Boys,74.84,11,Colton Whitsell,Troup,73.12,124.74,72.57,147.42,344.73,Single-ply,SBD,M
Boys,74.84,12,Jorge Diaz,Teague,71.94,115.67,72.57,127.01,315.25,Single-ply,SBD,M
Boys,74.84,13,Juan Medina,Teague,74.12,111.13,70.31,111.13,292.57,Single-ply,SBD,M
Boys,74.84,14,Hunter McNutt,Winona,69.94,81.65,61.23,138.35,281.23,Single-ply,SBD,M
Boys,74.84,DQ,Tristan Clarke,Troup,73.39,158.76,83.91,,,Single-ply,SBD,M
Boys,74.84,DQ,Tristan Gentry,Van,74.84,138.35,,158.76,,Single-ply,SBD,M
Boys,74.84,DQ,Chris Ford,Longview Pine Tree,69.49,181.44,,,,Single-ply,SBD,M
Boys,74.84,DQ,Da'Michael Harvey,Kerens,69.76,163.29,,163.29,,Single-ply,SBD,M
Boys,74.84,DQ,Timothy Block,Grand Saline,68.67,99.79,,,,Single-ply,SBD,M
Boys,82.1,1,Keenan Hargest,Eustace,80.83,213.19,120.2,229.06,562.45,Single-ply,SBD,M
Boys,82.1,2,Jake Hibdon,Kemp,81.01,167.83,136.08,181.44,485.34,Single-ply,SBD,M
Boys,82.1,3,Josh Hull,Wills Point,79.11,161.03,106.59,183.7,451.32,Single-ply,SBD,M
Boys,82.1,4,Maalik Hall,Athens,80.83,165.56,92.99,181.44,439.98,Single-ply,SBD,M
Boys,82.1,5,Isiah Ricjardson,Longview Pine Tree,80.92,158.76,92.99,188.24,439.98,Single-ply,SBD,M
Boys,82.1,6,Tyler Garrett,Kemp,80.74,167.83,104.33,158.76,430.91,Single-ply,SBD,M
Boys,82.1,7,Adrian Martinez #9,Grand Saline,77.2,136.08,117.93,158.76,412.77,Single-ply,SBD,M
Boys,82.1,8,Nick Poppenhusen,Quitman,76.48,142.88,97.52,158.76,399.16,Single-ply,SBD,M
Boys,82.1,9,Sergio Aguilar,Brownsboro,76.48,136.08,88.45,154.22,378.75,Single-ply,SBD,M
Boys,82.1,10,Diego Molina,New London West Rusk,76.75,124.74,74.84,136.08,335.66,Single-ply,SBD,M
Boys,82.1,11,Omero Arriaga,Teague,80.74,127.01,70.31,122.47,319.78,Single-ply,SBD,M
Boys,82.1,12,Josh Bateman,Athens,78.02,120.2,61.23,113.4,294.84,Single-ply,SBD,M
Boys,82.1,DQ,Alan Quezada,Kemp,81.37,219.99,,,,Single-ply,SBD,M
Boys,89.81,1,Juan Garcia #1,Eustace,88.81,176.9,102.06,208.65,487.61,Single-ply,SBD,M
Boys,89.81,2,Taylor Little,Kemp,83.37,181.44,108.86,181.44,471.74,Single-ply,SBD,M
Boys,89.81,3,Zach Bradford,Winona,83.55,172.37,102.06,185.97,460.4,Single-ply,SBD,M
Boys,89.81,4,Derek Mayhugh,Grand Saline,84.64,167.83,102.06,170.1,439.98,Single-ply,SBD,M
Boys,89.81,5,Kasey Cockrell,Kemp,87.45,154.22,102.06,167.83,424.11,Single-ply,SBD,M
Boys,89.81,6,Beckett Preston,Van,84.82,142.88,90.72,163.29,396.89,Single-ply,SBD,M
Boys,89.81,7,Cash Nations,Grand Saline,83.1,124.74,92.99,149.69,367.41,Single-ply,SBD,M
Boys,89.81,DQ,Jake Kellum,Van,85.28,,106.59,158.76,,Single-ply,SBD,M
Boys,99.79,1,Jakorey Sherow,Longview Pine Tree,99.34,272.16,140.61,226.8,639.57,Single-ply,SBD,M
Boys,99.79,2,Logan Fuller,Athens,91.99,249.48,149.69,208.65,607.81,Single-ply,SBD,M
Boys,99.79,3,Alex Baker #3,Longview Pine Tree,99.16,226.8,122.47,226.8,576.06,Single-ply,SBD,M
Boys,99.79,4,Christian Lemus,Van,97.07,215.46,142.88,163.29,521.63,Single-ply,SBD,M
Boys,99.79,5,Daniel Carter,Winona,91.53,183.7,127.01,204.12,514.83,Single-ply,SBD,M
Boys,99.79,6,Hayden Roberts,Teague,92.17,170.1,106.59,181.44,458.13,Single-ply,SBD,M
Boys,99.79,7,Aaron Smith,Brownsboro,95.35,156.49,102.06,170.1,428.64,Single-ply,SBD,M
Boys,99.79,8,Pablo Pachuca,Kerens,92.26,158.76,90.72,176.9,426.38,Single-ply,SBD,M
Boys,99.79,9,Jose Fuentes,Longview Pine Tree,92.26,124.74,102.06,154.22,381.02,Single-ply,SBD,M
Boys,99.79,10,Clarence Earvin,Athens,92.99,142.88,83.91,154.22,381.02,Single-ply,SBD,M
Boys,99.79,11,Isaiah Bell,Teague,91.17,136.08,86.18,142.88,365.14,Single-ply,SBD,M
Boys,99.79,12,Brett Benson,Longview Pine Tree,92.53,56.7,43.09,54.43,154.22,Single-ply,SBD,M
Boys,109.77,1,Nick Wright #2,Brownsboro,104.78,226.8,154.22,226.8,607.81,Single-ply,SBD,M
Boys,109.77,2,Marcus Williams #2,Teague,102.69,238.14,120.2,222.26,580.6,Single-ply,SBD,M
Boys,109.77,3,David Delgado,Kemp,103.42,229.06,142.88,195.04,566.99,Single-ply,SBD,M
Boys,109.77,4,Andrew Hardman,Wills Point,105.96,249.48,129.27,188.24,566.99,Single-ply,SBD,M
Boys,109.77,5,Noah Bush,Athens,101.97,188.24,142.88,226.8,557.92,Single-ply,SBD,M
Boys,109.77,6,Caleb York,Van,108.86,204.12,111.13,181.44,496.68,Single-ply,SBD,M
Boys,109.77,7,Sammy Palma,Grand Saline,100.7,172.37,111.13,204.12,487.61,Single-ply,SBD,M
Boys,109.77,8,Brody Bushnell,Wills Point,106.32,165.56,108.86,188.24,462.66,Single-ply,SBD,M
Boys,109.77,9,Colton Thedford,Van,107.5,176.9,102.06,181.44,460.4,Single-ply,SBD,M
Boys,109.77,10,Alfredo Miranda,Athens,108.5,181.44,108.86,158.76,449.06,Single-ply,SBD,M
Boys,109.77,11,Logan Hall,Kemp,108.59,158.76,113.4,174.63,446.79,Single-ply,SBD,M
Boys,109.77,12,Dakota Fourman,Longview Pine Tree,102.06,102.06,61.23,115.67,278.96,Single-ply,SBD,M
Boys,109.77,DQ,Eli Crawford,Kerens,107.05,238.14,120.2,,,Single-ply,SBD,M
Boys,109.77,DQ,Sloan Rodburg,Wills Point,101.06,183.7,127.01,,,Single-ply,SBD,M
Boys,109.77,DQ,Keith Burkes,Longview Pine Tree,106.23,102.06,,165.56,,Single-ply,SBD,M
Boys,124.74,1,Ryan Mitchell #2,Teague,123.38,374.21,210.92,265.35,850.49,Single-ply,SBD,M
Boys,124.74,2,Chad Walker #2,Athens,123.92,249.48,181.44,226.8,657.71,Single-ply,SBD,M
Boys,124.74,3,Luke Linebaugh,Kemp,114.31,238.14,117.93,226.8,582.87,Single-ply,SBD,M
Boys,124.74,4,Roland Stevens,Grand Saline,119.75,190.51,124.74,181.44,496.68,Single-ply,SBD,M
Boys,124.74,5,Marcus Staggs,Eustace,118.57,190.51,104.33,199.58,494.42,Single-ply,SBD,M
Boys,124.74,6,Victor Martinez,New London West Rusk,112.94,151.95,83.91,142.88,378.75,Single-ply,SBD,M
Boys,124.74,DQ,Alex Cash,Winona,124.1,183.7,,158.76,,Single-ply,SBD,M
Boys,124.74+,1,Jonathan Amaro,Wills Point,130.09,233.6,129.27,192.78,555.65,Single-ply,SBD,M
Boys,124.74+,2,Joseph Lopez #6,Kemp,153.77,204.12,127.01,197.31,528.44,Single-ply,SBD,M
Boys,124.74+,3,Ty Nick,Winona,126.92,226.8,108.86,183.7,519.36,Single-ply,SBD,M
Boys,124.74+,4,Jarred Norman,Wills Point,125.55,192.78,120.2,204.12,517.1,Single-ply,SBD,M
Boys,124.74+,5,Isaac Sims,Quitman,131.36,170.1,104.33,195.04,469.47,Single-ply,SBD,M
Boys,124.74+,6,Sharad Edmond,Longview Pine Tree,141.7,170.1,102.06,197.31,469.47,Single-ply,SBD,M
Boys,124.74+,7,Brandon Henson,Winona,131.09,195.04,108.86,154.22,458.13,Single-ply,SBD,M
Boys,124.74+,8,Braydon Jones,Wills Point,133.54,183.7,81.65,161.03,426.38,Single-ply,SBD,M
Boys,124.74+,9,Cole Brumbelow,Kerens,147.51,158.76,90.72,174.63,424.11,Single-ply,SBD,M
Boys,124.74+,10,Noah Luelling,Quitman,130.54,158.76,95.25,158.76,412.77,Single-ply,SBD,M
Boys,124.74+,11,Jordan Young,Van,136.98,158.76,97.52,154.22,410.5,Single-ply,SBD,M
Boys,,NS,Garrett Barnes,Grand Saline,,,,,,Single-ply,SBD,M
Boys,,NS,Justin Simmons,Grand Saline,,,,,,Single-ply,SBD,M
Boys,,NS,Jacob Bancook,Grand Saline,,,,,,Single-ply,SBD,M
Boys,,NS,Nate Wright,Brownsboro,,,,,,Single-ply,SBD,M
