Division,WeightClassKg,Place,Name,Team,BodyweightKg,Best3SquatKg,Best3BenchKg,Best3DeadliftKg,TotalKg,Equipment,Event,Sex,BirthDate
Boys,51.71,1,Max Cabrera,Sunnyvale,51.26,97.52,68.04,102.06,267.62,Unlimited,SBD,M,
Boys,51.71,2,Jonah Stidham,Sunnyvale,45.36,97.52,47.63,111.13,256.28,Unlimited,SBD,M,
Boys,55.79,1,Chance Walker,Ferris,55.61,113.4,68.04,115.67,297.1,Unlimited,SBD,M,
Boys,55.79,2,Preston Sullivan,Kemp,54.61,97.52,74.84,86.18,258.55,Unlimited,SBD,M,
Boys,59.87,1,Emanuel Mathews,Sunnyvale,59.42,170.1,90.72,161.03,421.84,Unlimited,SBD,M,
Boys,59.87,2,Carter Sullivan,Kemp,58.33,124.74,97.52,142.88,365.14,Unlimited,SBD,M,
Boys,59.87,3,Travis Williamson,Sunnyvale,58.06,158.76,83.91,90.72,333.39,Unlimited,SBD,M,
Boys,59.87,4,Alonzo Grandez,Mesquite Poteet,56.34,102.06,49.9,131.54,283.5,Unlimited,SBD,M,
Boys,67.13,2,Jaydin Conner,Mesquite Poteet,64.86,142.88,83.91,158.76,385.55,Unlimited,SBD,M,
Boys,67.13,3,Xavien Dean,Carrollton Ranchview,63.59,158.76,86.18,124.74,369.68,Unlimited,SBD,M,
Boys,67.13,4,Preston Harris,West Mesquite,65.14,122.47,83.91,142.88,349.27,Unlimited,SBD,M,
Boys,67.13,5,Bryan Williams,Kemp,65.77,122.47,74.84,122.47,319.78,Unlimited,SBD,M,
Boys,67.13,6,Wodrick Varnes,West Mesquite,66.77,104.33,65.77,113.4,283.5,Unlimited,SBD,M,
Boys,74.84,1,Lanceden Surratt,Kemp,67.31,147.42,102.06,167.83,417.3,Unlimited,SBD,M,
Boys,74.84,1,Dawon Smith,Everman,71.21,188.24,102.06,192.78,483.08,Unlimited,SBD,M,
Boys,74.84,2,Mikey Melgar,Kemp,71.4,108.86,122.47,181.44,412.77,Unlimited,SBD,M,
Boys,74.84,3,Chris Cantu,Ferris,73.03,136.08,95.25,161.03,392.36,Unlimited,SBD,M,
Boys,74.84,4,Tristian Johnson,Mesquite Poteet,69.85,136.08,79.38,142.88,358.34,Unlimited,SBD,M,
Boys,74.84,5,Tyler Varnes,West Mesquite,71.4,113.4,74.84,124.74,312.98,Unlimited,SBD,M,
Boys,74.84,6,Tayvion Butler,Mesquite Horn,67.95,102.06,70.31,136.08,308.44,Unlimited,SBD,M,
Boys,74.84,DQ,Austin Cragun,Sunnyvale,73.94,233.6,,,,Unlimited,SBD,M,
Boys,82.1,1,Shemar Williams,Everman,76.11,192.78,117.93,215.46,526.17,Unlimited,SBD,M,
Boys,82.1,2,Justin Brazille,Everman,81.19,183.7,92.99,201.85,478.54,Unlimited,SBD,M,
Boys,82.1,3,Zavier Lanier,Duncanville,80.38,149.69,108.86,158.76,417.3,Unlimited,SBD,M,
Boys,82.1,4,Yusif Adgebite,Duncanville,81.74,170.1,102.06,142.88,415.04,Unlimited,SBD,M,
Boys,82.1,5,Kamari Carter,West Mesquite,82.1,156.49,83.91,151.95,392.36,Unlimited,SBD,M,
Boys,82.1,6,Maddox Henderson,Kemp,77.29,106.59,113.4,154.22,374.21,Unlimited,SBD,M,
Boys,82.1,7,Keyshawn Green,West Mesquite,75.39,129.27,104.33,124.74,358.34,Unlimited,SBD,M,
Boys,82.1,8,Robert Earl Singleton,Duncanville,75.75,90.72,102.06,136.08,328.85,Unlimited,SBD,M,
Boys,82.1,DQ,Braylon Edwards,Duncanville,82.1,,,,,Unlimited,SBD,M,
Boys,89.81,1,Robert White,Sunnyvale,88.45,242.67,129.27,204.12,576.06,Unlimited,SBD,M,
Boys,89.81,2,Ethan Walker,Sunnyvale,87.09,165.56,124.74,174.63,464.93,Unlimited,SBD,M,
Boys,89.81,3,Jaydon Redmon,West Mesquite,83.19,170.1,106.59,174.63,451.32,Unlimited,SBD,M,
Boys,89.81,4,Lamaj Waters,Carrollton Ranchview,89.18,170.1,113.4,142.88,426.38,Unlimited,SBD,M,
Boys,89.81,5,Jaydon Dotson,West Mesquite,82.37,149.69,113.4,145.15,408.23,Unlimited,SBD,M,
Boys,89.81,6,Jailon Hicks,West Mesquite,88.63,149.69,95.25,158.76,403.7,Unlimited,SBD,M,
Boys,89.81,DQ,Jayden Luna,Ferris,85.28,,,,,Unlimited,SBD,M,
Boys,99.79,1,Leon Wood,Duncanville,97.79,254.01,142.88,190.51,587.4,Unlimited,SBD,M,
Boys,99.79,2,Ethan Samuel,Sunnyvale,97.16,213.19,136.08,199.58,548.85,Unlimited,SBD,M,
Boys,99.79,3,Armond Walton,Duncanville,94.89,154.22,131.54,226.8,512.56,Unlimited,SBD,M,
Boys,99.79,4,DaeDrion Holley,West Mesquite,95.8,158.76,106.59,181.44,446.79,Unlimited,SBD,M,
Boys,99.79,5,Brandon Dukes,Everman,94.44,156.49,102.06,165.56,424.11,Unlimited,SBD,M,
Boys,99.79,6,John Harris,Mesquite Horn,98.07,161.03,86.18,142.88,390.09,Unlimited,SBD,M,
Boys,99.79,DQ,Areston Sparks,West Mesquite,95.8,142.88,,,,Unlimited,SBD,M,
Boys,109.77,1,Landon Barns,Duncanville,102.78,235.87,145.15,229.06,610.08,Unlimited,SBD,M,
Boys,109.77,2,Randy Rodriguez,West Mesquite,103.06,231.33,124.74,229.06,585.13,Unlimited,SBD,M,
Boys,109.77,3,Blaze Flanagan,Sunnyvale,106.14,249.48,145.15,183.7,578.33,Unlimited,SBD,M,
Boys,109.77,4,Jaylyn Manning,Duncanville,105.32,183.7,124.74,229.06,537.51,Unlimited,SBD,M,
Boys,109.77,5,Selah Smith,Sunnyvale,107.05,208.65,113.4,208.65,530.7,Unlimited,SBD,M,
Boys,109.77,6,Abel Gallegos,Kemp,101.88,192.78,122.47,197.31,512.56,Unlimited,SBD,M,
Boys,109.77,7,Alex Sanchez,West Mesquite,101.97,183.7,120.2,199.58,503.49,Unlimited,SBD,M,
Boys,109.77,8,John Richardson,Duncanville,106.23,188.24,113.4,190.51,492.15,Unlimited,SBD,M,
Boys,109.77,9,Jorge Lopez Bonilla,Everman,104.51,161.03,120.2,147.42,428.64,Unlimited,SBD,M,
Boys,109.77,10,Giovanni Salgado,Mesquite Poteet,107.86,149.69,83.91,188.24,421.84,Unlimited,SBD,M,
Boys,124.74,1,Alyric Brown,Sunnyvale,118.39,317.51,183.7,294.84,796.05,Unlimited,SBD,M,
Boys,124.74,2,Chris Williams,Carrollton Ranchview,124.19,260.82,165.56,254.01,680.39,Unlimited,SBD,M,
Boys,124.74,3,Chaska Martin,Mesquite Horn,119.84,206.38,124.74,215.46,546.58,Unlimited,SBD,M,
Boys,124.74,4,Marcus Watson,West Mesquite,124.65,183.7,131.54,204.12,519.36,Unlimited,SBD,M,
Boys,124.74,5,Kema Kanayo,Sunnyvale,112.04,190.51,108.86,192.78,492.15,Unlimited,SBD,M,
Boys,124.74,6,Josh Burelson,Sunnyvale,119.29,183.7,115.67,190.51,489.88,Unlimited,SBD,M,
Boys,124.74,7,Dieko Akinnawonu,Duncanville,122.47,149.69,117.93,183.7,451.32,Unlimited,SBD,M,
Boys,124.74,8,Devin Doss,Everman,116.21,163.29,120.2,147.42,430.91,Unlimited,SBD,M,
Boys,124.74,9,Jason Bursino,Sunnyvale,117.03,158.76,113.4,158.76,430.91,Unlimited,SBD,M,
Boys,139.71,1,Flavio Ortiz,Ferris,133.54,283.5,165.56,208.65,657.71,Unlimited,SBD,M,
Boys,139.71,2,Khalil Johnson,Carrollton Ranchview,137.89,251.74,158.76,195.04,605.55,Unlimited,SBD,M,
Boys,139.71,3,Dylan Williams,Duncanville,125.83,226.8,147.42,183.7,557.92,Unlimited,SBD,M,
Boys,139.71,4,Cooper Eastman,Sunnyvale,132.45,170.1,151.95,226.8,548.85,Unlimited,SBD,M,
Boys,139.71,5,Jevon Young,Everman,134.9,210.92,151.95,170.1,532.97,Unlimited,SBD,M,
Boys,139.71,6,Ayden Navarro,Everman,131.27,192.78,102.06,183.7,478.54,Unlimited,SBD,M,
Boys,139.71,7,Roberto Stoner,Everman,126.1,183.7,117.93,158.76,460.4,Unlimited,SBD,M,
Boys,139.71+,1,Brenden Lockhart,Ferris,165.83,224.53,147.42,208.65,580.6,Unlimited,SBD,M,
Boys,139.71+,2,Keith Dotie,Mesquite Poteet,140.43,183.7,136.08,215.46,535.24,Unlimited,SBD,M,
Boys,139.71+,3,Adrian Gonzales,Carrollton Ranchview,155.58,176.9,102.06,195.04,474,Unlimited,SBD,M,
