Division,WeightClassKg,Place,Name,Team,BodyweightKg,Best3SquatKg,Best3BenchKg,Best3DeadliftKg,TotalKg,Equipment,Event,Sex
Boys,51.71,1,Jacory Bellnamy,Houston Madison,50.62,151.95,63.5,136.08,351.53,Single-ply,SBD,M
Boys,51.71,2,Richard Bernier,Katy Mayde Creek,44.81,92.99,49.9,113.4,256.28,Single-ply,SBD,M
Boys,51.71,3,Keyshawn Johnson,La Marque,46.54,56.7,36.29,81.65,174.63,Single-ply,SBD,M
Boys,51.71,DQ,Ricardo Gallardo,Freeport Brazosport,51.71,,,,,Single-ply,SBD,M
Boys,55.79,1,Dominic Monsivaiz,Dickinson,55.43,149.69,77.11,147.42,374.21,Single-ply,SBD,M
Boys,59.87,1,Chen Phan,Dickinson,58.97,154.22,92.99,181.44,428.64,Single-ply,SBD,M
Boys,67.13,2,Alex Amador,Freeport Brazosport,59.96,165.56,90.72,170.1,426.38,Single-ply,SBD,M
Boys,59.87,3,Jim Tran,Dickinson,58.79,140.61,86.18,174.63,401.43,Single-ply,SBD,M
Boys,59.87,4,Paul Bass,Katy Mayde Creek,58.97,145.15,65.77,149.69,360.61,Single-ply,SBD,M
Boys,59.87,5,Fabian Vega,Pasadena Memorial,59.69,104.33,72.57,117.93,294.84,Single-ply,SBD,M
Boys,59.87,6,Nicholas Ortega,Katy Taylor,58.97,117.93,61.23,90.72,269.89,Single-ply,SBD,M
Boys,59.87,DQ,Curry Thomas,Channelview,59.87,,,,,Single-ply,SBD,M
Boys,59.87,DQ,Brandon Jordan,Dickinson,58.69,124.74,83.91,,,Single-ply,SBD,M
Boys,74.84,1,Alec DeLeon,Dickinson,67.31,235.87,136.08,217.72,589.67,Single-ply,SBD,M
Boys,67.13,2,Tuciano Pope,Channelview,65.68,170.1,97.52,192.78,460.4,Single-ply,SBD,M
Boys,67.13,3,Brandon Martinez,Dickinson,65.95,170.1,106.59,181.44,458.13,Single-ply,SBD,M
Boys,67.13,4,Cecilio Hernandez,Dickinson,63.32,163.29,113.4,179.17,455.86,Single-ply,SBD,M
Boys,74.84,5,Thomas Bauer,Katy Taylor,67.22,142.88,83.91,158.76,385.55,Single-ply,SBD,M
Boys,67.13,6,Tyvarian Lane,Stafford,61.69,149.69,97.52,136.08,383.29,Single-ply,SBD,M
Boys,67.13,7,Ramon Ayala,Pearland,64.41,138.35,102.06,142.88,383.29,Single-ply,SBD,M
Boys,67.13,8,Jacory Lovings,Houston Madison,64.05,70.31,52.16,102.06,224.53,Single-ply,SBD,M
Boys,67.13,DQ,Kj Dawson,Katy Mayde Creek,67.04,,,,,Single-ply,SBD,M
Boys,67.13,DQ,Donovan Lee,Katy Mayde Creek,67.13,,,,,Single-ply,SBD,M
Boys,67.13,DQ,Dylan Billiott,La Marque,67.13,,,,,Single-ply,SBD,M
Boys,67.13,DQ,Carnell White,La Marque,67.13,,,,,Single-ply,SBD,M
Boys,67.13,DQ,Michael Jackson,La Marque,67.13,,,,,Single-ply,SBD,M
Boys,74.84,1,Cournelious Vaughans,Dickinson,74.75,217.72,151.95,195.04,564.72,Single-ply,SBD,M
Boys,74.84,2,Roy Lewis,Houston Westbury,70.03,165.56,108.86,192.78,467.2,Single-ply,SBD,M
Boys,82.1,3,Kevin Agostinho,Katy Taylor,75.02,170.1,111.13,183.7,464.93,Single-ply,SBD,M
Boys,74.84,4,Dawson Nobriga,Channelview,70.4,163.29,97.52,158.76,419.57,Single-ply,SBD,M
Boys,74.84,5,Giovannie Porreto,Dickinson,73.94,149.69,102.06,167.83,419.57,Single-ply,SBD,M
Boys,74.84,6,Cameron Amieva,Dickinson,73.75,142.88,90.72,172.37,405.97,Single-ply,SBD,M
Boys,74.84,7,Jalen Williams,Dickinson,74.39,151.95,68.04,181.44,401.43,Single-ply,SBD,M
Boys,82.1,8,Jamal Franklin,Houston Madison,74.93,124.74,79.38,163.29,367.41,Single-ply,SBD,M
Boys,74.84,9,Hebert Cipriano,Houston Westbury,73.39,90.72,52.16,106.59,249.48,Single-ply,SBD,M
Boys,74.84,DQ,Calvin Laskey,Katy Mayde Creek,74.84,,,,,Single-ply,SBD,M
Boys,74.84,DQ,Devantae Stafford,Freeport Brazosport,74.84,,,,,Single-ply,SBD,M
Boys,74.84,DQ,Etterious Giles,Channelview,74.84,,,,,Single-ply,SBD,M
Boys,74.84,DQ,Christian Ramirez #5,Channelview,74.84,,,,,Single-ply,SBD,M
Boys,74.84,DQ,Deion Wallace,Pasadena Memorial,74.84,,,,,Single-ply,SBD,M
Boys,74.84,DQ,Caleb Jones #4,Texas City,70.31,,,,,Single-ply,SBD,M
Boys,82.1,1,Tahj Edwards,Freeport Brazosport,77.02,199.58,117.93,199.58,517.1,Single-ply,SBD,M
Boys,82.1,2,Nathan Lewis,Freeport Brazosport,81.92,174.63,104.33,226.8,505.76,Single-ply,SBD,M
Boys,82.1,3,Madrigal Laurencio,Freeport Brazosport,75.93,170.1,90.72,197.31,458.13,Single-ply,SBD,M
Boys,82.1,4,Anival Villatoro,Pasadena Memorial,80.2,172.37,90.72,181.44,444.52,Single-ply,SBD,M
Boys,82.1,5,Brandon Caldera,Pasadena Memorial,77.47,149.69,90.72,151.95,392.36,Single-ply,SBD,M
Boys,82.1,6,Connor Culter,Dickinson,77.02,136.08,83.91,165.56,385.55,Single-ply,SBD,M
Boys,82.1,7,Benmar Vasquez,Houston Westbury,81.37,131.54,68.04,136.08,335.66,Single-ply,SBD,M
Boys,82.1,8,Gejuan Morris,Houston Madison,81.83,104.33,58.97,142.88,306.17,Single-ply,SBD,M
Boys,82.1,9,Carlos Frank,Texas City,78.29,,108.86,188.24,297.1,Single-ply,BD,M
Boys,82.1,DQ,Dante Frank,Texas City,78.47,,,,,Single-ply,BD,M
Boys,82.1,DQ,Exavier Simpson,Texas City,75.75,,,,,Single-ply,BD,M
Boys,82.1,DQ,Miguel Medina,Pasadena Memorial,82.1,,,,,Single-ply,BD,M
Boys,82.1,DQ,Brandon Wade,La Marque,82.1,,,,,Single-ply,BD,M
Boys,82.1,DQ,Austin LeFevre,Katy Taylor,82.1,,,,,Single-ply,BD,M
Boys,82.1,DQ,Jayden Bishop,La Marque,82.1,,,,,Single-ply,BD,M
Boys,82.1,DQ,Jahcyi Thomas,Freeport Brazosport,82.1,,,,,Single-ply,BD,M
Boys,82.1,DQ,Ashton Turner,Channelview,82.1,,,,,Single-ply,BD,M
Boys,89.81,1,Jalen Hurts,Channelview,89.81,249.48,124.74,256.28,630.49,Single-ply,SBD,M
Boys,89.81,2,Ezra Betancud,Katy Mayde Creek,87.63,210.92,124.74,226.8,562.45,Single-ply,SBD,M
Boys,89.81,3,Charles Hester,Stafford,85.46,170.1,120.2,226.8,517.1,Single-ply,SBD,M
Boys,89.81,4,Gabe Benitez,Pearland,84.19,192.78,113.4,192.78,498.95,Single-ply,SBD,M
Boys,89.81,5,Gil Bernal,Channelview,88.09,192.78,104.33,188.24,485.34,Single-ply,SBD,M
Boys,99.79,6,Anthony Gazoria,Channelview,89.9,165.56,102.06,183.7,451.32,Single-ply,SBD,M
Boys,89.81,7,Nick Tucci,Katy Taylor,84.64,158.76,90.72,158.76,408.23,Single-ply,SBD,M
Boys,89.81,8,Luis Deleon,Pasadena Memorial,87.72,113.4,86.18,142.88,342.46,Single-ply,SBD,M
Boys,89.81,9,Eric Ramirez,Pearland,85.55,,102.06,192.78,294.84,Single-ply,BD,M
Boys,89.81,10,Trevor Anderson,Dickinson,88.63,,,195.04,195.04,Single-ply,D,M
Boys,89.81,DQ,Jaylen Brown #3,Katy Mayde Creek,89.81,,,,,Single-ply,D,M
Boys,89.81,DQ,Tyler Gay,Houston Chavez,89.81,,,,,Single-ply,D,M
Boys,89.81,DQ,Moises Garcia-Hernandez,Houston Chavez,89.81,,,,,Single-ply,D,M
Boys,89.81,DQ,Misael Pineda,Stafford,89.81,,,,,Single-ply,D,M
Boys,89.81,DQ,Jaquarion Vanzant,Texas City,88.45,,,,,Single-ply,D,M
Boys,99.79,1,Andre Salazar,Pearland,99.43,206.38,131.54,204.12,542.04,Single-ply,SBD,M
Boys,99.79,2,Daniel Martinez #15,Freeport Brazosport,99.16,195.04,122.47,208.65,526.17,Single-ply,SBD,M
Boys,109.77,3,Eddie White,Pearland,99.97,192.78,129.27,201.85,523.9,Single-ply,SBD,M
Boys,99.79,4,Tristan Anderson,Dickinson,96.62,197.31,106.59,217.72,521.63,Single-ply,SBD,M
Boys,99.79,5,Mark Contreras,Freeport Brazosport,95.62,170.1,136.08,195.04,501.22,Single-ply,SBD,M
Boys,99.79,6,Hunter Beardmore,Katy Taylor,95.16,165.56,104.33,185.97,455.86,Single-ply,SBD,M
Boys,99.79,7,Tahj Guillard,Houston Westbury,97.7,174.63,79.38,188.24,442.25,Single-ply,SBD,M
Boys,99.79,8,Edgar Gaona,Houston Westbury,93.8,136.08,65.77,165.56,367.41,Single-ply,SBD,M
Boys,99.79,9,Antoine Newman,Houston Madison,95.53,124.74,74.84,158.76,358.34,Single-ply,SBD,M
Boys,99.79,10,Jacob Salazar,Stafford,93.53,115.67,63.5,142.88,322.05,Single-ply,SBD,M
Boys,99.79,11,Chris Rios,Pasadena Memorial,94.71,,70.31,136.08,206.38,Single-ply,BD,M
Boys,109.77,1,Kaylond North,Dickinson,109.04,308.44,185.97,276.69,771.11,Single-ply,SBD,M
Boys,109.77,2,Anietie Etuk,Dickinson,105.41,249.48,151.95,278.96,680.39,Single-ply,SBD,M
Boys,109.77,3,Lorenzo Baeza,Texas City,106.23,272.16,158.76,233.6,664.51,Single-ply,SBD,M
Boys,109.77,4,Jared Reedy,Dickinson,109.5,267.62,149.69,231.33,648.64,Single-ply,SBD,M
Boys,124.74,5,Malcom Pringle,Houston Westbury,110,238.14,145.15,233.6,616.89,Single-ply,SBD,M
Boys,109.77,6,Rodney Rodriguez,Katy Taylor,104.33,229.06,124.74,190.51,544.31,Single-ply,SBD,M
Boys,109.77,7,Elton Woodard,Stafford,104.24,199.58,124.74,208.65,532.97,Single-ply,SBD,M
Boys,109.77,8,Remington Felder,Katy Mayde Creek,109.5,215.46,108.86,204.12,528.44,Single-ply,SBD,M
Boys,109.77,9,Niko Afuaamango,Pearland,106.96,183.7,131.54,201.85,517.1,Single-ply,SBD,M
Boys,109.77,10,Livan Lopez,Dickinson,101.06,204.12,106.59,204.12,514.83,Single-ply,SBD,M
Boys,109.77,11,Jessie Facunda,Pasadena Memorial,107.68,195.04,104.33,204.12,503.49,Single-ply,SBD,M
Boys,109.77,12,Ricardo Beliz,Dickinson,104.05,149.69,104.33,165.56,419.57,Single-ply,SBD,M
Boys,109.77,13,Roberto Varvelo,Channelview,105.96,185.97,,170.1,356.07,Single-ply,SD,M
Boys,109.77,14,Roy Naverette,Pasadena Memorial,100.97,,104.33,158.76,263.08,Single-ply,BD,M
Boys,109.77,15,Nick Muniz,Houston Westbury,107.05,92.99,38.56,83.91,215.46,Single-ply,SBD,M
Boys,109.77,16,Rudy Wilkins,Katy Taylor,105.32,113.4,,,113.4,Single-ply,S,M
Boys,109.77,DQ,Otito Ogbonnia,Katy Taylor,109.77,,,,,Single-ply,S,M
Boys,109.77,DQ,Dante Hayes,Texas City,108.86,,,,,Single-ply,S,M
Boys,109.77,DQ,Eduardo Moran,Katy Mayde Creek,109.77,,,,,Single-ply,S,M
Boys,109.77,DQ,Rafael Carrillo,Katy Mayde Creek,109.77,,,,,Single-ply,S,M
Boys,109.77,DQ,Ruben Garcia,Freeport Brazosport,109.77,,,,,Single-ply,S,M
Boys,124.74,1,Victor Guevara,Freeport Brazosport,113.04,233.6,142.88,219.99,596.47,Single-ply,SBD,M
Boys,124.74,2,Tim Thomas,Pasadena Memorial,119.48,226.8,115.67,222.26,564.72,Single-ply,SBD,M
Boys,124.74,3,Stephen Mendiola,Channelview,111.49,226.8,120.2,204.12,551.11,Single-ply,SBD,M
Boys,124.74,4,Mike Onyuego,Katy Mayde Creek,114.12,226.8,120.2,195.04,542.04,Single-ply,SBD,M
Boys,124.74,5,Anthony Salazar,Texas City,114.94,197.31,120.2,183.7,501.22,Single-ply,SBD,M
Boys,124.74,6,Baden Pethel,Texas City,118.3,201.85,113.4,181.44,496.68,Single-ply,SBD,M
Boys,124.74,7,Antonio Williams,Freeport Brazosport,115.94,181.44,108.86,201.85,492.15,Single-ply,SBD,M
Boys,124.74,8,Tylor Alfred,Pasadena Memorial,123.01,226.8,,217.72,444.52,Single-ply,SD,M
Boys,124.74,9,Sterling Ofoh,Houston Westbury,115.94,183.7,92.99,154.22,430.91,Single-ply,SBD,M
Boys,124.74,10,Ikemba Anyanwu,Houston Westbury,111.13,174.63,,156.49,331.12,Single-ply,SD,M
Boys,124.74,11,Sean Calais,Houston Westbury,112.49,142.88,,183.7,326.59,Single-ply,SD,M
Boys,124.74,12,Ruben Cardenas,Pasadena Memorial,111.31,,86.18,217.72,303.91,Single-ply,BD,M
Boys,124.74,DQ,Zach Arias,Pearland,122.47,,,,,Single-ply,BD,M
Boys,124.74,DQ,Devyn Billiott,La Marque,124.74,,,,,Single-ply,BD,M
Boys,124.74+,1,Alonzo Crittendon,Dickinson,138.98,342.46,158.76,288.03,789.25,Single-ply,SBD,M
Boys,124.74+,2,Chance Harmanson,Dickinson,143.7,299.37,185.97,272.16,757.5,Single-ply,SBD,M
Boys,124.74+,3,Chris Rogers,Katy Taylor,134.26,244.94,131.54,233.6,610.08,Single-ply,SBD,M
Boys,124.74+,4,John Vasquez,Dickinson,146.96,235.87,140.61,204.12,580.6,Single-ply,SBD,M
Boys,124.74+,5,William Tinner,La Marque,135.99,215.46,138.35,210.92,564.72,Single-ply,SBD,M
Boys,124.74+,6,Gino Cortez,Pearland,130.91,206.38,151.95,183.7,542.04,Single-ply,SBD,M
Boys,124.74+,7,Kevin Maddox,Houston Madison,152.23,201.85,115.67,192.78,510.29,Single-ply,SBD,M
Boys,124.74+,8,Jonathan Pecina,Houston Westbury,128.28,192.78,122.47,185.97,501.22,Single-ply,SBD,M
Boys,124.74+,9,Trevion Benoit,Houston Madison,146.15,204.12,111.13,163.29,478.54,Single-ply,SBD,M
Boys,124.74+,10,Anthonie Thomas,Houston Madison,150.86,136.08,90.72,181.44,408.23,Single-ply,SBD,M
Boys,124.74+,11,Manuel Mendez,Pasadena Memorial,130.63,131.54,90.72,154.22,376.48,Single-ply,SBD,M
Boys,124.74+,12,Lamont Montgomery,Houston Madison,126.28,124.74,,,124.74,Single-ply,S,M
Boys,124.74+,DQ,Marlon Ford,La Marque,125.65,,,,,Single-ply,S,M
Boys,124.74+,DQ,Moses Horn,Stafford,125.19,,,,,Single-ply,S,M
Boys,124.74+,DQ,LaVarion Vanzant,Texas City,145.15,,,,,Single-ply,S,M
Boys,124.74+,DQ,Chris Sampson,Texas City,133.81,192.78,136.08,,,Single-ply,SB,M
