Division,WeightClassKg,Place,Name,Team,BodyweightKg,Best3SquatKg,Best3BenchKg,Best3DeadliftKg,TotalKg,Equipment,Event,Sex,BirthDate
Girls,44.23,1,Lunah Orama,Kyle Lehman,43.73,92.99,38.56,108.86,240.4,Unlimited,SBD,F,
Girls,44.23,2,Mylei Donahue,Kyle Lehman,43,90.72,38.56,108.86,238.14,Unlimited,SBD,F,
Girls,44.23,3,Noelia Caldera,Del Valle,42.55,90.72,45.36,88.45,224.53,Unlimited,SBD,F,
Girls,44.23,4,Mercedes Reyes,Del Valle,40.82,77.11,36.29,90.72,204.12,Unlimited,SBD,F,
Girls,44.23,5,Abigail Arnold,College Station,41.64,65.77,38.56,72.57,176.9,Unlimited,SBD,F,
Girls,44.23,6,Andrea Sombrano,Smithville,39.73,52.16,24.95,77.11,154.22,Unlimited,SBD,F,
Girls,44.23,7,Hadley Shell,Buda Johnson,44.18,43.09,22.68,47.63,113.4,Unlimited,SBD,F,
Girls,47.85,1,Kendall Gutierrez,Kyle Lehman,47.54,136.08,56.7,133.81,326.59,Unlimited,SBD,F,
Girls,47.85,2,Angelica Doles,College Station,46.9,102.06,47.63,104.33,254.01,Unlimited,SBD,F,
Girls,47.85,3,Harmony Swanerbury,Buda Johnson,47.81,97.52,52.16,104.33,254.01,Unlimited,SBD,F,
Girls,47.85,4,Evalyn Velasquez,Buda Johnson,47.26,88.45,47.63,106.59,242.67,Unlimited,SBD,F,
Girls,47.85,5,Kayla Santana,Del Valle,47.81,90.72,47.63,102.06,240.4,Unlimited,SBD,F,
Girls,47.85,6,Zoey Smith,Elgin,46.18,81.65,47.63,102.06,231.33,Unlimited,SBD,F,
Girls,47.85,7,Abigail Housmans,Austin Lake Travis,46.81,83.91,52.16,83.91,219.99,Unlimited,SBD,F,
Girls,47.85,DQ,Monse Estrada,Manor,47.54,49.9,,,,Unlimited,SBD,F,
Girls,51.94,1,Alyssa Martinez,Kyle Lehman,49.26,158.76,81.65,140.61,381.02,Unlimited,SBD,F,
Girls,51.94,2,Rylie Dlouhy,Taylor,50.62,129.27,81.65,140.61,351.53,Unlimited,SBD,F,
Girls,51.94,3,Nexi Gutierrez,Kyle Lehman,50.17,136.08,61.23,129.27,326.59,Unlimited,SBD,F,
Girls,51.94,4,Lola Williams,Kyle Lehman,51.71,124.74,52.16,124.74,301.64,Unlimited,SBD,F,
Girls,51.94,5,Zoe Moore,Taylor,50.53,99.79,56.7,111.13,267.62,Unlimited,SBD,F,
Girls,51.94,6,Cinthia Delgadillo,Del Valle,51.17,97.52,49.9,106.59,254.01,Unlimited,SBD,F,
Girls,51.94,7,Shantel Harlow,Smithville,51.07,83.91,52.16,90.72,226.8,Unlimited,SBD,F,
Girls,51.94,8,Kionna Brown,Manor,51.89,74.84,45.36,81.65,201.85,Unlimited,SBD,F,
Girls,51.94,9,Justus McElyea,Smithville,51.89,68.04,29.48,77.11,174.63,Unlimited,SBD,F,
Girls,51.94,DQ,Cassady Galabeas,Smithville,50.8,,,,,Unlimited,SBD,F,
Girls,51.94,DQ,Madeline Boicelli,Austin Lake Travis,50.8,81.65,,,,Unlimited,SBD,F,
Girls,51.94,DQ,Kaya Shellhammer,Buda Hays,50.98,,,,,Unlimited,SBD,F,
Girls,56.02,1,Alexia Smith,Buda Hays,55.88,120.2,56.7,131.54,308.44,Unlimited,SBD,F,
Girls,56.02,2,Laura Rife,College Station,51.98,113.4,47.63,120.2,281.23,Unlimited,SBD,F,
Girls,56.02,3,Yadira Garduno,Del Valle,54.52,104.33,58.97,115.67,278.96,Unlimited,SBD,F,
Girls,56.02,4,Kim De Lara,Manor,52.16,104.33,49.9,108.86,263.08,Unlimited,SBD,F,
Girls,56.02,5,Deysy Sanchez,Elgin,53.89,95.25,52.16,102.06,249.48,Unlimited,SBD,F,
Girls,56.02,6,Melani Velasquez,Elgin,55.97,95.25,45.36,106.59,247.21,Unlimited,SBD,F,
Girls,56.02,7,Vanessa Diaz,Taylor,53.07,88.45,47.63,95.25,231.33,Unlimited,SBD,F,
Girls,56.02,8,Abby Pickle,Buda Hays,55.52,83.91,43.09,95.25,222.26,Unlimited,SBD,F,
Girls,56.02,9,Jasmyn Rivera,Bastrop Cedar Creek,55.79,88.45,45.36,86.18,219.99,Unlimited,SBD,F,
Girls,56.02,10,Jillian Brown,Austin Lake Travis,53.25,74.84,52.16,90.72,217.72,Unlimited,SBD,F,
Girls,56.02,DQ,Katelyn Knight,Smithville,55.52,77.11,,,,Unlimited,SBD,F,
Girls,56.02,DQ,Ysabella Janak,Buda Hays,54.79,,,,,Unlimited,SBD,F,
Girls,56.02,DQ,Mirabella Dietz,Buda Hays,55.7,106.59,43.09,,,Unlimited,SBD,F,
Girls,56.02,DQ,La'Daysha Lewis,Smithville,55.79,,,,,Unlimited,SBD,F,
Girls,60.1,1,Reese Sigler,College Station,58.51,165.56,72.57,136.08,374.21,Unlimited,SBD,F,
Girls,60.1,2,Leila Gomez,Kyle Lehman,58.06,154.22,68.04,147.42,369.68,Unlimited,SBD,F,
Girls,60.1,3,Jasmine Jaimes,Kyle Lehman,57.79,156.49,68.04,136.08,360.61,Unlimited,SBD,F,
Girls,60.1,4,Rosie Driscoll,Del Valle,59.01,133.81,86.18,120.2,340.19,Unlimited,SBD,F,
Girls,60.1,5,Jolie Aguirre,Buda Johnson,59.87,127.01,61.23,122.47,310.71,Unlimited,SBD,F,
Girls,60.1,6,Jacky Cano,Del Valle,56.97,117.93,56.7,129.27,303.91,Unlimited,SBD,F,
Girls,60.1,7,Madison Woehl,Elgin,57.7,108.86,65.77,122.47,297.1,Unlimited,SBD,F,
Girls,60.1,8,Jessica Dominguez,Elgin,57.79,120.2,65.77,106.59,292.57,Unlimited,SBD,F,
Girls,60.1,9,Abigail Freeman,Elgin,60.06,106.59,72.57,106.59,285.76,Unlimited,SBD,F,
Girls,60.1,10,Alice Flores-Martinez,Del Valle,58.97,102.06,56.7,117.93,276.69,Unlimited,SBD,F,
Girls,60.1,11,Natalie Melgar,Buda Johnson,57.52,106.59,58.97,104.33,269.89,Unlimited,SBD,F,
Girls,60.1,12,Catherine Click,Buda Johnson,56.52,108.86,49.9,108.86,267.62,Unlimited,SBD,F,
Girls,60.1,13,Larissa Gonzalez,Elgin,60.06,86.18,49.9,120.2,256.28,Unlimited,SBD,F,
Girls,60.1,14,Jordyn Matus,Bastrop Cedar Creek,59.51,99.79,43.09,108.86,251.74,Unlimited,SBD,F,
Girls,60.1,15,Emily Estrada,Manor,59.24,95.25,45.36,104.33,244.94,Unlimited,SBD,F,
Girls,60.1,16,Sabrina Fierro,Buda Johnson,56.93,88.45,47.63,90.72,226.8,Unlimited,SBD,F,
Girls,60.1,17,Alice Woolery,Buda Hays,57.15,88.45,38.56,99.79,226.8,Unlimited,SBD,F,
Girls,60.1,18,Jocelyn Ramirez,Bastrop Cedar Creek,56.52,81.65,38.56,79.38,199.58,Unlimited,SBD,F,
Girls,67.36,1,Jacee Oehlert,College Station,64.23,183.7,72.57,149.69,405.97,Unlimited,SBD,F,
Girls,67.36,2,Madison Barber,College Station,64.77,154.22,72.57,154.22,381.02,Unlimited,SBD,F,
Girls,67.36,3,Kylie Kramer,College Station,60.51,154.22,70.31,154.22,378.75,Unlimited,SBD,F,
Girls,67.36,4,Julia Trimble,Dripping Springs,60.42,142.88,83.91,147.42,374.21,Unlimited,SBD,F,
Girls,67.36,5,Azucena Esqueda,Del Valle,63.68,147.42,70.31,151.95,369.68,Unlimited,SBD,F,
Girls,67.36,6,Alexia Garcia-Campuzano,Buda Hays,63.68,151.95,68.04,142.88,362.87,Unlimited,SBD,F,
Girls,67.36,7,Aaliyah Respress,Kyle Lehman,64.77,167.83,61.23,133.81,362.87,Unlimited,SBD,F,
Girls,67.36,8,Ri'Queleigh Holmes-Grant,Taylor,66.13,131.54,88.45,140.61,360.61,Unlimited,SBD,F,
Girls,67.36,9,Giovanna Castellani,College Station,64.32,142.88,68.04,136.08,347,Unlimited,SBD,F,
Girls,67.36,10,Genevieve Neary,Dripping Springs,62.69,120.2,72.57,131.54,324.32,Unlimited,SBD,F,
Girls,67.36,11,Lily Hood,Buda Johnson,67.13,115.67,70.31,120.2,306.17,Unlimited,SBD,F,
Girls,67.36,12,Eliana Aleman,Taylor,63.14,122.47,72.57,104.33,299.37,Unlimited,SBD,F,
Girls,67.36,13,Dominique Armstrong,Del Valle,63.23,113.4,52.16,115.67,281.23,Unlimited,SBD,F,
Girls,67.36,14,Payton Ely,Buda Hays,60.51,117.93,56.7,102.06,276.69,Unlimited,SBD,F,
Girls,67.36,15,Cindy Palomino-Cruz,Del Valle,64.91,111.13,54.43,108.86,274.42,Unlimited,SBD,F,
Girls,67.36,16,Karina Hall-Albavera,Taylor,65.32,102.06,63.5,104.33,269.89,Unlimited,SBD,F,
Girls,67.36,17,Ariyana Alexander,Elgin,65.95,104.33,58.97,106.59,269.89,Unlimited,SBD,F,
Girls,67.36,18,Dakota Davenport,Bastrop Cedar Creek,61.14,92.99,43.09,99.79,235.87,Unlimited,SBD,F,
Girls,67.36,19,Daniela Leal,Manor,66.86,86.18,43.09,97.52,226.8,Unlimited,SBD,F,
Girls,67.36,20,Zoey Morales,Manor,64.59,70.31,38.56,86.18,195.04,Unlimited,SBD,F,
Girls,67.36,21,Kenia Cuellar,Elgin,66.13,70.31,29.48,77.11,176.9,Unlimited,SBD,F,
Girls,67.36,DQ,Samantha Fidler,Bastrop Cedar Creek,67.13,,,,,Unlimited,SBD,F,
Girls,67.36,DQ,Nataly Rosado,Buda Hays,67.13,,,,,Unlimited,SBD,F,
Girls,75.07,1,Jessica Kolodziejczyk,College Station,67.86,181.44,83.91,136.08,401.43,Unlimited,SBD,F,
Girls,75.07,2,Ashley Harris,College Station,69.76,158.76,68.04,131.54,358.34,Unlimited,SBD,F,
Girls,75.07,3,Jocelyne Jaimes,Kyle Lehman,68.49,156.49,54.43,138.35,349.27,Unlimited,SBD,F,
Girls,75.07,4,Rebekah Raymond,College Station,67.68,145.15,65.77,136.08,347,Unlimited,SBD,F,
Girls,75.07,5,Isabella Garza,Buda Johnson,74.93,115.67,61.23,129.27,306.17,Unlimited,SBD,F,
Girls,75.07,6,Destiny New,Buda Johnson,72.21,113.4,61.23,124.74,299.37,Unlimited,SBD,F,
Girls,75.07,7,Rosemary Jamison,Buda Johnson,73.3,99.79,65.77,122.47,288.03,Unlimited,SBD,F,
Girls,75.07,8,Kayden Wilde,Smithville,68.49,108.86,56.7,113.4,278.96,Unlimited,SBD,F,
Girls,75.07,9,Payten Alamillo,Smithville,73.48,74.84,47.63,99.79,222.26,Unlimited,SBD,F,
Girls,75.07,10,Tamaya Mercer,Manor,69.22,81.65,43.09,95.25,219.99,Unlimited,SBD,F,
Girls,75.07,11,Camryn Hall,Bastrop Cedar Creek,69.31,79.38,70.31,70.31,219.99,Unlimited,SBD,F,
Girls,75.07,DQ,Audacious Burns,College Station,67.59,,,,,Unlimited,SBD,F,
Girls,75.07,DQ,Christy Natal,Bastrop Cedar Creek,74.84,,,,,Unlimited,SBD,F,
Girls,75.07,DQ,Jazmin Esparza,Elgin,74.84,,,,,Unlimited,SBD,F,
Girls,75.07,DQ,Alyssa Ruiz,Elgin,74.84,,,,,Unlimited,SBD,F,
Girls,75.07,DQ,Milan Rothe,Austin Lake Travis,74.84,,,,,Unlimited,SBD,F,
Girls,75.07,DQ,Indy Nijman,Austin Lake Travis,74.84,,,,,Unlimited,SBD,F,
Girls,82.33,1,Scarlett Whitacre,College Station,77.11,156.49,74.84,147.42,378.75,Unlimited,SBD,F,
Girls,82.33,2,Alma Arce-Monroy,Del Valle,80.74,120.2,58.97,127.01,306.17,Unlimited,SBD,F,
Girls,82.33,3,Alyssa Anzures,Buda Hays,75.57,124.74,61.23,113.4,299.37,Unlimited,SBD,F,
Girls,82.33,4,Montana Davenport,Bastrop Cedar Creek,80.65,113.4,56.7,108.86,278.96,Unlimited,SBD,F,
Girls,82.33,5,Marisela Natal,Bastrop Cedar Creek,76.11,99.79,52.16,108.86,260.82,Unlimited,SBD,F,
Girls,82.33,6,Chassity Navarrete,Smithville,79.92,56.7,45.36,77.11,179.17,Unlimited,SBD,F,
Girls,82.33,DQ,Elagah Brandyburg,Smithville,75.48,,,,,Unlimited,SBD,F,
Girls,82.33,DQ,Lysette Lopez,Elgin,77.47,145.15,65.77,,,Unlimited,SBD,F,
Girls,90.04,1,Stephanie Mendoza,Del Valle,88.9,149.69,68.04,142.88,360.61,Unlimited,SBD,F,
Girls,90.04,2,Valeria Mondragon,Manor,87,120.2,68.04,142.88,331.12,Unlimited,SBD,F,
Girls,90.04,3,Bella Gloria,Buda Hays,86.09,129.27,63.5,136.08,328.85,Unlimited,SBD,F,
Girls,90.04,4,Jaliyah Price,Elgin,85.73,122.47,74.84,124.74,322.05,Unlimited,SBD,F,
Girls,90.04,5,Eunice Ramos Matuz,Bastrop Cedar Creek,89.09,129.27,56.7,117.93,303.91,Unlimited,SBD,F,
Girls,90.04,6,Nicolette Villarreal,Taylor,84.46,120.2,54.43,113.4,288.03,Unlimited,SBD,F,
Girls,90.04,7,Siena McBride,Elgin,85.73,108.86,74.84,104.33,288.03,Unlimited,SBD,F,
Girls,90.04,8,Jessica McBride,Elgin,87.36,95.25,61.23,81.65,238.14,Unlimited,SBD,F,
Girls,90.04,DQ,Coco Davila,Elgin,89.81,,,,,Unlimited,SBD,F,
Girls,100.02,1,Crystal Martinez,Kyle Lehman,97.89,238.14,129.27,188.24,555.65,Unlimited,SBD,F,
Girls,100.02,2,Emily Thompson,College Station,99.25,197.31,113.4,158.76,469.47,Unlimited,SBD,F,
Girls,100.02,3,Iliana Soliz,Austin Lake Travis,99.43,111.13,77.11,142.88,331.12,Unlimited,SBD,F,
Girls,100.02,4,Annika Gustafson,Bastrop Cedar Creek,93.62,108.86,56.7,124.74,290.3,Unlimited,SBD,F,
Girls,100.02,5,Mayra Garcia,Elgin,90.72,90.72,65.77,104.33,260.82,Unlimited,SBD,F,
Girls,100.02,6,Keily Orozco,Del Valle,97.98,106.59,52.16,102.06,260.82,Unlimited,SBD,F,
Girls,100.02,7,Chole Adams,Bastrop Cedar Creek,97.98,83.91,40.82,83.91,208.65,Unlimited,SBD,F,
Girls,100.02,DQ,Jazlynn Sifuentes,Buda Johnson,99.88,,,,,Unlimited,SBD,F,
Girls,100.02,DQ,Krista Randig,Taylor,99.79,,,,,Unlimited,SBD,F,
Girls,117.71,1,Ashley Grande,Buda Johnson,106.59,215.46,111.13,192.78,519.36,Unlimited,SBD,F,
Girls,117.71,2,Arianna Prill,Kyle Lehman,107.68,224.53,138.35,149.69,512.56,Unlimited,SBD,F,
Girls,117.71,3,Berry Vital,Del Valle,117.03,138.35,70.31,147.42,356.07,Unlimited,SBD,F,
Girls,117.71,4,Hailey Newlin,Elgin,109.59,86.18,43.09,106.59,235.87,Unlimited,SBD,F,
Girls,117.71,5,Samantha Salas,Dripping Springs,105.51,65.77,29.48,88.45,183.7,Unlimited,SBD,F,
Girls,117.71+,1,Analise Frias,Taylor,137.17,215.46,136.08,156.49,508.02,Unlimited,SBD,F,
Girls,117.71+,2,Sophia Plonka,Taylor,122.74,163.29,90.72,145.15,399.16,Unlimited,SBD,F,
Girls,117.71+,3,Breanna Ihrig,College Station,125.1,151.95,74.84,136.08,362.87,Unlimited,SBD,F,
Girls,117.71+,4,Ashley Mucino,Manor,117.93,136.08,65.77,120.2,322.05,Unlimited,SBD,F,
