Division,WeightClassKg,Place,Name,Team,BodyweightKg,Best3SquatKg,Best3BenchKg,Best3DeadliftKg,TotalKg,Equipment,Event,Sex,BirthDate
Boys,51.71,1,Cason Jernigan,Garrison,50.8,97.52,68.04,124.74,290.3,Unlimited,SBD,M,
Boys,51.71,2,Jeremiah Kennebrew,Newton,46.72,97.52,63.5,97.52,258.55,Unlimited,SBD,M,
Boys,51.71,DQ,Konner Youmans,Harleton,48.99,72.57,45.36,77.11,,Unlimited,SBD,M,
Boys,55.79,1,Tj Calhoun,Elkhart,55.34,163.29,92.99,185.97,442.25,Unlimited,SBD,M,
Boys,55.79,2,Jayson Clark,Marshall,54.88,167.83,90.72,170.1,428.64,Unlimited,SBD,M,
Boys,55.79,3,Nate Thompson,Elkhart,55.79,140.61,90.72,158.76,390.09,Unlimited,SBD,M,
Boys,55.79,4,Benito Castro,Longview Pine Tree,55.34,142.88,83.91,161.03,387.82,Unlimited,SBD,M,
Boys,55.79,5,Jake Harris,Garrison,54.88,136.08,81.65,156.49,374.21,Unlimited,SBD,M,
Boys,55.79,6,Dayland Alfred,Newton,55.79,120.2,83.91,142.88,347,Unlimited,SBD,M,
Boys,55.79,7,Leyton Nguyen,Longview Pine Tree,55.34,136.08,65.77,124.74,326.59,Unlimited,SBD,M,
Boys,55.79,DQ,Brayden Bradley,Bullard,54.88,,,,,Unlimited,SBD,M,
Boys,59.87,1,Johnpaul Johnson,Garrison,58.97,151.95,113.4,163.29,428.64,Unlimited,SBD,M,
Boys,59.87,2,Cy Sledge,Henderson,58.06,165.56,92.99,161.03,419.57,Unlimited,SBD,M,
Boys,59.87,3,Kaleb Dollison,Longview Pine Tree,58.51,163.29,95.25,149.69,408.23,Unlimited,SBD,M,
Boys,59.87,4,Jamal Williams,Bullard,58.06,147.42,86.18,158.76,392.36,Unlimited,SBD,M,
Boys,59.87,5,Marc Williams,Tyler Legacy,57.15,142.88,68.04,151.95,362.87,Unlimited,SBD,M,
Boys,67.13,1,Avery Yarbrough,Garrison,65.77,210.92,136.08,231.33,578.33,Unlimited,SBD,M,
Boys,67.13,2,Earl Williams,Longview Pine Tree,65.32,226.8,124.74,204.12,555.65,Unlimited,SBD,M,
Boys,67.13,3,Brendan Scott,Harleton,66.68,163.29,115.67,188.24,467.2,Unlimited,SBD,M,
Boys,67.13,4,Jacob Gatlin,Joaquin,62.6,188.24,95.25,170.1,453.59,Unlimited,SBD,M,
Boys,67.13,5,Lj Leadon,Nacogdoches,67.13,158.76,113.4,167.83,439.98,Unlimited,SBD,M,
Boys,67.13,6,Rashad Warren,Tyler Legacy,66.22,142.88,102.06,176.9,421.84,Unlimited,SBD,M,
Boys,67.13,7,Hunter Caraway,Harleton,62.51,172.37,86.18,158.76,417.3,Unlimited,SBD,M,
Boys,67.13,8,Joseph Entrekin,Elysian Fields,62.23,136.08,88.45,156.49,381.02,Unlimited,SBD,M,
Boys,67.13,9,Garrett Dunaway,Elkhart,61.14,131.54,83.91,142.88,358.34,Unlimited,SBD,M,
Boys,67.13,10,Dylan Clark,Bullard The Brook Hill School,66.32,115.67,74.84,131.54,322.05,Unlimited,SBD,M,
Boys,67.13,11,Isaac Lee,Elkhart,62.51,108.86,65.77,113.4,288.03,Unlimited,SBD,M,
Boys,67.13,12,Collier Watson,Elysian Fields,63.32,90.72,61.23,129.27,281.23,Unlimited,SBD,M,
Boys,67.13,DQ,Caleb Correa,Harleton,62.69,,,,,Unlimited,SBD,M,
Boys,67.13,DQ,Rustin Kulikowski,Nacogdoches,60.78,,,,,Unlimited,SBD,M,
Boys,74.84,1,Raimone Flournoy,Longview Pine Tree,73.03,208.65,120.2,226.8,555.65,Unlimited,SBD,M,
Boys,74.84,2,Martin Camargo,Henderson,73.48,210.92,111.13,219.99,542.04,Unlimited,SBD,M,
Boys,74.84,3,Keyunta Lias,Marshall,68.49,226.8,115.67,195.04,537.51,Unlimited,SBD,M,
Boys,74.84,4,Jett Monahan,Tyler Legacy,73.48,192.78,145.15,197.31,535.24,Unlimited,SBD,M,
Boys,74.84,5,Nathan Page,Tyler Legacy,68.95,199.58,115.67,213.19,528.44,Unlimited,SBD,M,
Boys,74.84,6,Carl Turner,Longview Pine Tree,74.39,165.56,104.33,226.8,496.68,Unlimited,SBD,M,
Boys,74.84,7,Phoenix Bowman,Groveton,72.12,199.58,115.67,170.1,485.34,Unlimited,SBD,M,
Boys,74.84,8,Alton Henderson,Marshall,68.95,183.7,113.4,183.7,480.81,Unlimited,SBD,M,
Boys,74.84,9,Trae Page,Nacogdoches,69.85,181.44,106.59,183.7,471.74,Unlimited,SBD,M,
Boys,74.84,10,Aj Woods,Harleton,68.95,174.63,92.99,192.78,460.4,Unlimited,SBD,M,
Boys,74.84,11,Landon Conley,Groveton,74.39,176.9,113.4,170.1,460.4,Unlimited,SBD,M,
Boys,74.84,12,Brandon Aguilar,Garrison,73.94,156.49,102.06,174.63,433.18,Unlimited,SBD,M,
Boys,74.84,13,Riley McGuire,Garrison,73.94,174.63,92.99,161.03,428.64,Unlimited,SBD,M,
Boys,74.84,14,Landon Royal,Bullard,70.31,151.95,97.52,174.63,424.11,Unlimited,SBD,M,
Boys,74.84,15,Evan Jenkins,Tyler Legacy,68.95,136.08,106.59,161.03,403.7,Unlimited,SBD,M,
Boys,74.84,16,Coby Bellinger,Gladewater,72.57,133.81,90.72,149.69,374.21,Unlimited,SBD,M,
Boys,74.84,17,Braedon Williams,Elysian Fields,69.85,124.74,92.99,142.88,360.61,Unlimited,SBD,M,
Boys,74.84,DQ,Carlos Afre,Bullard The Brook Hill School,73.94,,,,,Unlimited,SBD,M,
Boys,74.84,DQ,Jt Reagan,Garrison,71.21,,,,,Unlimited,SBD,M,
Boys,74.84,DQ,Stryker Lloyd,Garrison,71.67,,,,,Unlimited,SBD,M,
Boys,74.84,DQ,Colton Cox,Groveton,72.57,,,,,Unlimited,SBD,M,
Boys,74.84,DQ,Christiam Maldanado,Groveton,67.59,,,,,Unlimited,SBD,M,
Boys,74.84,DQ,Preston Scott,Harleton,73.48,,,,,Unlimited,SBD,M,
Boys,82.1,1,Omarion Rasberry,Garrison,77.56,272.16,158.76,272.16,703.07,Unlimited,SBD,M,
Boys,82.1,2,Malachi Gray,Longview Pine Tree,81.65,244.94,149.69,306.17,700.8,Unlimited,SBD,M,
Boys,82.1,3,Austin Pittman,Elkhart,81.56,235.87,147.42,231.33,614.62,Unlimited,SBD,M,
Boys,82.1,4,Alonzo Cervantes,Crockett,80.29,224.53,124.74,238.14,587.4,Unlimited,SBD,M,
Boys,82.1,5,Cameron Johnson,Harleton,79.38,224.53,140.61,215.46,580.6,Unlimited,SBD,M,
Boys,82.1,6,Nicolas Ruiz,Longview Pine Tree,78.11,195.04,145.15,231.33,571.53,Unlimited,SBD,M,
Boys,82.1,7,Nathaniel Kirksey,Tyler Legacy,78.93,181.44,145.15,222.26,548.85,Unlimited,SBD,M,
Boys,82.1,8,Edwin Marquez,Center,81.65,204.12,120.2,192.78,517.1,Unlimited,SBD,M,
Boys,82.1,9,Caleb Hygh,Marshall,80.38,192.78,102.06,201.85,496.68,Unlimited,SBD,M,
Boys,82.1,10,Jamie Fuller,Garrison,79.38,172.37,129.27,185.97,487.61,Unlimited,SBD,M,
Boys,82.1,11,Landon Lawless,Elysian Fields,81.19,183.7,113.4,190.51,487.61,Unlimited,SBD,M,
Boys,82.1,12,Landon Sherrard,Nacogdoches,76.02,183.7,124.74,174.63,483.08,Unlimited,SBD,M,
Boys,82.1,13,Jose Romero,Longview Pine Tree,76.29,192.78,106.59,183.7,483.08,Unlimited,SBD,M,
Boys,82.1,14,Tristan Collins,Gladewater,76.38,167.83,115.67,197.31,480.81,Unlimited,SBD,M,
Boys,82.1,15,Luke Scott,Bullard The Brook Hill School,80.56,151.95,102.06,224.53,478.54,Unlimited,SBD,M,
Boys,82.1,16,Griffin Barham,Garrison,79.83,172.37,111.13,183.7,467.2,Unlimited,SBD,M,
Boys,82.1,17,Ivan Gaston,Newton,80.29,167.83,88.45,190.51,446.79,Unlimited,SBD,M,
Boys,82.1,18,Ronnie Jernigan,Garrison,79.38,163.29,104.33,172.37,439.98,Unlimited,SBD,M,
Boys,82.1,19,Jiwhan Beck,Bullard The Brook Hill School,80.29,161.03,83.91,195.04,439.98,Unlimited,SBD,M,
Boys,82.1,20,Luke Herod,Elkhart,78.56,151.95,111.13,161.03,424.11,Unlimited,SBD,M,
Boys,82.1,21,Royce Morgan,Elysian Fields,80.74,136.08,77.11,161.03,374.21,Unlimited,SBD,M,
Boys,82.1,22,Wyatt Miller,Garrison,77.11,136.08,90.72,142.88,369.68,Unlimited,SBD,M,
Boys,82.1,23,Cason Weatherton,Henderson,80.38,86.18,145.15,113.4,344.73,Unlimited,SBD,M,
Boys,82.1,DQ,Kaleb Tate,Henderson,80.38,,,,,Unlimited,SBD,M,
Boys,82.1,DQ,Terry Taylor,Marshall,77.47,219.99,122.47,,,Unlimited,SBD,M,
Boys,89.81,1,Adam Lindgren,Garrison,88.45,272.16,158.76,206.38,637.3,Unlimited,SBD,M,
Boys,89.81,2,Cruz Rivera,Tyler Legacy,88.45,201.85,192.78,199.58,594.21,Unlimited,SBD,M,
Boys,89.81,3,Isaiah Bush,Marshall,87.09,240.4,133.81,217.72,591.94,Unlimited,SBD,M,
Boys,89.81,4,Wyatt Tanksley,Tyler Legacy,88.45,233.6,165.56,190.51,589.67,Unlimited,SBD,M,
Boys,89.81,5,Hayden Rasberry,Henderson,87.54,226.8,151.95,199.58,578.33,Unlimited,SBD,M,
Boys,89.81,6,Joe Herrera,Henderson,87.54,219.99,138.35,192.78,551.11,Unlimited,SBD,M,
Boys,89.81,7,Clinton Foster,Newton,86.18,195.04,120.2,213.19,528.44,Unlimited,SBD,M,
Boys,89.81,8,Caden Taylor,Bullard,86.64,183.7,133.81,188.24,505.76,Unlimited,SBD,M,
Boys,89.81,9,Ashtin Sparks,Marshall,88,213.19,113.4,179.17,505.76,Unlimited,SBD,M,
Boys,89.81,10,Bo Pollard,Garrison,85.73,199.58,124.74,174.63,498.95,Unlimited,SBD,M,
Boys,89.81,11,Angel Chavarria,Elkhart,89.81,199.58,111.13,188.24,498.95,Unlimited,SBD,M,
Boys,89.81,12,Jayden Voigt,Center,89.45,174.63,120.2,183.7,478.54,Unlimited,SBD,M,
Boys,89.81,13,Jose Santana,Carthage,88.45,165.56,111.13,192.78,469.47,Unlimited,SBD,M,
Boys,89.81,14,Myles Khron,Harleton,83.01,167.83,111.13,183.7,462.66,Unlimited,SBD,M,
Boys,89.81,15,Jeremi Pleasant,Garrison,84.37,158.76,102.06,172.37,433.18,Unlimited,SBD,M,
Boys,89.81,16,Andrew Gonzalez,Groveton,87.82,163.29,102.06,156.49,421.84,Unlimited,SBD,M,
Boys,89.81,17,Bryce Lee,Center,83.73,158.76,111.13,149.69,419.57,Unlimited,SBD,M,
Boys,89.81,18,Thaddeus Haynes,Crockett,89.63,95.25,72.57,124.74,292.57,Unlimited,SBD,M,
Boys,89.81,DQ,Caden Brown,Garrison,86.18,104.33,,,,Unlimited,SBD,M,
Boys,99.79,1,Brodie Aylor,Bullard,94.17,260.82,165.56,240.4,666.78,Unlimited,SBD,M,
Boys,99.79,2,Jonathan Kenebrew,Newton,95.71,244.94,145.15,263.08,653.17,Unlimited,SBD,M,
Boys,99.79,3,Cayden Royal,Bullard,90.17,238.14,170.1,226.8,635.03,Unlimited,SBD,M,
Boys,99.79,4,Alex Brace,Longview Pine Tree,94.26,219.99,170.1,226.8,616.89,Unlimited,SBD,M,
Boys,99.79,5,Jesse Traxler,Garrison,94.8,247.21,142.88,226.8,616.89,Unlimited,SBD,M,
Boys,99.79,6,Klayton Ingram,Carthage,96.98,224.53,117.93,244.94,587.4,Unlimited,SBD,M,
Boys,99.79,7,Dannin Spikes,Newton,97.16,217.72,113.4,242.67,573.79,Unlimited,SBD,M,
Boys,99.79,8,Antrevion Gatson,Newton,93.26,235.87,113.4,222.26,571.53,Unlimited,SBD,M,
Boys,99.79,9,Wyatt McDonald,Elkhart,93.98,204.12,142.88,224.53,571.53,Unlimited,SBD,M,
Boys,99.79,10,Carlos Perez #12,Tyler Legacy,91.17,215.46,136.08,217.72,569.26,Unlimited,SBD,M,
Boys,99.79,11,Hayden Pittman #2,Elkhart,99.61,204.12,151.95,195.04,551.11,Unlimited,SBD,M,
Boys,99.79,12,Dylan Ayers,Bullard,92.53,215.46,129.27,204.12,548.85,Unlimited,SBD,M,
Boys,99.79,13,Joona Sarajarvi,Bullard The Brook Hill School,92.99,192.78,122.47,208.65,523.9,Unlimited,SBD,M,
Boys,99.79,14,Brian Alvarez,Carthage,97.89,185.97,133.81,201.85,521.63,Unlimited,SBD,M,
Boys,99.79,15,Alex Aviles,Carthage,96.16,215.46,104.33,190.51,510.29,Unlimited,SBD,M,
Boys,99.79,16,Brandon Laxton,Harleton,94.08,195.04,120.2,183.7,498.95,Unlimited,SBD,M,
Boys,99.79,17,Josue Salazar,Crockett,97.07,188.24,108.86,179.17,476.27,Unlimited,SBD,M,
Boys,99.79,18,Francisco Ceferino-Morales,Center,96.43,170.1,120.2,183.7,474,Unlimited,SBD,M,
Boys,99.79,19,Jake King,Groveton,98.52,154.22,106.59,156.49,417.3,Unlimited,SBD,M,
Boys,99.79,20,Caiden James,Elkhart,93.89,154.22,88.45,170.1,412.77,Unlimited,SBD,M,
Boys,99.79,21,Kaden Klingingsmith,Elysian Fields,99.43,136.08,90.72,142.88,369.68,Unlimited,SBD,M,
Boys,109.77,1,Gavin Pollard,Garrison,109.32,283.5,215.46,229.06,728.02,Unlimited,SBD,M,
Boys,109.77,2,Josh McAlister,Henderson,105.69,269.89,197.31,226.8,694,Unlimited,SBD,M,
Boys,109.77,3,Noel Fajardo,Harleton,100.7,265.35,151.95,272.16,689.46,Unlimited,SBD,M,
Boys,109.77,4,Neo Thomas,Bullard,107.5,263.08,181.44,244.94,689.46,Unlimited,SBD,M,
Boys,109.77,5,Erik Guzman,Longview Pine Tree,108.41,272.16,147.42,267.62,687.19,Unlimited,SBD,M,
Boys,109.77,6,Amari Tatum,Nacogdoches,107.5,272.16,183.7,229.06,684.92,Unlimited,SBD,M,
Boys,109.77,7,David Carlisle,Marshall,105.23,274.42,156.49,233.6,664.51,Unlimited,SBD,M,
Boys,109.77,8,RChon Washington,Newton,102.97,215.46,147.42,240.4,603.28,Unlimited,SBD,M,
Boys,109.77,9,Kolton Meader,Henderson,104.78,210.92,142.88,215.46,569.26,Unlimited,SBD,M,
Boys,109.77,10,Isaiah Lovell,Elysian Fields,106.14,217.72,122.47,197.31,537.51,Unlimited,SBD,M,
Boys,109.77,11,CJ Beatty,Newton,107.5,226.8,106.59,195.04,528.44,Unlimited,SBD,M,
Boys,109.77,12,Ethan Hudson,Groveton,101.15,145.15,108.86,204.12,458.13,Unlimited,SBD,M,
Boys,109.77,13,Chaz Gray,Crockett,105.23,161.03,86.18,179.17,426.38,Unlimited,SBD,M,
Boys,109.77,14,Alan Blanks,Groveton,104.33,145.15,120.2,154.22,419.57,Unlimited,SBD,M,
Boys,109.77,15,Jesse Jenkins,Center,109.32,151.95,102.06,142.88,396.89,Unlimited,SBD,M,
Boys,109.77,16,Jesus Moreno,Crockett,104.78,129.27,79.38,170.1,378.75,Unlimited,SBD,M,
Boys,109.77,17,Cory Stanley,Gladewater,102.42,113.4,79.38,151.95,344.73,Unlimited,SBD,M,
Boys,109.77,18,Javon Johnson,Crockett,109.77,129.27,74.84,136.08,340.19,Unlimited,SBD,M,
Boys,124.74,1,Andrew Rodgers,Nacogdoches,121.65,317.51,249.48,285.76,852.75,Unlimited,SBD,M,
Boys,124.74,2,Benedicto Beatriz,Garrison,111.58,285.76,183.7,260.82,730.28,Unlimited,SBD,M,
Boys,124.74,3,Jaydon McAdams,Tyler Legacy,117.21,258.55,145.15,229.06,632.76,Unlimited,SBD,M,
Boys,124.74,4,Akise Williams,Nacogdoches,120.66,210.92,156.49,249.48,616.89,Unlimited,SBD,M,
Boys,124.74,5,Peyton Davis,Longview Pine Tree,112.94,235.87,147.42,226.8,610.08,Unlimited,SBD,M,
Boys,124.74,6,D'Marion Johnson,Nacogdoches,111.58,215.46,142.88,233.6,591.94,Unlimited,SBD,M,
Boys,124.74,7,Adrian Alexander,Henderson,120.84,235.87,129.27,217.72,582.87,Unlimited,SBD,M,
Boys,124.74,8,Leon Venegas,Nacogdoches,111.49,226.8,149.69,204.12,580.6,Unlimited,SBD,M,
Boys,124.74,9,Jerimya Corn,Garrison,120.2,238.14,142.88,188.24,569.26,Unlimited,SBD,M,
Boys,124.74,10,Alex Huhtaniemi,Bullard The Brook Hill School,124.74,197.31,142.88,226.8,566.99,Unlimited,SBD,M,
Boys,124.74,11,Kash Courtney,Carthage,119.84,213.19,133.81,204.12,551.11,Unlimited,SBD,M,
Boys,124.74,12,Emmanuel Salazar,Crockett,121.56,183.7,102.06,174.63,460.4,Unlimited,SBD,M,
Boys,124.74,13,Charles Morrison,Marshall,118.39,165.56,111.13,151.95,428.64,Unlimited,SBD,M,
Boys,124.74,DQ,Benjamin Moore,Mount Enterprise,120.47,142.88,,,,Unlimited,SBD,M,
Boys,139.71,1,Brock Johnson,Henderson,136.98,335.66,210.92,278.96,825.54,Unlimited,SBD,M,
Boys,139.71,2,Emmanul Hernandez,Newton,127.46,310.71,167.83,272.16,750.7,Unlimited,SBD,M,
Boys,139.71,3,Tremaine Dixon,Henderson,132.9,272.16,179.17,233.6,684.92,Unlimited,SBD,M,
Boys,139.71,4,Jamie Jenkins,Center,136.53,238.14,181.44,219.99,639.57,Unlimited,SBD,M,
Boys,139.71,5,James Morrow,Carthage,134.26,231.33,151.95,219.99,603.28,Unlimited,SBD,M,
Boys,139.71,6,Jared Schmidt,Newton,132.9,226.8,142.88,219.99,589.67,Unlimited,SBD,M,
Boys,139.71,7,Braylin Allison,Carthage,130.18,215.46,140.61,219.99,576.06,Unlimited,SBD,M,
Boys,139.71,8,Kayden Johnson,Harleton,126.1,226.8,129.27,199.58,555.65,Unlimited,SBD,M,
Boys,139.71,9,Brandon Allison,Carthage,138.8,217.72,117.93,217.72,553.38,Unlimited,SBD,M,
Boys,139.71,10,Colton Fugler,Harleton,137.89,217.72,117.93,163.29,498.95,Unlimited,SBD,M,
Boys,139.71+,1,Jabrahlyn Jones,Garrison,140.16,306.17,167.83,272.16,746.16,Unlimited,SBD,M,
Boys,139.71+,2,Hunter Williams,Newton,145.6,265.35,183.7,272.16,721.21,Unlimited,SBD,M,
Boys,139.71+,3,John Bateman,Henderson,175.09,272.16,167.83,244.94,684.92,Unlimited,SBD,M,
Boys,139.71+,4,Jones Kelm,Tyler Legacy,141.97,260.82,179.17,242.67,682.66,Unlimited,SBD,M,
Boys,139.71+,5,Quentin Lacy,Nacogdoches,146.06,249.48,183.7,210.92,644.1,Unlimited,SBD,M,
Boys,139.71+,6,Slade Pollard,Garrison,154.22,249.48,174.63,201.85,625.96,Unlimited,SBD,M,
Boys,139.71+,7,Joshua Knepp,Nacogdoches,159.21,204.12,142.88,204.12,551.11,Unlimited,SBD,M,
Boys,139.71+,8,William Scroggins,Bullard,152.41,215.46,138.35,190.51,544.31,Unlimited,SBD,M,
Boys,139.71+,9,Breon Williams,Marshall,148.78,185.97,106.59,167.83,460.4,Unlimited,SBD,M,
Boys,139.71+,10,Jacorey Smith,Center,186.43,122.47,83.91,192.78,399.16,Unlimited,SBD,M,
Boys,,NS,Ke'Marion Hill,Center,,,,,,Unlimited,SBD,M,
Boys,,NS,Josue Cruz Carcamo,Crockett,,,,,,Unlimited,SBD,M,
Boys,,NS,Kaleb Howard,Crockett,,,,,,Unlimited,SBD,M,
Boys,,NS,Kendall Trost,Elysian Fields,,,,,,Unlimited,SBD,M,
Boys,,NS,Cameron Sanchez,Tyler Legacy,,,,,,Unlimited,SBD,M,
Boys,,NS,Alexis Juarez,Carthage,,,,,,Unlimited,SBD,M,
Boys,,NS,Kalbe Hardy,Center,,,,,,Unlimited,SBD,M,
Boys,,NS,Kennedy Miller,Henderson,,,,,,Unlimited,SBD,M,
Boys,,NS,Zane Sears,Harleton,,,,,,Unlimited,SBD,M,
Boys,,NS,Roman Cochran,Marshall,,,,,,Unlimited,SBD,M,
Boys,,NS,Dallon Jordan,Joaquin,,,,,,Unlimited,SBD,M,
Boys,,NS,Evan Orear,Joaquin,,,,,,Unlimited,SBD,M,
Boys,,NS,Brody Cummings,Joaquin,,,,,,Unlimited,SBD,M,
Boys,,NS,Noah Smith,Gladewater,,,,,,Unlimited,SBD,M,
Boys,,NS,Angel Maldonado,Groveton,,,,,,Unlimited,SBD,M,
Boys,,NS,Cash Moore,Groveton,,,,,,Unlimited,SBD,M,
Boys,,NS,Logan Townsend,Groveton,,,,,,Unlimited,SBD,M,
Boys,,NS,Trystin Ard,Groveton,,,,,,Unlimited,SBD,M,
Boys,,NS,Landon Jones,Marshall,,,,,,Unlimited,SBD,M,
Boys,,NS,Ulises Sanches,Nacogdoches,,,,,,Unlimited,SBD,M,
Boys,,NS,Keaton Nichols,Mount Enterprise,,,,,,Unlimited,SBD,M,
