Division,WeightClassKg,Place,Name,Team,BodyweightKg,Best3SquatKg,Best3BenchKg,Best3DeadliftKg,TotalKg,Equipment,Event,Sex,BirthDate
Boys,51.71,1,Khadyn Juarez,Perryton,51.21,149.69,65.77,142.88,358.34,Unlimited,SBD,M,
Boys,55.79,1,Josh Lawrence,Dumas,55.11,215.46,133.81,197.31,546.58,Unlimited,SBD,M,
Boys,55.79,2,Dallas Starkey,Dimmitt,54.11,140.61,86.18,142.88,369.68,Unlimited,SBD,M,
Boys,55.79,3,Abrahm Chavez,Dimmitt,52.48,122.47,63.5,133.81,319.78,Unlimited,SBD,M,
Boys,55.79,4,Ethan Rueles,Perryton,53.8,117.93,72.57,122.47,312.98,Unlimited,SBD,M,
Boys,55.79,5,Miles Marshall,Vega,53.48,88.45,52.16,104.33,244.94,Unlimited,SBD,M,
Boys,59.87,1,Angel Tafoya,Friona,59.24,154.22,102.06,167.83,424.11,Unlimited,SBD,M,
Boys,59.87,2,Charlie Montgomery,Vega,59.56,142.88,88.45,161.03,392.36,Unlimited,SBD,M,
Boys,59.87,3,Angel Lopez,Lockney,57.24,145.15,83.91,154.22,383.29,Unlimited,SBD,M,
Boys,59.87,4,David Tafoya,Friona,59.6,136.08,90.72,151.95,378.75,Unlimited,SBD,M,
Boys,59.87,5,Jonathan Villa,Sunray,59.47,133.81,79.38,151.95,365.14,Unlimited,SBD,M,
Boys,59.87,6,Shaun Mick,Dimmitt,59.01,131.54,68.04,151.95,351.53,Unlimited,SBD,M,
Boys,59.87,7,Ryan Casillas,Lockney,58.97,108.86,72.57,138.35,319.78,Unlimited,SBD,M,
Boys,59.87,8,Evan Ruelas,Perryton,58.06,95.25,54.43,106.59,256.28,Unlimited,SBD,M,
Boys,59.87,NS,Gio Santiago,Friona,,,,,,Unlimited,SBD,M,
Boys,67.13,1,Adrain Martinez,Vega,65.82,179.17,117.93,199.58,496.68,Unlimited,SBD,M,
Boys,67.13,2,Erik Estrada,Friona,67.09,199.58,102.06,195.04,496.68,Unlimited,SBD,M,
Boys,67.13,3,Jose Vargas,Dumas,64.18,199.58,106.59,170.1,476.27,Unlimited,SBD,M,
Boys,67.13,4,Izaac Ortiz,Friona,60.78,165.56,92.99,172.37,430.91,Unlimited,SBD,M,
Boys,67.13,5,Aiden Mitchell,Perryton,64.91,129.27,88.45,158.76,376.48,Unlimited,SBD,M,
Boys,67.13,6,Colt Avalos,Friona,66.36,136.08,81.65,156.49,374.21,Unlimited,SBD,M,
Boys,67.13,7,Nickolas Cervantes,Lockney,62.96,124.74,86.18,147.42,358.34,Unlimited,SBD,M,
Boys,67.13,8,Braylon Conrad,Perryton,62.37,106.59,70.31,124.74,301.64,Unlimited,SBD,M,
Boys,67.13,DQ,Marco Silva,Dimmitt,66.27,,,,,Unlimited,SBD,M,
Boys,74.84,1,Eidan Loera,Dumas,74.8,238.14,197.31,190.51,625.96,Unlimited,SBD,M,
Boys,74.84,2,Shooter Coon,Dumas,74.12,226.8,147.42,181.44,555.65,Unlimited,SBD,M,
Boys,74.84,3,Arnoldo Ogaz,Dimmitt,73.84,213.19,124.74,208.65,546.58,Unlimited,SBD,M,
Boys,74.84,4,Christian Gonzales,Dumas,73.3,215.46,151.95,174.63,542.04,Unlimited,SBD,M,
Boys,74.84,5,Isiah Sifuentez,Dimmitt,73.66,183.7,120.2,183.7,487.61,Unlimited,SBD,M,
Boys,74.84,6,Chris Villarreal,Sunray,72.35,172.37,102.06,183.7,458.13,Unlimited,SBD,M,
Boys,74.84,7,Victor Lozano,Dimmitt,72.89,167.83,90.72,181.44,439.98,Unlimited,SBD,M,
Boys,74.84,8,Axel Constantino,Dimmitt,69.04,142.88,120.2,174.63,437.72,Unlimited,SBD,M,
Boys,74.84,9,Ismael Mejia,Sunray,68.81,158.76,97.52,158.76,415.04,Unlimited,SBD,M,
Boys,74.84,10,Joseph Nunez,Lockney,74.25,138.35,99.79,136.08,374.21,Unlimited,SBD,M,
Boys,74.84,11,Caycen Wright,Lockney,73.53,120.2,65.77,113.4,299.37,Unlimited,SBD,M,
Boys,74.84,DQ,Klaus Darrand,Dumas,74.16,,,,,Unlimited,SBD,M,
Boys,74.84,DQ,Andres Hernandez,Tulia,74.48,147.42,,,,Unlimited,SBD,M,
Boys,74.84,NS,Max Reyes,Friona,,,,,,Unlimited,SBD,M,
Boys,82.1,1,Miguel Vargas,Sunray,78.24,258.55,142.88,260.82,662.24,Unlimited,SBD,M,
Boys,82.1,2,Darrin Jimenez,Lockney,81.56,233.6,158.76,190.51,582.87,Unlimited,SBD,M,
Boys,82.1,3,Cason Lamm,Vega,80.69,210.92,133.81,188.24,532.97,Unlimited,SBD,M,
Boys,82.1,4,Russell Casillas,Lockney,81.56,195.04,111.13,213.19,519.36,Unlimited,SBD,M,
Boys,82.1,5,Xaden Vargas,Dimmitt,78.65,163.29,122.47,190.51,476.27,Unlimited,SBD,M,
Boys,82.1,6,Kase Vogler,Vega,76.38,167.83,106.59,199.58,474,Unlimited,SBD,M,
Boys,82.1,7,Ty Bice,Tulia,78.15,172.37,104.33,195.04,471.74,Unlimited,SBD,M,
Boys,82.1,8,Kalub Bice,Tulia,81.1,165.56,108.86,163.29,437.72,Unlimited,SBD,M,
Boys,82.1,9,Aidan Vega,Tulia,80.6,158.76,95.25,172.37,426.38,Unlimited,SBD,M,
Boys,82.1,10,Noah Perez,Lockney,77.11,142.88,86.18,147.42,376.48,Unlimited,SBD,M,
Boys,82.1,11,Henry Waters,Perryton,79.15,136.08,86.18,151.95,374.21,Unlimited,SBD,M,
Boys,82.1,12,Caden Hass,Dumas,76.79,131.54,86.18,138.35,356.07,Unlimited,SBD,M,
Boys,89.81,1,Xavier Jimenez,Lockney,88.99,238.14,154.22,195.04,587.4,Unlimited,SBD,M,
Boys,89.81,2,Juan Corona,Dumas,85.64,233.6,142.88,204.12,580.6,Unlimited,SBD,M,
Boys,89.81,3,Xavier Alaniz,Lockney,84.64,217.72,147.42,179.17,544.31,Unlimited,SBD,M,
Boys,89.81,4,Zbastian Jara,Dumas,87.54,204.12,127.01,195.04,526.17,Unlimited,SBD,M,
Boys,89.81,5,Walker te Velde,Vega,89.31,190.51,145.15,190.51,526.17,Unlimited,SBD,M,
Boys,89.81,6,Jacob Mares,Sunray,83.55,174.63,106.59,199.58,480.81,Unlimited,SBD,M,
Boys,89.81,7,Jesse Balderama,Sunray,89.18,172.37,117.93,188.24,478.54,Unlimited,SBD,M,
Boys,89.81,8,Mason Larkin,Vega,88.31,167.83,99.79,185.97,453.59,Unlimited,SBD,M,
Boys,89.81,9,Jacob Gonzalez,Friona,84.14,151.95,108.86,161.03,421.84,Unlimited,SBD,M,
Boys,89.81,10,Isaiah Gonzalez,Friona,86.55,136.08,102.06,147.42,385.55,Unlimited,SBD,M,
Boys,99.79,1,Bryan Alvarado,Dumas,99.02,278.96,181.44,213.19,673.58,Unlimited,SBD,M,
Boys,99.79,2,Eden Mills,Friona,95.48,235.87,142.88,213.19,591.94,Unlimited,SBD,M,
Boys,99.79,3,Matthew Garcia,Lockney,97.57,190.51,120.2,199.58,510.29,Unlimited,SBD,M,
Boys,99.79,4,Gus Hernandez,Perryton,98.79,210.92,133.81,163.29,508.02,Unlimited,SBD,M,
Boys,99.79,NS,Liam Drum,Perryton,,,,,,Unlimited,SBD,M,
Boys,99.79,DQ,Zavian Quiroga,Dumas,98.84,258.55,,,,Unlimited,SBD,M,
Boys,109.77,1,Masen Rehkopf,Lockney,108.54,272.16,190.51,226.8,689.46,Unlimited,SBD,M,
Boys,109.77,2,Ga'Quorie Chatham,Dimmitt,105.96,254.01,147.42,251.74,653.17,Unlimited,SBD,M,
Boys,109.77,3,Gustavo Lopez,Dimmitt,100.24,249.48,154.22,235.87,639.57,Unlimited,SBD,M,
Boys,109.77,4,Miguel Gonzalez,Vega,108.68,260.82,145.15,204.12,610.08,Unlimited,SBD,M,
Boys,109.77,5,Ivan Mercado,Perryton,103.06,213.19,138.35,199.58,551.11,Unlimited,SBD,M,
Boys,109.77,6,Julio Escobar,Friona,106.96,195.04,115.67,208.65,519.36,Unlimited,SBD,M,
Boys,109.77,7,Aaron Moldenado,Tulia,104.96,154.22,129.27,156.49,439.98,Unlimited,SBD,M,
Boys,109.77,8,Onesimo Muniz,Lockney,103.19,172.37,77.11,147.42,396.89,Unlimited,SBD,M,
Boys,124.74,1,Gael Cardenas,Dumas,119.75,244.94,158.76,213.19,616.89,Unlimited,SBD,M,
Boys,124.74,2,Edward Longoria,Lockney,119.57,254.01,158.76,197.31,610.08,Unlimited,SBD,M,
Boys,124.74,3,Xavier Valles,Perryton,111.54,217.72,147.42,192.78,557.92,Unlimited,SBD,M,
Boys,124.74,4,Anthony Frausto,Tulia,111.36,163.29,122.47,131.54,417.3,Unlimited,SBD,M,
Boys,124.74,5,Isaiah Hernandez,Tulia,112.08,163.29,90.72,161.03,415.04,Unlimited,SBD,M,
Boys,124.74,6,Andrew Wisdom,Sunray,110,138.35,92.99,154.22,385.55,Unlimited,SBD,M,
Boys,124.74,7,Jett Jerden,Friona,119.98,140.61,90.72,129.27,360.61,Unlimited,SBD,M,
Boys,139.71,1,Aaron Venzor,Dumas,132.45,226.8,156.49,240.4,623.69,Unlimited,SBD,M,
Boys,139.71,2,Jose Salazar,Lockney,136.26,204.12,97.52,167.83,469.47,Unlimited,SBD,M,
Boys,139.71,3,Angel Fuentes,Dimmitt,125.42,172.37,104.33,163.29,439.98,Unlimited,SBD,M,
Boys,139.71+,1,Tiden Temple,Dumas,174.41,208.65,208.65,183.7,601.01,Unlimited,SBD,M,
