Division,WeightClassKg,Place,Name,Team,BodyweightKg,Best3SquatKg,Best3BenchKg,Best3DeadliftKg,TotalKg,Equipment,Event,Sex,BirthDate
Boys,51.71,1,Charles Mack,Lampasas,51.71,165.56,99.79,149.69,415.04,Unlimited,SBD,M,
Boys,51.71,2,Noah Stephens,Salado,51.71,158.76,83.91,154.22,396.89,Unlimited,SBD,M,
Boys,51.71,3,Stephen Ray,Giddings,50.71,117.93,77.11,133.81,328.85,Unlimited,SBD,M,
Boys,51.71,4,Halo Vazquez,Hillsboro,51.07,124.74,61.23,122.47,308.44,Unlimited,SBD,M,
Boys,51.71,5,Travis Steubing,Smithville,51.71,97.52,70.31,129.27,297.1,Unlimited,SBD,M,
Boys,51.71,6,Byron Pineda,Hillsboro,46.99,108.86,63.5,113.4,285.76,Unlimited,SBD,M,
Boys,51.71,7,Malakai Nguyen,Waxahachie Life,51.26,99.79,74.84,106.59,281.23,Unlimited,SBD,M,
Boys,51.71,8,Vicente Cuevas,Hillsboro,50.98,117.93,52.16,106.59,276.69,Unlimited,SBD,M,
Boys,51.71,9,Kris Ramirez,Lampasas,50.53,104.33,61.23,104.33,269.89,Unlimited,SBD,M,
Boys,51.71,10,Andrew Hudgins,Burnet,51.35,102.06,58.97,92.99,254.01,Unlimited,SBD,M,
Boys,51.71,DQ,Tyler Flower,Venus,50.98,124.74,92.99,,,Unlimited,SBD,M,
Boys,51.71,DQ,Chance Walker,Ferris,50.08,97.52,61.23,,,Unlimited,SBD,M,
Boys,55.79,1,Christian Sein,Marble Falls,54.98,165.56,95.25,170.1,430.91,Unlimited,SBD,M,
Boys,55.79,2,Kyle Robinson,Hillsboro,54.34,151.95,111.13,156.49,419.57,Unlimited,SBD,M,
Boys,55.79,3,Daniel Dominguez,Marble Falls,55.25,163.29,72.57,172.37,408.23,Unlimited,SBD,M,
Boys,55.79,4,David Gonzales,Alvarado,55.79,131.54,106.59,147.42,385.55,Unlimited,SBD,M,
Boys,55.79,5,Adrian Martinez #19,Waco La Vega,53.43,142.88,79.38,161.03,383.29,Unlimited,SBD,M,
Boys,55.79,6,Tommy Butler,Burnet,55.7,156.49,74.84,145.15,376.48,Unlimited,SBD,M,
Boys,55.79,7,Sergio Bucio,Gatesville,54.98,151.95,83.91,129.27,365.14,Unlimited,SBD,M,
Boys,55.79,8,Nathan Holler,Waxahachie Life,55.25,120.2,90.72,145.15,356.07,Unlimited,SBD,M,
Boys,55.79,DQ,Miguel Pineda,Hillsboro,54.98,,,,,Unlimited,SBD,M,
Boys,55.79,DQ,Miguel Nino,Taylor,54.79,147.42,65.77,,,Unlimited,SBD,M,
Boys,55.79,DQ,Chase Richard,Marble Falls,54.88,165.56,95.25,,,Unlimited,SBD,M,
Boys,55.79,DQ,Christian Pallares,Godley,54.43,145.15,,,,Unlimited,SBD,M,
Boys,59.87,1,Adan Lopez,Marble Falls,57.61,192.78,106.59,219.99,519.36,Unlimited,SBD,M,
Boys,59.87,2,Nguyen Tran,Hillsboro,58.69,208.65,106.59,204.12,519.36,Unlimited,SBD,M,
Boys,59.87,3,Luis Fuentes,Hillsboro,59.24,192.78,113.4,195.04,501.22,Unlimited,SBD,M,
Boys,59.87,4,David Lane,Alvarado,59.42,174.63,111.13,188.24,474,Unlimited,SBD,M,
Boys,59.87,5,Caden Brister,Gatesville,56.97,176.9,88.45,190.51,455.86,Unlimited,SBD,M,
Boys,59.87,6,Erik Davis,Waco La Vega,59.69,161.03,102.06,183.7,446.79,Unlimited,SBD,M,
Boys,59.87,7,Cole Coffee,Comal Canyon Lake,58.97,158.76,97.52,183.7,439.98,Unlimited,SBD,M,
Boys,59.87,8,David Dominguez,Marble Falls,58.88,170.1,83.91,181.44,435.45,Unlimited,SBD,M,
Boys,59.87,9,Gilberto Jaimes,Smithville,58.69,154.22,92.99,174.63,421.84,Unlimited,SBD,M,
Boys,59.87,DQ,Cameron Morris,Smithville,58.79,,,,,Unlimited,SBD,M,
Boys,59.87,DQ,Aaron Dominguez,Marble Falls,58.97,,,,,Unlimited,SBD,M,
Boys,59.87,DQ,Michael Morin-St Clar,Fredericksburg,57.42,,,,,Unlimited,SBD,M,
Boys,67.13,1,Aaron Arredondo,Marble Falls,62.41,210.92,149.69,190.51,551.11,Unlimited,SBD,M,
Boys,67.13,2,Garrett Maddox,China Spring,63.96,185.97,120.2,197.31,503.49,Unlimited,SBD,M,
Boys,67.13,3,Aaron Hernandez,Venus,66.59,190.51,115.67,170.1,476.27,Unlimited,SBD,M,
Boys,67.13,4,Kaden Lewis,Comal Canyon Lake,64.95,161.03,129.27,183.7,474,Unlimited,SBD,M,
Boys,67.13,5,Josue Fonseca,Marble Falls,65.59,185.97,111.13,176.9,474,Unlimited,SBD,M,
Boys,67.13,6,Christian Osorio,Smithville,65.95,183.7,99.79,176.9,460.4,Unlimited,SBD,M,
Boys,67.13,7,Kyle Montgomery,Giddings,66.59,179.17,113.4,163.29,455.86,Unlimited,SBD,M,
Boys,67.13,8,Elijah Junker,Fredericksburg,61.6,142.88,111.13,192.78,446.79,Unlimited,SBD,M,
Boys,67.13,9,Brayden Dildine,Salado,63.23,165.56,99.79,167.83,433.18,Unlimited,SBD,M,
Boys,67.13,10,Gunner Stovall,Alvarado,65.59,167.83,95.25,161.03,424.11,Unlimited,SBD,M,
Boys,67.13,11,Devon Utecht,Smithville,63.96,145.15,97.52,176.9,419.57,Unlimited,SBD,M,
Boys,67.13,12,Jonathan Diaz,Brookshire Royal,64.05,158.76,79.38,181.44,419.57,Unlimited,SBD,M,
Boys,74.84,1,Mathew Elson,Comal Canyon Lake,74.57,258.55,183.7,238.14,680.39,Unlimited,SBD,M,
Boys,74.84,2,Lj Hall,Gatesville,71.4,226.8,192.78,233.6,653.17,Unlimited,SBD,M,
Boys,74.84,3,Brady Rygaard,Burnet,73.21,233.6,165.56,226.8,625.96,Unlimited,SBD,M,
Boys,74.84,4,Schyler Dethorne,Alvarado,73.57,213.19,142.88,226.8,582.87,Unlimited,SBD,M,
Boys,74.84,5,Matthew Rodriguez,China Spring,73.48,208.65,131.54,210.92,551.11,Unlimited,SBD,M,
Boys,74.84,6,Sir Law Rodriguez,Robinson,70.94,192.78,117.93,208.65,519.36,Unlimited,SBD,M,
Boys,74.84,7,Adler Goehring,Burnet,73.21,188.24,106.59,199.58,494.42,Unlimited,SBD,M,
Boys,74.84,DQ,Arthur Vasquez,Brookshire Royal,74.84,188.24,120.2,,,Unlimited,SBD,M,
Boys,74.84,DQ,Gage Gonzales,Robinson,70.31,,,,,Unlimited,SBD,M,
Boys,74.84,DQ,Luciano Arias,Taylor,73.84,183.7,,,,Unlimited,SBD,M,
Boys,74.84,DQ,Arnulfo Salazar,Marble Falls,74.39,219.99,,,,Unlimited,SBD,M,
Boys,74.84,DQ,Collin Caperton,Madisonville,72.67,226.8,,,,Unlimited,SBD,M,
Boys,82.1,1,Devin Hill,Waco La Vega,82.01,222.26,142.88,226.8,591.94,Unlimited,SBD,M,
Boys,82.1,2,Brandt Whitlow,Taylor,79.02,224.53,124.74,224.53,573.79,Unlimited,SBD,M,
Boys,82.1,3,David Sims,Gatesville,80.74,217.72,140.61,201.85,560.19,Unlimited,SBD,M,
Boys,82.1,4,Oswaldo Sanchez,Marble Falls,78.65,217.72,129.27,208.65,555.65,Unlimited,SBD,M,
Boys,82.1,5,Dutch Nielson,Gatesville,79.56,208.65,136.08,197.31,542.04,Unlimited,SBD,M,
Boys,82.1,6,Leland Hopson,Alvarado,82.1,226.8,142.88,172.37,542.04,Unlimited,SBD,M,
Boys,82.1,7,Brayden Mills,Gatesville,80.74,183.7,122.47,226.8,532.97,Unlimited,SBD,M,
Boys,82.1,8,Robert Atkins,China Spring,78.11,197.31,131.54,199.58,528.44,Unlimited,SBD,M,
Boys,82.1,DQ,Alexis Perez,Venus,77.84,,,,,Unlimited,SBD,M,
Boys,82.1,DQ,Jaden Gross,Venus,81.74,,,,,Unlimited,SBD,M,
Boys,82.1,DQ,Gerardo Perez,Fredericksburg,78.93,199.58,138.35,,,Unlimited,SBD,M,
Boys,82.1,DQ,Jayden Persyn,Fredericksburg,80.1,174.63,140.61,,,Unlimited,SBD,M,
Boys,89.81,1,Xavier Lopez,Marble Falls,82.19,303.91,188.24,292.57,784.71,Unlimited,SBD,M,
Boys,89.81,2,Christian Mack,Waxahachie Life,86.18,269.89,185.97,260.82,716.68,Unlimited,SBD,M,
Boys,89.81,3,Jeremiah Jones,Waco La Vega,87.27,263.08,163.29,226.8,653.17,Unlimited,SBD,M,
Boys,89.81,4,Josue Garcia,Marble Falls,86.36,226.8,183.7,240.4,650.91,Unlimited,SBD,M,
Boys,89.81,5,Colbey Solis,Taylor,86.91,272.16,145.15,224.53,641.83,Unlimited,SBD,M,
Boys,89.81,6,Dominic Garcia,Lago Vista,87,249.48,127.01,263.08,639.57,Unlimited,SBD,M,
Boys,89.81,7,Elvis Carrera,Ferris,87.63,249.48,167.83,219.99,637.3,Unlimited,SBD,M,
Boys,89.81,8,Noah Escandon,Marble Falls,84.73,254.01,147.42,233.6,635.03,Unlimited,SBD,M,
Boys,89.81,9,Noah Baxter,Smithville,87.18,238.14,140.61,256.28,635.03,Unlimited,SBD,M,
Boys,89.81,10,Corey Rawdon,Venus,88,233.6,140.61,233.6,607.81,Unlimited,SBD,M,
Boys,89.81,11,Reed Jerome,Lampasas,87.36,226.8,142.88,208.65,578.33,Unlimited,SBD,M,
Boys,89.81,DQ,Luke Hudgins,Burnet,88.63,226.8,142.88,,,Unlimited,SBD,M,
Boys,99.79,1,Marc Calderon,Ferris,95.71,265.35,167.83,242.67,675.85,Unlimited,SBD,M,
Boys,99.79,2,Anthony Rodriguez,Comal Davenport,96.71,235.87,174.63,265.35,675.85,Unlimited,SBD,M,
Boys,99.79,3,Chris Borja,Smithville,96.71,240.4,179.17,238.14,657.71,Unlimited,SBD,M,
Boys,99.79,4,Mynor Flores,Marble Falls,97.79,290.3,151.95,215.46,657.71,Unlimited,SBD,M,
Boys,99.79,5,Jack Vanaartsen,Burnet,95.16,249.48,174.63,217.72,641.83,Unlimited,SBD,M,
Boys,99.79,6,Cade Balch,Waco La Vega,96.71,226.8,172.37,238.14,637.3,Unlimited,SBD,M,
Boys,99.79,7,Ray Jones,Gatesville,97.16,238.14,163.29,222.26,623.69,Unlimited,SBD,M,
Boys,99.79,8,Tyrone Shedd,Waco Connally,94.44,249.48,140.61,222.26,612.35,Unlimited,SBD,M,
Boys,99.79,9,Elias Ayala,Lampasas,90.99,217.72,136.08,238.14,591.94,Unlimited,SBD,M,
Boys,99.79,10,Brooks Mayberry,Salado,96.89,226.8,142.88,213.19,582.87,Unlimited,SBD,M,
Boys,99.79,11,Tim Morgan,China Spring,99.25,208.65,151.95,197.31,557.92,Unlimited,SBD,M,
Boys,99.79,DQ,Andrew Maxey,Madisonville,98.25,247.21,138.35,,,Unlimited,SBD,M,
Boys,109.77,1,Caden Stockdale,Smithville,103.15,258.55,183.7,251.74,694,Unlimited,SBD,M,
Boys,109.77,2,Chance Risner,Navasota,105.78,260.82,188.24,242.67,691.73,Unlimited,SBD,M,
Boys,109.77,3,Jose Solorzano,Marble Falls,100.06,297.1,163.29,226.8,687.19,Unlimited,SBD,M,
Boys,109.77,4,Carson Hartranft,Giddings,107.32,254.01,156.49,215.46,625.96,Unlimited,SBD,M,
Boys,109.77,5,Omar Lopez,Madisonville,104.78,240.4,136.08,244.94,621.42,Unlimited,SBD,M,
Boys,109.77,6,Isaac Garza,Giddings,105.6,254.01,149.69,204.12,607.81,Unlimited,SBD,M,
Boys,109.77,7,Joseph McClanahan,China Spring,104.69,199.58,167.83,226.8,594.21,Unlimited,SBD,M,
Boys,109.77,8,Esequiel Castro,Waco La Vega,105.32,226.8,142.88,217.72,587.4,Unlimited,SBD,M,
Boys,109.77,9,Bryson Leal,China Spring,102.97,204.12,149.69,217.72,571.53,Unlimited,SBD,M,
Boys,109.77,10,Colt Waling,Lampasas,100.15,204.12,154.22,190.51,548.85,Unlimited,SBD,M,
Boys,109.77,DQ,Keaton Proctor,Marble Falls,102.33,233.6,117.93,,,Unlimited,SBD,M,
Boys,109.77,DQ,Brooks McLane,Salado,104.87,258.55,163.29,,,Unlimited,SBD,M,
Boys,124.74,1,Jovanni Aguilar,Alvarado,122.92,308.44,213.19,226.8,748.43,Unlimited,SBD,M,
Boys,124.74,2,Kade Sundheim,Godley,119.2,244.94,183.7,240.4,669.05,Unlimited,SBD,M,
Boys,124.74,3,Kaden Kemp,China Spring,122.11,233.6,208.65,226.8,669.05,Unlimited,SBD,M,
Boys,124.74,4,Pablo Rodriguez,Waco La Vega,121.29,256.28,174.63,204.12,635.03,Unlimited,SBD,M,
Boys,124.74,5,Jameson Dodes,Fredericksburg,113.67,215.46,167.83,238.14,621.42,Unlimited,SBD,M,
Boys,124.74,6,Brandon Westbrook,Burnet,120.93,235.87,149.69,213.19,598.74,Unlimited,SBD,M,
Boys,124.74,7,Ethan Shook,Alvarado,112.13,238.14,154.22,204.12,596.47,Unlimited,SBD,M,
Boys,124.74,8,Deegan Norwood,Lampasas,116.94,235.87,142.88,217.72,596.47,Unlimited,SBD,M,
Boys,124.74,9,Lucean Boiteau,Comal Davenport,113.4,222.26,131.54,215.46,569.26,Unlimited,SBD,M,
Boys,124.74,10,Tyler Davis,Giddings,110.68,217.72,133.81,190.51,542.04,Unlimited,SBD,M,
Boys,124.74,DQ,Javier Olvera,Navasota,117.84,,,,,Unlimited,SBD,M,
Boys,124.74,DQ,Jose Galvan,Marble Falls,114.03,215.46,,,,Unlimited,SBD,M,
Boys,139.71,1,Eythan Thompson,Waco La Vega,139.07,335.66,206.38,281.23,823.27,Unlimited,SBD,M,
Boys,139.71,2,Kevin Ramirez,Giddings,138.16,299.37,226.8,240.4,766.57,Unlimited,SBD,M,
Boys,139.71,3,Ernest Alderete,Taylor,129.82,306.17,219.99,226.8,752.96,Unlimited,SBD,M,
Boys,139.71,4,Ethan Ray,Giddings,133.45,272.16,183.7,244.94,700.8,Unlimited,SBD,M,
Boys,139.71,5,Peyton Dees,Giddings,132.18,258.55,156.49,213.19,628.23,Unlimited,SBD,M,
Boys,139.71,6,Luis Perez #19,Hillsboro,125.74,229.06,142.88,226.8,598.74,Unlimited,SBD,M,
Boys,139.71,7,Ryan Gambino,Godley,132.72,226.8,142.88,226.8,596.47,Unlimited,SBD,M,
Boys,139.71,8,Flavio Ortiz,Ferris,131.63,256.28,156.49,174.63,587.4,Unlimited,SBD,M,
Boys,139.71,9,Xavier Cook,Hillsboro,126.01,240.4,124.74,219.99,585.13,Unlimited,SBD,M,
Boys,139.71,10,Johnny Charron,Burnet,126.19,215.46,133.81,206.38,555.65,Unlimited,SBD,M,
Boys,139.71,11,Dario Luna,Navasota,131.72,192.78,138.35,197.31,528.44,Unlimited,SBD,M,
Boys,139.71,DQ,Johnny Mancera,Ferris,134.81,,,,,Unlimited,SBD,M,
Boys,139.71,DQ,James Stevens,Comal Canyon Lake,135.53,201.85,156.49,,,Unlimited,SBD,M,
Boys,139.71+,1,Zach Bryant,Gatesville,146.42,319.78,219.99,263.08,802.86,Unlimited,SBD,M,
Boys,139.71+,2,Jha'quavion Johnson,Waco La Vega,153.86,281.23,156.49,226.8,664.51,Unlimited,SBD,M,
Boys,139.71+,3,Dominic Lara,Hillsboro,154.04,265.35,151.95,206.38,623.69,Unlimited,SBD,M,
Boys,139.71+,4,Jacksyn Andrews,Fredericksburg,143.79,219.99,151.95,208.65,580.6,Unlimited,SBD,M,
Boys,139.71+,5,Liam Moore,Alvarado,140.61,226.8,145.15,204.12,576.06,Unlimited,SBD,M,
Boys,139.71+,6,Xzavier Garcia,Venus,141.43,226.8,129.27,181.44,537.51,Unlimited,SBD,M,
Boys,139.71+,7,Dylan Lester,Jarrell,146.87,204.12,115.67,210.92,530.7,Unlimited,SBD,M,
Boys,139.71+,8,Oscar Venegas,Madisonville,139.98,219.99,108.86,183.7,512.56,Unlimited,SBD,M,
Boys,139.71+,DQ,Brennan Lockhart,Ferris,154.49,,,,,Unlimited,SBD,M,
