Division,WeightClassKg,Place,Name,Team,BodyweightKg,Best3SquatKg,Best3BenchKg,Best3DeadliftKg,TotalKg,Equipment,Event,Sex,BirthDate
Boys,59.87,1,Eli Ochoa,Lufkin,59.51,199.58,124.74,201.85,526.17,Unlimited,SBD,M,
Boys,67.13,1,Cason Fondren,Diboll,66.59,167.83,102.06,172.37,442.25,Unlimited,SBD,M,
Boys,67.13,2,Kason Oliver,Huntington,67.09,147.42,111.13,158.76,417.3,Unlimited,SBD,M,
Boys,67.13,3,Jaxon Taylor,Diboll,67.04,147.42,70.31,149.69,367.41,Unlimited,SBD,M,
Boys,67.13,4,Kole Johnson,Huntington,66.59,108.86,99.79,156.49,365.14,Unlimited,SBD,M,
Boys,67.13,5,Anthony McLaughlin,Chireno,64.64,102.06,99.79,145.15,347,Unlimited,SBD,M,
Boys,67.13,6,Axton Ferguson,Huntington,65.68,108.86,68.04,129.27,306.17,Unlimited,SBD,M,
Boys,67.13,7,Daniel Higgins,Huntington,63.28,74.84,43.09,117.93,235.87,Unlimited,SBD,M,
Boys,74.84,1,Jayden Robinson,Lufkin,71.85,167.83,131.54,167.83,467.2,Unlimited,SBD,M,
Boys,74.84,2,Conner Williams,Chireno,72.8,95.25,83.91,113.4,292.57,Unlimited,SBD,M,
Boys,74.84,3,Tristen Havard,Huntington,70.9,68.04,45.36,72.57,185.97,Unlimited,SBD,M,
Boys,82.1,1,Luis Arambula,Diboll,77.61,215.46,106.59,206.38,528.44,Unlimited,SBD,M,
Boys,82.1,2,Brady Riley,Huntington,76.79,156.49,102.06,161.03,419.57,Unlimited,SBD,M,
Boys,89.81,1,Eli Terrell,Diboll,85.68,179.17,111.13,185.97,476.27,Unlimited,SBD,M,
Boys,89.81,2,Abe Ramsey,Lufkin,89.45,183.7,108.86,170.1,462.66,Unlimited,SBD,M,
Boys,89.81,3,Mason Honey,Huntington,88.63,133.81,83.91,127.01,344.73,Unlimited,SBD,M,
Boys,99.79,1,Samuel Gracia,Diboll,94.76,158.76,104.33,167.83,430.91,Unlimited,SBD,M,
Boys,99.79,DQ,Drake Harris,Diboll,95.48,,,,,Unlimited,SBD,M,
Boys,109.77,1,Justus Daniel,Lufkin,102.56,192.78,127.01,213.19,532.97,Unlimited,SBD,M,
Boys,109.77,2,Kutter Cryer,Huntington,102.74,158.76,108.86,136.08,403.7,Unlimited,SBD,M,
Boys,109.77,DQ,Jaice Reyes,Lufkin,105.46,,,,,Unlimited,SBD,M,
Boys,124.74,1,John Hicks,Lufkin,115.03,206.38,127.01,226.8,560.19,Unlimited,SBD,M,
Boys,124.74,2,Cade Forrest,Huntington,121.02,197.31,158.76,176.9,532.97,Unlimited,SBD,M,
Boys,124.74,3,River Crawford,Huntington,123.69,161.03,120.2,170.1,451.32,Unlimited,SBD,M,
Boys,124.74,4,Gavin Fitzgerald,Chireno,123.38,113.4,111.13,158.76,383.29,Unlimited,SBD,M,
Boys,124.74,DQ,Christian Prieto,Diboll,118.3,172.37,,,,Unlimited,SBD,M,
Boys,139.71,1,Alexis Sanchez,Diboll,133.4,233.6,142.88,215.46,591.94,Unlimited,SBD,M,
Boys,139.71,2,Ethan Henson,Lufkin,135.81,206.38,131.54,170.1,508.02,Unlimited,SBD,M,
Boys,139.71,3,Andres Montoya,Diboll,126.92,195.04,124.74,183.7,503.49,Unlimited,SBD,M,
Boys,139.71+,1,Angel Concha,Diboll,151.95,235.87,115.67,201.85,553.38,Unlimited,SBD,M,
Boys,139.71+,2,Joseph Mcfarland,Lufkin,141.88,215.46,138.35,181.44,535.24,Unlimited,SBD,M,
