Place,Name,BirthDate,Sex,BirthYear,Age,Country,State,Equipment,Division,BodyweightKg,WeightClassKg,Squat1Kg,Squat2Kg,Squat3Kg,Best3SquatKg,Squat4Kg,Bench1Kg,Bench2Kg,Bench3Kg,Best3BenchKg,Bench4Kg,Deadlift1Kg,Deadlift2Kg,Deadlift3Kg,Best3DeadliftKg,Deadlift4Kg,TotalKg,Event
1,Olivia Myk,,F,,,,,Wraps,Female Teens,59.8,,127.5,137.5,-142.5,137.5,,75,77.5,-80,77.5,,140,147.5,-152.5,147.5,,362.5,SBD
2,Christina Voloshchuk,,F,,,,,Raw,Female Teens,64.2,,110,120,125,125,,60,65,67.5,67.5,,135,147.5,155,155,,347.5,SBD
3,Alisha Russell,,F,,,,,Raw,Female Teens,59.6,,110,115,-120,115,,50,52.5,55,55,,130,140,147.5,147.5,,317.5,SBD
4,Leah Tyndall,,F,,,,,Raw,Female Teens,57.4,,92.5,100,105,105,,55,57.5,60,60,,122.5,132.5,140,140,,305,SBD
5,Zoe Murphy-Byrne,,F,2007,17,,,Raw,Female Teens,51.7,,85,92.5,95,95,,37.5,42.5,-45,42.5,,102.5,110,-115,110,,247.5,SBD
6,Keeva McLoughlin,,F,,,,,Raw,Female Teens,61.6,,70,77.5,82.5,82.5,,42.5,47.5,50,50,,100,107.5,-112.5,107.5,,240,SBD
7,Emily Barcoe,,F,2009,14,Ireland,,Raw,Female Teens,69.5,,70,75,80,80,,32.5,37.5,40,40,,80,90,100,100,,220,SBD
8,Kayleigh Morrison,,F,2007,16,,,Raw,Female Teens,76.2,,70,75,77.5,77.5,,32.5,35,-37.5,35,,85,92.5,95,95,,207.5,SBD
1,Bláthnaid O'Dwyer,,F,2003,21,,,Raw,Female U21,45.5,,97.5,102.5,107.5,107.5,,40,42.5,45,45,,112.5,120,125,125,,277.5,SBD
2,Francesca Mary Callanta,,F,,,,,Raw,Female U21,54.2,,85,-92.5,95,95,,45,-47.5,-47.5,45,,120,130,140,140,,280,SBD
DQ,Leanne Vinzons,,F,2003,20,,,Raw,Female U21,63.9,,100,110,115,115,,65,-70,-70,65,,,,,,,,SBD
1,Phoenix Whelan Thomson,,M,2006,18,,,Raw,Male Teens,96.2,,245,260,272.5,272.5,,140,-147.5,152.5,152.5,,250,265,275,275,,700,SBD
2,Sean Beatty,,M,2005,19,,,Wraps,Male Teens,80.9,,227.5,240,-247.5,240,,-125,130,135,135,,240,255,-270,255,,630,SBD
3,Michael Ranaghan,,M,2004,19,,,Wraps,Male Teens,91.7,,227.5,242.5,-250,242.5,,140,147.5,150,150,,252.5,267.5,-292.5,267.5,,660,SBD
4,John Madeja,,M,2005,19,,,Raw,Male Teens,79.4,,190,200,205,205,,120,127.5,135,135,,205,217.5,227.5,227.5,,567.5,SBD
5,Jamie Murphy #1,,M,,,,,Wraps,Male Teens,112.3,,-245,255,275,275,,147.5,155,-160,155,,225,-250,-252.5,225,,655,SBD
6,Ion Talcan,,M,,,,,Raw,Male Teens,76.9,,167.5,177.5,187.5,187.5,,125,137.5,142.5,142.5,,192.5,215,-225,215,,545,SBD
7,Scott Collins,,M,2005,18,,,Raw,Male Teens,89.9,,210,220,-225,220,,120,-127.5,127.5,127.5,,-225,225,245,245,,592.5,SBD
8,Conor Smith,,M,,,,,Raw,Male Teens,68,,165,-180,-180,165,,105,110,-120,110,,210,220,-230,220,,495,SBD
9,Alex Dunne,,M,,,,,Raw,Male Teens,93.6,,205,220,-230,220,,110,115,-117.5,115,,245,260,-270,260,,595,SBD
10,Harry Southern,,M,,,,,Wraps,Male Teens,78.6,,-165,170,-180,170,,147.5,152.5,-157.5,152.5,,205,215,-225,215,,537.5,SBD
11,Darius Maniar,,M,,,,,Raw,Male Teens,76.1,,150,160,167.5,167.5,,110,117.5,120,120,,190,202.5,212.5,212.5,,500,SBD
12,Josh Tanner,,M,,,,,Raw,Male Teens,67.7,,145,157.5,165,165,,105,-112.5,-115,105,,170,182.5,190,190,,460,SBD
13,Paulius Kozeniauskas,,M,,,,,Raw,Male Teens,79.2,,162.5,175,-182.5,175,,100,110,112.5,112.5,,195,210,220,220,,507.5,SBD
14,Clark Bermudo,,M,,,,,Raw,Male Teens,97.6,,205,217.5,225,225,,110,117.5,120,120,,185,200,212.5,212.5,,557.5,SBD
15,Jayden Malone,,M,,,,,Raw,Male Teens,59.9,,-135,140,-145,140,,-85,85,-92.5,85,,150,162.5,172.5,172.5,,397.5,SBD
16,Ryan Boyd,,M,,,,,Raw,Male Teens,81.2,,150,160,170,170,,85,92.5,95,95,,200,210,220,220,,485,SBD
17,Phelim Cullen,,M,,,,,Raw,Male Teens,71.3,,130,140,-152.5,140,,85,90,-92.5,90,,170,185,195,195,,425,SBD
18,Jake Byrne,,M,2008,16,,,Raw,Male Teens,69.7,,110,115,122.5,122.5,,95,100,-105,100,,165,180,190,190,,412.5,SBD
19,Nathan Roberts #5,,M,2005,18,,,Raw,Male Teens,82.2,,155,165,172.5,172.5,,82.5,87.5,90,90,,177.5,185,192.5,192.5,,455,SBD
20,Scott Holland,,M,2009,15,,,Wraps,Male Teens,68.8,,137.5,147.5,157.5,157.5,,77.5,82.5,-85,82.5,,145,160,165,165,,405,SBD
21,Josh Wilson,,M,2006,18,,,Raw,Male Teens,127.4,,165,180,190,190,,-110,112.5,-120,112.5,,215,230,240,240,,542.5,SBD
22,Jamie Fitzgerald,,M,,,,,Raw,Male Teens,132.2,,190,200,207.5,207.5,,100,107.5,-110,107.5,,200,215,-225,215,,530,SBD
23,Shane Hogan,,M,2006,18,,,Raw,Male Teens,129.5,,175,190,200,200,,97.5,105,112.5,112.5,,175,192.5,207.5,207.5,,520,SBD
24,Connor Maleady,,M,,,,,Raw,Male Teens,84.8,,145,155,160,160,,75,80,85,85,,155,170,177.5,177.5,,422.5,SBD
25,Craig Fogarty,,M,,,,,Raw,Male Teens,61,,105,120,127.5,127.5,,50,57.5,62.5,62.5,,120,137.5,-147.5,137.5,,327.5,SBD
26,Patrick Duffy,,M,,,,,Raw,Male Teens,87.3,,100,122.5,135,135,,90,97.5,105,105,,140,160,-175,160,,400,SBD
27,Ben Davies #3,,M,2006,18,,,Raw,Male Teens,100.3,,140,152.5,-155,152.5,,82.5,87.5,-90,87.5,,160,165,170,170,,410,SBD
DQ,Ryan McGeehan,,M,,,,,Raw,Male Teens,87.2,,-220,-220,-220,,,120,127.5,-135,127.5,,230,-250,250,250,,,SBD
1,Jack Molloy Brito,,M,,,,,Raw,Male U21,65.2,,170,185,190,190,,87.5,95,-100,95,,240,-257.5,265,265,,550,SBD
2,Oisin Blaney Shorte,,M,,,,,Raw,Male U21,92.4,,232.5,242.5,247.5,247.5,,162.5,170,175,175,,232.5,247.5,257.5,257.5,,680,SBD
3,Joshua Bello,,M,,,,,Raw,Male U21,98.3,,215,232.5,250,250,,115,120,-127.5,120,,275,295,-310,295,,665,SBD
4,Mohammed Alsarray #1,,M,2003,20,,,Raw,Male U21,90.8,,205,217.5,225,225,,140,150,-155,150,,235,250,255,255,,630,SBD
5,Dylan Larkin,,M,,,,,Raw,Male U21,65,,165,175,180,180,,132.5,140,-142.5,140,,180,190,-202.5,190,,510,SBD
6,Stephen Duffy #3,,M,2004,20,,,Wraps,Male U21,93.4,,215,227.5,232.5,232.5,,137.5,145,150,150,,215,227.5,-235,227.5,,610,SBD
7,Seán Kiely,,M,2007,17,,,Raw,Male U21,77.4,,180,190,195,195,,120,122.5,-125,122.5,,220,-232.5,-232.5,220,,537.5,SBD
8,Aaron Dignam,,M,,,,,Raw,Male U21,67,,145,155,-165,155,,80,90,95,95,,-200,200,225,225,,475,SBD
9,Kyle Capilitan,,M,2003,20,,,Raw,Male U21,93.4,,170,182.5,187.5,187.5,,125,132.5,137.5,137.5,,200,215,222.5,222.5,,547.5,SBD
10,Jay Looney,,M,,,,,Raw,Male U21,85.2,,165,172.5,180,180,,92.5,97.5,-100,97.5,,200,212.5,220,220,,497.5,SBD
11,Dominic Masa,,M,,,,,Raw,Male U21,82.7,,175,185,190,190,,90,97.5,100,100,,165,175,182.5,182.5,,472.5,SBD
12,Jamie McNamara,,M,2002,21,,,Raw,Male U21,91,,157.5,170,-177.5,170,,107.5,112.5,-117.5,112.5,,192.5,205,-215,205,,487.5,SBD
13,James Power,,M,2003,21,,,Raw,Male U21,83.8,,137.5,147.5,155,155,,90,97.5,-100,97.5,,175,190,200,200,,452.5,SBD
14,Jonathan Furlong,,M,,,,,Wraps,Male U21,111.8,,-167.5,182.5,-190,182.5,,95,102.5,107.5,107.5,,190,210,225,225,,515,SBD
15,Qarib Mukhtar,,M,,,,,Raw,Male U21,90,,125,135,142.5,142.5,,105,115,-120,115,,155,165,175,175,,432.5,SBD
