Place,Name,Sex,Division,WeightClassKg,Equipment,BirthYear,Team,State,BodyweightKg,Event,Squat1Kg,Squat2Kg,Squat3Kg,Best3SquatKg,Bench1Kg,Bench2Kg,Bench3Kg,Best3BenchKg,Deadlift1Kg,Deadlift2Kg,Deadlift3Kg,Best3DeadliftKg,TotalKg,BirthDate
1,Juliana Bhering,F,Open,47,Raw,1998,Berserker,PR,45.70,SBD,102.5,107.5,-111.0,107.5,50.0,55.0,56.0,56.0,132.5,-137.5,-137.5,132.5,296.0,
1,Laura Nauck,F,Juniors,47,Raw,2001,Legion,PR,45.10,SBD,72.5,78.0,-80.5,78.0,42.5,45.5,47.5,47.5,100.0,105.5,110.0,110.0,235.5,
1,Renata Inamassu,F,Masters 1,52,Raw,1978,Be Water,PR,51.60,SBD,115.0,122.5,130.0,130.0,70.0,-75.0,-77.5,70.0,125.0,135.0,142.5,142.5,342.5,
1,Carolina Matté Gregory,F,Open,52,Raw,1989,Fpps,PR,48.90,SBD,95.0,-97.5,-100.0,95.0,40.0,45.0,-50.0,45.0,125.0,135.0,-140.0,135.0,275.0,
1,Ana Julia Alves,F,Sub-Juniors,52,Raw,2005,Legion,PR,50.05,SBD,75.0,82.5,-87.5,82.5,47.5,50.0,-52.5,50.0,107.5,115.0,-126.0,115.0,247.5,
2,Rafaela Sunshine,F,Sub-Juniors,52,Raw,2005,The Grinders,PR,49.10,SBD,77.5,87.5,-92.5,87.5,37.5,42.5,-45.0,42.5,90.0,95.0,100.0,100.0,230.0,
1,Nathalia Manfron,F,Open,57,Raw,1999,The Grinders,PR,55.20,SBD,105.0,110.0,115.0,115.0,60.0,-65.0,-65.0,60.0,151.0,156.0,160.0,160.0,335.0,
2,Silmara Aparecida Valvazoridos Reis,F,Open,57,Raw,1976,Legion,PR,55.85,SBD,100.0,107.5,112.5,112.5,57.5,62.5,65.0,65.0,127.5,132.5,138.0,138.0,315.5,
1,Silmara Aparecida Valvazoridos Reis,F,Masters 1,57,Raw,1976,Legion,PR,55.85,SBD,100.0,107.5,112.5,112.5,57.5,62.5,65.0,65.0,127.5,132.5,138.0,138.0,315.5,
1,Mariana Arduino Rosa,F,Novice,57,Raw,1996,Katchau Powerlifting,PR,56.15,SBD,-110.0,110.0,117.5,117.5,50.0,55.0,-57.5,55.0,135.0,142.5,-147.5,142.5,315.0,
2,Alana Beber,F,Novice,57,Raw,1995,Katchau Powerlifting,PR,55.85,SBD,80.0,-82.5,-82.5,80.0,35.0,37.5,-45.0,37.5,95.0,-105.0,-110.0,95.0,212.5,
DQ,Kauane Zenie,F,Sub-Juniors,57,Raw,2006,Legion,PR,53.90,SBD,-25.0,,,,-25.0,,,,-35.0,,,,,
1,Amanda Conte,F,Open,63,Raw,1998,Berserker,PR,61.30,SBD,150.0,155.0,-158.0,155.0,55.0,57.5,60.0,60.0,155.0,160.0,165.0,165.0,380.0,
2,Keity Peixoto,F,Open,63,Raw,1987,Legion,PR,61.95,SBD,120.0,130.0,135.0,135.0,55.0,60.0,62.5,62.5,150.0,162.5,-183.0,162.5,360.0,
1,Keity Peixoto,F,Open,63,Single-ply,1987,Legion,PR,61.95,SBD,120.0,130.0,135.0,135.0,55.0,60.0,62.5,62.5,150.0,162.5,-183.0,162.5,360.0,
3,Marcia Marins,F,Open,63,Raw,1981,Urutau,PR,62.10,SBD,-125.0,127.5,-135.0,127.5,66.0,-70.5,-70.5,66.0,130.0,135.0,137.5,137.5,331.0,
1,Marcia Marins,F,Masters 1,63,Raw,1981,Urutau,PR,62.10,SBD,-125.0,127.5,-135.0,127.5,66.0,-70.5,-70.5,66.0,130.0,135.0,137.5,137.5,331.0,
1,Larissa da Silva,F,Novice,63,Raw,1990,Katchau Powerlifting,PR,61.65,SBD,105.0,110.0,117.5,117.5,40.0,45.0,50.0,50.0,140.0,150.0,-160.0,150.0,317.5,
4,Michaelle Modesto,F,Open,63,Raw,1993,Legion,PR,62.60,SBD,120.0,-127.5,-127.5,120.0,65.0,70.0,72.0,72.0,125.0,-132.5,-132.5,125.0,317.0,
5,Mayara da Silva de Lima,F,Open,63,Raw,1997,Legion,PR,62.55,SBD,105.0,115.0,-122.5,115.0,62.5,65.0,-67.5,65.0,120.0,125.0,132.5,132.5,312.5,
6,Leticia Bonancio,F,Open,63,Raw,1987,Katchau Powerlifting,PR,58.50,SBD,95.0,-100.0,-100.0,95.0,55.0,-57.5,-57.5,55.0,125.0,132.5,140.0,140.0,290.0,
2,Daiane Darros Imbres,F,Novice,63,Raw,1999,Legion,PR,62.20,SBD,-90.0,95.0,105.0,105.0,40.0,-45.0,47.5,47.5,100.0,107.5,120.0,120.0,272.5,
1,Lavinia Fiora,F,Sub-Juniors,63,Raw,2005,The Grinders,PR,60.85,SBD,-90.0,90.0,100.0,100.0,42.5,45.0,47.5,47.5,100.0,110.0,115.0,115.0,262.5,
3,Anais Sawczuk Garcias da Luz,F,Novice,63,Raw,1993,Nirvana Barbell,PR,61.50,SBD,80.0,87.5,92.5,92.5,40.0,45.0,-50.0,45.0,110.0,117.5,125.0,125.0,262.5,
1,Karen Basso,F,Juniors,63,Raw,2000,Berserker,PR,60.90,SBD,90.0,95.0,100.0,100.0,40.0,45.0,-50.0,45.0,105.0,115.0,-120.0,115.0,260.0,
4,Karen Basso,F,Novice,63,Raw,2000,Berserker,PR,60.90,SBD,90.0,95.0,100.0,100.0,40.0,45.0,-50.0,45.0,105.0,115.0,-120.0,115.0,260.0,
2,Maria Eduarda Faiet de Camargo,F,Sub-Juniors,63,Raw,2008,Legion,PR,58.75,SBD,-90.0,90.0,100.0,100.0,40.0,42.5,-47.5,42.5,100.0,112.5,-117.5,112.5,255.0,
3,Mariah Lima,F,Sub-Juniors,63,Raw,2008,Legion,PR,60.40,SBD,70.0,80.0,92.5,92.5,32.5,37.5,40.0,40.0,90.0,100.0,-110.0,100.0,232.5,
1,Vanessa Azevedo,F,Open,69,Raw,1985,Legion,PR,68.30,SBD,120.0,127.5,-141.0,127.5,70.0,77.5,-81.0,77.5,140.0,150.0,157.5,157.5,362.5,
2,Rafaela Mendizabal,F,Open,69,Raw,1998,Nirvana Barbell,PR,65.30,SBD,112.5,120.0,-127.5,120.0,55.0,57.5,60.0,60.0,145.0,152.5,160.0,160.0,340.0,
1,Ananda Lemos,F,Novice,69,Raw,1991,Katchau Powerlifting,PR,68.20,SBD,110.0,117.5,125.0,125.0,52.5,55.0,60.0,60.0,135.0,147.5,-155.0,147.5,332.5,
3,Geovanna Barros,F,Open,69,Raw,1995,Berserker,PR,67.45,SBD,105.0,115.0,-120.0,115.0,57.5,60.0,-62.5,60.0,140.0,145.0,155.0,155.0,330.0,
4,Bruna Luiza Lemes,F,Open,69,Raw,1999,Nirvana Barbell,PR,67.70,SBD,120.0,125.0,-130.0,125.0,55.0,57.5,-60.0,57.5,125.0,135.0,140.0,140.0,322.5,
5,Jenny Antunes,F,Open,69,Raw,1995,Berserker,PR,67.95,SBD,105.0,115.0,-120.0,115.0,55.0,60.0,62.5,62.5,127.5,140.0,-165.0,140.0,317.5,
2,Fabiana da Silva Mello,F,Novice,69,Raw,1987,Time Rafael Ramos,PR,64.95,SBD,85.0,-92.5,100.0,100.0,60.0,65.0,-72.5,65.0,115.0,127.5,140.0,140.0,305.0,
1,Pamela Hubner,F,Juniors,69,Raw,2001,The Grinders,PR,67.75,SBD,106.0,111.0,-116.0,111.0,52.5,57.5,-60.5,57.5,120.0,127.5,135.0,135.0,303.5,
2,Gabriella Himauary Sato dos Santos,F,Juniors,69,Raw,2003,Legion,PR,66.85,SBD,90.0,97.5,-102.5,97.5,50.0,55.0,-60.0,55.0,120.0,132.5,-152.5,132.5,285.0,
6,Gabriella Himauary Sato dos Santos,F,Open,69,Raw,2003,Legion,PR,66.85,SBD,90.0,97.5,-102.5,97.5,50.0,55.0,-60.0,55.0,120.0,132.5,-152.5,132.5,285.0,
3,Gabriella Himauary Sato dos Santos,F,Novice,69,Raw,2003,Legion,PR,66.85,SBD,90.0,97.5,-102.5,97.5,50.0,55.0,-60.0,55.0,120.0,132.5,-152.5,132.5,285.0,
4,Tamires Alexandre de Lima,F,Novice,69,Raw,1990,Katchau Powerlifting,PR,65.40,SBD,95.0,-100.0,105.0,105.0,47.5,50.0,52.5,52.5,105.0,112.5,117.5,117.5,275.0,
5,Sarah Franca Ortiz,F,Novice,69,Raw,1998,Nirvana Barbell,PR,66.20,SBD,-65.0,65.0,70.0,70.0,40.0,45.0,-50.0,45.0,95.0,100.0,110.0,110.0,225.0,
G,Isadora Miranda Mangialardo,F,Teen,69,Raw,2010,*** Atleta Convidado ***,PR,64.55,SBD,65.0,75.0,77.5,77.5,32.5,35.0,37.5,37.5,90.0,100.0,105.0,105.0,220.0,
1,Adriane Schwab,F,Masters 2,69,Raw,1970,Legion,PR,66.40,SBD,50.0,60.0,-70.0,60.0,30.0,37.5,-42.5,37.5,100.0,110.0,-125.0,110.0,207.5,
1,Debora Ziviane,F,Open,76,Raw,1996,Katchau Powerlifting,PR,74.30,SBD,156.0,165.0,-175.0,165.0,70.0,73.0,76.0,76.0,197.5,205.0,211.0,211.0,452.0,
1,Miriam Sayuri Uemura,F,Masters 1,76,Raw,1980,Legion,PR,72.60,SBD,-127.5,127.5,135.0,135.0,55.0,60.0,-67.5,60.0,115.0,125.0,140.0,140.0,335.0,
1,Miriam Sayuri Uemura,F,Novice,76,Raw,1980,Legion,PR,72.60,SBD,-127.5,127.5,135.0,135.0,55.0,60.0,-67.5,60.0,115.0,125.0,140.0,140.0,335.0,
2,Dayane Carla Brinhosa,F,Open,76,Raw,1994,Legion,PR,74.20,SBD,-120.0,120.0,-125.0,120.0,55.0,-60.0,-60.0,55.0,140.0,152.5,-157.5,152.5,327.5,
3,Andressa Lima,F,Open,76,Raw,1991,Legion,PR,74.25,SBD,105.0,-115.0,115.0,115.0,45.0,47.5,-52.5,47.5,135.0,142.5,150.0,150.0,312.5,
2,Andressa Lima,F,Novice,76,Raw,1991,Legion,PR,74.25,SBD,105.0,-115.0,115.0,115.0,45.0,47.5,-52.5,47.5,135.0,142.5,150.0,150.0,312.5,
4,Jessica Nunes,F,Open,76,Raw,1997,Berserker,PR,74.75,SBD,87.5,92.5,97.5,97.5,42.5,45.0,-47.5,45.0,120.0,127.5,135.0,135.0,277.5,
1,Maria Eduarda Walesko,F,Juniors,76,Raw,2003,Legion,PR,73.50,SBD,-87.5,-87.5,87.5,87.5,40.0,45.0,-47.5,45.0,120.0,131.0,136.0,136.0,268.5,
5,Marina Paz,F,Open,76,Raw,1994,Berserker,PR,72.35,SBD,85.0,-92.5,-100.0,85.0,40.0,-52.5,-52.5,40.0,-120.0,-130.0,130.0,130.0,255.0,
3,Marina Paz,F,Novice,76,Raw,1994,Berserker,PR,72.35,SBD,85.0,-92.5,-100.0,85.0,40.0,-52.5,-52.5,40.0,-120.0,-130.0,130.0,130.0,255.0,
4,Ligia Aparecida de Lima,F,Novice,76,Raw,1990,Katchau Powerlifting,PR,70.20,SBD,92.5,100.0,-105.0,100.0,40.0,-42.5,-42.5,40.0,110.0,-117.5,-117.5,110.0,250.0,
DQ,Naiara Veiga,F,Open,76,Raw,1998,Berserker,PR,69.10,SBD,-25.0,,,,-25.0,,,,-25.0,,,,,
1,Morgana Corrêa de Oliveira,F,Open,84,Raw,1993,Nirvana Barbell,PR,77.90,SBD,142.5,150.0,155.0,155.0,55.0,57.5,60.0,60.0,185.0,193.5,202.5,202.5,417.5,
2,Luana Amaral,F,Open,84,Raw,1994,Legion,PR,82.45,SBD,150.0,160.0,165.0,165.0,77.5,80.0,82.5,82.5,160.0,170.0,-177.5,170.0,417.5,
3,Amine Iskandar,F,Open,84,Raw,1997,Katchau Powerlifting,PR,77.80,SBD,120.0,125.0,-130.0,125.0,55.0,57.5,-60.0,57.5,145.0,155.0,-165.0,155.0,337.5,
1,Giovana Frajuca,F,Sub-Juniors,84,Raw,2006,Legion,PR,83.60,SBD,120.0,130.0,132.5,132.5,50.0,55.0,-60.0,55.0,135.0,141.0,150.0,150.0,337.5,
2,Lais Araujo Rosseti,F,Sub-Juniors,84,Raw,2008,Legion,PR,82.90,SBD,100.0,110.0,120.0,120.0,47.5,52.5,55.0,55.0,110.0,120.0,130.0,130.0,305.0,
G,Maria Vitoria Bernadotte,F,Juniors,84+,Raw,2001,*** Atleta Convidado ***,PR,108.35,SBD,195.0,202.5,212.5,212.5,87.5,92.5,100.0,100.0,175.0,180.0,182.5,182.5,495.0,
1,Ana Mohr,F,Open,84+,Raw,1985,Berserker,PR,92.90,SBD,130.0,145.5,155.0,155.0,67.5,77.5,-80.5,77.5,150.0,160.0,170.5,170.5,403.0,
1,Ana Mohr,F,Open,84+,Single-ply,1985,Berserker,PR,92.90,SBD,130.0,145.5,155.0,155.0,67.5,77.5,-80.5,77.5,150.0,160.0,170.5,170.5,403.0,
1,Maria Eduarda Santos,F,Sub-Juniors,84+,Raw,2006,Legion,PR,132.10,SBD,135.0,145.0,-150.0,145.0,50.0,55.0,-60.0,55.0,150.0,156.0,160.0,160.0,360.0,
2,Maria Eduarda Santos,F,Open,84+,Raw,2006,Legion,PR,132.10,SBD,135.0,145.0,-150.0,145.0,50.0,55.0,-60.0,55.0,150.0,156.0,160.0,160.0,360.0,
1,Suzana Fanini,F,Masters 2,84+,Raw,1972,Fpps,PR,92.70,SBD,60.0,65.0,72.5,72.5,45.0,47.5,50.0,50.0,100.0,110.0,117.5,117.5,240.0,
1,Suzana Fanini,F,Novice,84+,Raw,1972,Fpps,PR,92.70,SBD,60.0,65.0,72.5,72.5,45.0,47.5,50.0,50.0,100.0,110.0,117.5,117.5,240.0,
1,Kaian Campos,M,Juniors,53,Raw,2004,Berserker,PR,52.10,SBD,110.0,125.0,127.5,127.5,75.0,77.5,80.0,80.0,140.0,155.0,167.5,167.5,375.0,
G,Enry Feldhaus de Lima,M,Teen,53,Raw,2011,*** Atleta Convidado ***,PR,35.25,SBD,-45.0,52.5,60.0,60.0,25.0,27.5,30.0,30.0,82.5,87.5,-92.5,87.5,177.5,
1,Adrian Rafael,M,Sub-Juniors,59,Raw,2005,Berserker,PR,58.95,SBD,55.0,65.0,75.0,75.0,35.0,40.0,45.0,45.0,65.0,75.0,-105.0,75.0,195.0,
1,Lucio Vitor de Lima,M,Juniors,66,Raw,2004,Legion,PR,64.60,SBD,-185.0,-185.0,185.0,185.0,85.0,95.0,100.0,100.0,235.0,245.0,255.0,255.0,540.0,
1,Cristiano Kalata Varela,M,Open,66,Raw,1981,Fpps,PR,65.20,SBD,165.0,170.0,-177.5,170.0,105.0,110.0,-112.5,110.0,195.0,200.0,-207.5,200.0,480.0,
1,Cristiano Kalata Varela,M,Masters 1,66,Raw,1981,Fpps,PR,65.20,SBD,165.0,170.0,-177.5,170.0,105.0,110.0,-112.5,110.0,195.0,200.0,-207.5,200.0,480.0,
2,Guilherme Santos,M,Open,66,Raw,1999,The Grinders,PR,63.25,SBD,140.0,-150.0,150.0,150.0,77.5,85.0,-87.5,85.0,175.0,190.0,200.0,200.0,435.0,
1,Hilderson Ferreira,M,Sub-Juniors,66,Raw,2006,Berserker,PR,64.45,SBD,130.0,-140.0,-140.0,130.0,77.5,85.0,90.0,90.0,160.0,175.0,-190.0,175.0,395.0,
2,Guilherme Eduardo Guagnini,M,Sub-Juniors,66,Raw,2008,Legion,PR,63.25,SBD,120.0,135.0,142.5,142.5,80.0,85.0,87.5,87.5,-142.5,157.5,-167.5,157.5,387.5,
1,Marlon Roger Geraldo,M,Novice,66,Raw,1998,Katchau Powerlifting,PR,63.25,SBD,95.0,105.0,-115.0,105.0,50.0,-62.5,-62.5,50.0,145.0,160.0,180.0,180.0,335.0,
3,Yuri Campelli,M,Sub-Juniors,66,Raw,2006,Berserker,PR,64.85,SBD,-80.0,80.0,-95.0,80.0,75.0,80.0,-90.0,80.0,100.0,115.0,135.0,135.0,295.0,
2,Yuri Campelli,M,Novice,66,Raw,2006,Berserker,PR,64.85,SBD,-80.0,80.0,-95.0,80.0,75.0,80.0,-90.0,80.0,100.0,115.0,135.0,135.0,295.0,
4,Jonas Selski,M,Sub-Juniors,66,Raw,2009,Legion,PR,61.55,SBD,-80.0,85.0,90.0,90.0,45.0,50.0,55.0,55.0,110.0,-125.0,-140.0,110.0,255.0,
3,Jonas Selski,M,Novice,66,Raw,2009,Legion,PR,61.55,SBD,-80.0,85.0,90.0,90.0,45.0,50.0,55.0,55.0,110.0,-125.0,-140.0,110.0,255.0,
1,Eudson Lima,M,Open,74,Single-ply,1985,Legion,PR,68.90,SBD,-225.0,240.0,255.0,255.0,155.0,165.0,170.0,170.0,225.0,240.0,255.0,255.0,680.0,
1,Soliney Campos,M,Open,74,Raw,1984,Berserker,PR,68.65,SBD,155.0,165.0,170.0,170.0,105.0,115.0,120.0,120.0,205.0,215.0,-225.0,215.0,505.0,
2,Douglas Reis,M,Open,74,Raw,1990,Katchau Powerlifting,PR,71.70,SBD,160.0,-167.5,-167.5,160.0,100.0,107.5,112.5,112.5,197.5,-210.0,210.0,210.0,482.5,
1,Sergio Augusto Mello da Silva Junior,M,Juniors,74,Raw,2003,Katchau Powerlifting,PR,73.25,SBD,165.0,172.5,-180.0,172.5,100.0,105.0,110.0,110.0,200.0,-210.0,-210.0,200.0,482.5,
3,Marcos Oliveira,M,Open,74,Raw,1988,Be Water,PR,73.20,SBD,162.5,170.0,172.5,172.5,92.5,97.5,-100.0,97.5,192.5,-200.0,-202.5,192.5,462.5,
1,Angelo Rossetto,M,Sub-Juniors,74,Raw,2005,Berserker,PR,66.95,SBD,150.0,152.5,162.5,162.5,90.0,-95.0,-95.5,90.0,180.0,185.5,-200.0,185.5,438.0,
2,João Vitor Ribeiro,M,Sub-Juniors,74,Raw,2006,Fpps,PR,68.60,SBD,145.0,155.0,165.0,165.0,75.0,-82.5,-82.5,75.0,182.5,190.0,-210.0,190.0,430.0,
2,Luiz Cordeiro,M,Juniors,74,Raw,2003,Berserker,PR,73.55,SBD,120.0,130.0,140.0,140.0,-70.0,70.0,85.0,85.0,170.0,190.0,205.0,205.0,430.0,
3,Matheus Machado,M,Sub-Juniors,74,Raw,2007,The Grinders,PR,71.80,SBD,140.0,155.0,-172.5,155.0,-85.0,85.0,-95.0,85.0,170.0,181.5,-195.0,181.5,421.5,
4,Matheus Adler,M,Open,74,Raw,1997,Berserker,PR,66.70,SBD,-125.0,125.0,130.0,130.0,90.0,-97.5,-97.5,90.0,190.0,197.5,-207.5,197.5,417.5,
1,Ildemar Furtado,M,Novice,74,Raw,1991,Legion,PR,68.25,SBD,125.0,-130.0,-130.0,125.0,80.0,-85.0,-85.0,80.0,175.0,182.5,190.0,190.0,395.0,
2,Roberto Hauagge,M,Novice,74,Raw,1991,Be Water,PR,73.05,SBD,115.0,122.5,130.0,130.0,80.0,87.5,-95.0,87.5,155.0,162.5,175.0,175.0,392.5,
4,Jackson Willian Santos da Cruz,M,Sub-Juniors,74,Raw,2006,Katchau Powerlifting,PR,68.55,SBD,122.0,130.0,-140.0,130.0,75.0,82.5,85.0,85.0,162.5,172.5,-182.5,172.5,387.5,
5,Victor Begha,M,Open,74,Raw,1998,Nirvana Barbell,PR,71.70,SBD,102.5,112.5,120.0,120.0,80.0,85.0,-90.0,85.0,162.5,170.0,180.0,180.0,385.0,
1,Dirney Souza,M,Masters 2,74,Raw,1969,Platinum Team,PR,71.90,SBD,100.0,110.0,120.0,120.0,70.0,-80.0,80.0,80.0,160.0,170.0,-180.0,170.0,370.0,
3,Matheus Henrique Kanha,M,Novice,74,Raw,1996,Time Rafael Ramos,PR,72.00,SBD,120.0,-130.0,-140.0,120.0,80.0,85.0,-87.5,85.0,150.0,-165.0,-170.0,150.0,355.0,
1,Orlando Correa da Silva,M,Masters 3,74,Raw,1960,Legion,PR,69.85,SBD,65.0,72.5,-75.0,72.5,37.5,40.0,50.0,50.0,-85.0,85.0,100.0,100.0,222.5,
DQ,Thiago Betim,M,Juniors,74,Raw,2005,The Grinders,PR,66.60,SBD,-105.0,105.0,115.0,115.0,60.0,65.0,67.5,67.5,-140.0,-140.0,-140.0,,,
1,Rafael Rabello Ramos,M,Open,83,Raw,1987,Time Rafael Ramos,PR,82.50,SBD,237.5,247.5,255.5,255.5,145.0,150.0,-156.5,150.0,265.0,275.0,-285.5,275.0,680.5,
1,Anderson Vieira da Maia,M,Open,83,Single-ply,1993,Berserker,PR,82.10,SBD,100.0,250.0,-277.5,250.0,160.0,172.5,180.0,180.0,200.0,240.0,250.0,250.0,680.0,
2,Vitor Matheus,M,Open,83,Raw,1999,The Grinders,PR,81.50,SBD,235.0,-245.0,-251.0,235.0,140.0,147.5,150.0,150.0,270.0,-282.5,-282.5,270.0,655.0,
1,Matheus dos Santos,M,Juniors,83,Raw,2001,The Grinders,PR,76.65,SBD,217.5,230.0,242.5,242.5,110.0,115.0,117.5,117.5,260.0,275.0,290.0,290.0,650.0,
3,Matheus dos Santos,M,Open,83,Raw,2001,The Grinders,PR,76.65,SBD,217.5,230.0,242.5,242.5,110.0,115.0,117.5,117.5,260.0,275.0,290.0,290.0,650.0,
4,Carlos Tempel,M,Open,83,Raw,1979,Legion,PR,82.15,SBD,200.0,-202.5,225.0,225.0,110.0,120.0,125.0,125.0,270.0,285.0,-300.0,285.0,635.0,
1,Carlos Tempel,M,Masters 1,83,Raw,1979,Legion,PR,82.15,SBD,200.0,-202.5,225.0,225.0,110.0,120.0,125.0,125.0,270.0,285.0,-300.0,285.0,635.0,
1,Volnei José de Camargo,M,Masters 2,83,Raw,1972,Time Rafael Ramos,PR,81.80,SBD,200.0,215.0,225.0,225.0,135.0,142.5,150.0,150.0,225.0,237.5,-247.5,237.5,612.5,
1,Volnei José de Camargo,M,Novice,83,Raw,1972,Time Rafael Ramos,PR,81.80,SBD,200.0,215.0,225.0,225.0,135.0,142.5,150.0,150.0,225.0,237.5,-247.5,237.5,612.5,
5,Robson Andre de Lima Leite,M,Open,83,Raw,1984,Katchau Powerlifting,PR,82.35,SBD,192.5,202.5,-210.0,202.5,130.0,137.5,-142.5,137.5,240.0,252.5,-265.0,252.5,592.5,
6,Marcelo Marcolin,M,Open,83,Raw,1991,Berserker,PR,82.45,SBD,195.0,205.0,-212.5,205.0,127.5,135.0,140.0,140.0,220.0,235.0,245.0,245.0,590.0,
2,Jackson Fernando dos Santos,M,Novice,83,Raw,1991,Legion,PR,82.20,SBD,185.0,195.0,202.5,202.5,-165.0,165.0,172.5,172.5,190.0,200.0,210.0,210.0,585.0,
7,Alexandre Meyer,M,Open,83,Raw,1987,Legion,PR,82.40,SBD,-215.0,215.0,-235.0,215.0,110.0,117.5,-122.5,117.5,240.0,250.0,-255.0,250.0,582.5,
8,Adrian dos Santos,M,Open,83,Raw,1992,Legion,PR,81.35,SBD,200.0,210.0,220.0,220.0,90.0,-100.0,,90.0,230.0,240.0,-250.0,240.0,550.0,
1,Daniel Ranghetti,M,Sub-Juniors,83,Raw,2006,Katchau Powerlifting,PR,80.20,SBD,175.0,183.0,190.0,190.0,100.0,105.5,108.0,108.0,205.0,217.5,226.0,226.0,524.0,
9,William Sprung,M,Open,83,Raw,1988,The Grinders,PR,81.65,SBD,185.0,-197.5,197.5,197.5,110.0,-120.0,-125.0,110.0,205.0,-215.0,215.0,215.0,522.5,
2,Eduardo Camilo,M,Masters 1,83,Raw,1982,Be Water,PR,76.55,SBD,170.0,182.5,190.0,190.0,115.0,-122.5,-122.5,115.0,190.0,-212.5,212.5,212.5,517.5,
G,Fernando Godoy,M,Open,83,Raw,1994,*** Atleta Convidado ***,PR,83.00,SBD,165.0,-180.0,185.0,185.0,95.0,-100.0,-100.0,95.0,205.0,212.5,-220.0,212.5,492.5,
2,Max Santos,M,Sub-Juniors,83,Raw,2005,The Grinders,PR,79.55,SBD,165.0,-175.0,-175.0,165.0,100.0,-110.0,-110.0,100.0,200.0,207.5,225.5,225.5,490.5,
2,Elian Chiarelli Sabbag,M,Juniors,83,Raw,2000,The Grinders,PR,79.65,SBD,170.0,177.5,-185.0,177.5,100.0,105.0,-110.0,105.0,195.0,200.0,-210.0,200.0,482.5,
3,Elian Chiarelli Sabbag,M,Novice,83,Raw,2000,The Grinders,PR,79.65,SBD,170.0,177.5,-185.0,177.5,100.0,105.0,-110.0,105.0,195.0,200.0,-210.0,200.0,482.5,
3,Diego Henrique Castro da Silva,M,Juniors,83,Raw,2003,Katchau Powerlifting,PR,80.10,SBD,160.0,170.0,-180.0,170.0,97.5,105.0,110.0,110.0,172.5,187.5,200.0,200.0,480.0,
4,Antonio Ferreira Netto,M,Juniors,83,Raw,2003,Legion,PR,77.35,SBD,160.0,175.0,-185.0,175.0,-87.5,87.5,95.0,95.0,205.0,-220.0,-227.5,205.0,475.0,
4,Antonio Ferreira Netto,M,Novice,83,Raw,2003,Legion,PR,77.35,SBD,160.0,175.0,-185.0,175.0,-87.5,87.5,95.0,95.0,205.0,-220.0,-227.5,205.0,475.0,
5,Luan Braz,M,Juniors,83,Raw,2000,The Grinders,PR,80.10,SBD,-140.0,147.5,152.5,152.5,-85.0,92.5,100.0,100.0,195.0,202.5,-210.0,202.5,455.0,
3,Gustavo Almeida,M,Sub-Juniors,83,Raw,2007,The Grinders,PR,82.25,SBD,150.0,165.0,-183.5,165.0,65.0,72.5,80.0,80.0,185.0,202.5,-226.5,202.5,447.5,
4,Manuel Afonso de Araujo,M,Sub-Juniors,83,Raw,2005,Legion,PR,82.45,SBD,130.0,140.0,150.0,150.0,75.0,82.5,-87.5,82.5,190.0,-205.0,205.0,205.0,437.5,
10,Gabriel Souza,M,Open,83,Raw,2000,The Grinders,PR,79.50,SBD,115.0,-120.0,125.0,125.0,95.0,-102.5,102.5,102.5,185.0,195.0,202.5,202.5,430.0,
5,Gabriel Almeida Miranda,M,Novice,83,Raw,1992,Katchau Powerlifting,PR,81.20,SBD,140.0,-147.5,-147.5,140.0,85.0,-92.5,-92.5,85.0,167.5,180.0,190.0,190.0,415.0,
1,João Pedroso da Rocha,M,Masters 3,83,Single-ply,1957,Time Rafael Ramos,PR,81.40,SBD,-190.0,190.0,210.0,210.0,115.0,-125.0,-125.0,115.0,75.0,,,75.0,400.0,
6,Gabriel Marques,M,Juniors,83,Raw,2004,Berserker,PR,81.00,SBD,105.0,117.5,125.0,125.0,57.5,65.0,-75.0,65.0,115.0,130.0,-150.0,130.0,320.0,
6,Gabriel Marques,M,Novice,83,Raw,2004,Berserker,PR,81.00,SBD,105.0,117.5,125.0,125.0,57.5,65.0,-75.0,65.0,115.0,130.0,-150.0,130.0,320.0,
DQ,Murilo Rocha,M,Sub-Juniors,83,Raw,2006,Berserker,PR,76.15,SBD,-130.0,-130.0,-130.0,,70.0,80.0,-90.0,80.0,155.0,-160.0,175.0,175.0,,
1,Marcelo Ricieri,M,Open,93,Raw,1996,Fpps,PR,91.15,SBD,247.5,260.0,265.0,265.0,147.5,155.0,-157.5,155.0,270.0,285.0,-301.5,285.0,705.0,
2,Alessandro Ribeiro,M,Open,93,Raw,1993,Berserker,PR,92.15,SBD,245.0,252.5,260.5,260.5,145.0,-152.5,155.0,155.0,245.0,255.0,-262.5,255.0,670.5,
1,Alessandro Ribeiro,M,Open,93,Single-ply,1993,Berserker,PR,92.15,SBD,245.0,252.5,260.5,260.5,145.0,-152.5,155.0,155.0,245.0,255.0,-262.5,255.0,670.5,
3,Gabriel Siqueira Porto,M,Open,93,Raw,1995,Katchau Powerlifting,PR,89.85,SBD,230.0,237.5,242.5,242.5,127.5,-132.5,-132.5,127.5,290.0,-301.0,-302.0,290.0,660.0,
4,Pedro Chaves,M,Open,93,Raw,1997,Berserker,PR,91.00,SBD,215.0,230.0,235.0,235.0,137.5,145.0,-150.0,145.0,240.0,260.0,-275.0,260.0,640.0,
1,Davi Miranda,M,Juniors,93,Raw,2000,Legion,PR,92.15,SBD,235.0,244.0,-246.5,244.0,130.0,137.5,140.0,140.0,240.0,-250.0,252.5,252.5,636.5,
2,Vinicius Oliveira,M,Juniors,93,Raw,2004,The Grinders,PR,87.10,SBD,220.0,-237.5,247.5,247.5,120.0,127.5,-135.0,127.5,-225.0,235.0,250.0,250.0,625.0,
1,Henrique Loiola,M,Sub-Juniors,93,Raw,2006,The Grinders,PR,85.55,SBD,177.5,190.0,201.0,201.0,115.0,120.0,125.0,125.0,230.0,240.0,247.0,247.0,573.0,
5,David Christian de Melo Pontes,M,Open,93,Raw,1993,Legion,PR,92.00,SBD,190.0,207.5,212.5,212.5,110.0,117.5,120.0,120.0,-225.0,240.0,-255.0,240.0,572.5,
1,David Christian de Melo Pontes,M,Novice,93,Raw,1993,Legion,PR,92.00,SBD,190.0,207.5,212.5,212.5,110.0,117.5,120.0,120.0,-225.0,240.0,-255.0,240.0,572.5,
6,Raphael Duarte,M,Open,93,Raw,1982,Katchau Powerlifting,PR,92.25,SBD,185.0,-192.5,197.5,197.5,125.0,130.0,-135.0,130.0,227.5,235.0,245.0,245.0,572.5,
1,Raphael Duarte,M,Masters 1,93,Raw,1982,Katchau Powerlifting,PR,92.25,SBD,185.0,-192.5,197.5,197.5,125.0,130.0,-135.0,130.0,227.5,235.0,245.0,245.0,572.5,
2,Lucca Emanuel Batirola,M,Sub-Juniors,93,Raw,2007,Fpps,PR,91.20,SBD,177.5,-190.0,205.0,205.0,120.0,136.0,-138.5,136.0,-205.0,205.0,215.0,215.0,556.0,
3,Luiz Henrique Goelzer,M,Juniors,93,Raw,2001,Katchau Powerlifting,PR,92.85,SBD,-195.0,-195.0,195.0,195.0,100.0,105.0,-107.5,105.0,247.5,-262.5,-272.5,247.5,547.5,
2,Luiz Henrique Goelzer,M,Novice,93,Raw,2001,Katchau Powerlifting,PR,92.85,SBD,-195.0,-195.0,195.0,195.0,100.0,105.0,-107.5,105.0,247.5,-262.5,-272.5,247.5,547.5,
3,Leo Patrick,M,Sub-Juniors,93,Raw,2005,The Grinders,PR,91.50,SBD,190.0,200.5,-205.0,200.5,105.0,107.5,110.0,110.0,215.0,230.5,-246.5,230.5,541.0,
4,Gabriel Escalante,M,Juniors,93,Raw,2000,Katchau Powerlifting,PR,90.50,SBD,177.5,190.0,-195.0,190.0,102.5,105.0,107.5,107.5,230.0,242.5,-255.0,242.5,540.0,
7,Guilherme Matoso,M,Open,93,Raw,1996,Berserker,PR,90.35,SBD,-155.0,155.0,162.5,162.5,130.0,-137.5,-137.5,130.0,210.0,215.0,230.0,230.0,522.5,
3,Christyan Conceicao Beltrame,M,Novice,93,Raw,1993,Katchau Powerlifting,PR,91.40,SBD,185.0,-190.0,190.0,190.0,102.5,110.0,117.5,117.5,185.0,200.0,215.0,215.0,522.5,
5,Joao Lucca Mortella,M,Juniors,93,Raw,2002,Fpps,PR,85.25,SBD,160.0,175.0,187.5,187.5,102.5,110.0,-117.5,110.0,200.0,220.0,-255.0,220.0,517.5,
8,Marcelo Oliveira,M,Open,93,Raw,1984,Legion,PR,85.35,SBD,180.0,190.0,-195.0,190.0,100.0,102.5,-115.0,102.5,200.0,215.0,225.0,225.0,517.5,
6,Bruno Rodrigues,M,Juniors,93,Raw,2003,The Grinders,PR,92.10,SBD,170.0,177.5,182.5,182.5,100.0,107.5,112.5,112.5,200.0,210.0,-220.0,210.0,505.0,
4,Vinicius Gois,M,Sub-Juniors,93,Raw,2008,Berserker,PR,92.50,SBD,140.0,155.0,170.0,170.0,95.0,105.0,110.0,110.0,195.0,202.5,210.0,210.0,490.0,
1,Jefferson Ozires Pereira de Ramos,M,Masters 3,93,Raw,1963,Time Rafael Ramos,PR,92.15,SBD,145.0,155.0,165.0,165.0,100.0,108.0,110.5,110.5,185.0,200.0,206.0,206.0,481.5,
5,Heitor Marcelino,M,Sub-Juniors,93,Raw,2005,The Grinders,PR,91.30,SBD,175.0,187.5,-200.0,187.5,77.5,85.0,-87.5,85.0,195.0,205.0,-217.5,205.0,477.5,
4,Guilherme Augusto de Souza,M,Novice,93,Raw,1997,Urutau,PR,87.15,SBD,135.0,155.0,170.0,170.0,75.0,85.0,-97.5,85.0,160.0,170.0,-190.0,170.0,425.0,
5,Lucas Rabello,M,Novice,93,Raw,1991,Katchau Powerlifting,PR,88.70,SBD,140.0,155.0,162.5,162.5,87.5,-92.5,-92.5,87.5,160.0,175.0,-182.5,175.0,425.0,
6,Luiz Gustavo Branco,M,Novice,93,Raw,1997,Katchau Powerlifting,PR,90.45,SBD,130.0,137.5,145.0,145.0,75.0,80.0,-85.0,80.0,175.0,190.0,200.0,200.0,425.0,
1,Lademir Barbosa,M,Masters 2,93,Single-ply,1964,Legion,PR,91.75,SBD,115.0,125.0,135.0,135.0,75.0,-125.0,-130.0,75.0,120.0,130.0,140.0,140.0,350.0,
1,Lademir Barbosa,M,Novice,93,Single-ply,1964,Legion,PR,91.75,SBD,115.0,125.0,135.0,135.0,75.0,-125.0,-130.0,75.0,120.0,130.0,140.0,140.0,350.0,
1,Walter Guimaraes,M,Open,105,Raw,1999,The Grinders,PR,101.10,SBD,260.0,272.5,282.5,282.5,152.5,160.0,165.0,165.0,295.0,312.5,327.5,327.5,775.0,
2,Rafael Cruz da Silva,M,Open,105,Raw,1999,Legion,PR,103.95,SBD,285.0,-299.0,-299.0,285.0,-165.0,172.5,182.5,182.5,286.0,295.0,307.5,307.5,775.0,
3,Paulo Netto,M,Open,105,Raw,1994,Time Rafael Ramos,PR,103.85,SBD,247.5,255.0,262.5,262.5,182.5,188.0,190.5,190.5,245.0,260.0,267.5,267.5,720.5,
4,Ivan da Silva Bitencourt,M,Open,105,Raw,1999,Legion,PR,104.45,SBD,235.0,245.0,255.0,255.0,135.0,145.0,-150.0,145.0,275.0,287.5,-321.0,287.5,687.5,
5,Vinicius Tuleski Riechi de Souza,M,Open,105,Raw,1998,Katchau Powerlifting,PR,100.30,SBD,185.0,200.0,215.0,215.0,125.0,132.5,-137.5,132.5,220.0,235.0,255.0,255.0,602.5,
1,Rafael de Aguiar Leindorf,M,Juniors,105,Raw,2000,Urutau,PR,103.50,SBD,205.0,215.0,-225.0,215.0,135.0,-140.0,140.0,140.0,235.0,245.0,-255.0,245.0,600.0,
2,Felipe Pohl,M,Juniors,105,Raw,2000,The Grinders,PR,101.75,SBD,190.0,202.5,207.5,207.5,120.0,-127.5,127.5,127.5,210.0,220.0,230.0,230.0,565.0,
1,Felipe Pohl,M,Novice,105,Raw,2000,The Grinders,PR,101.75,SBD,190.0,202.5,207.5,207.5,120.0,-127.5,127.5,127.5,210.0,220.0,230.0,230.0,565.0,
6,Marcos Vinicius Gandra de Souza,M,Open,105,Raw,1998,Nirvana Barbell,PR,100.60,SBD,170.0,182.5,195.0,195.0,110.0,117.5,-122.5,117.5,210.0,227.5,235.0,235.0,547.5,
1,Frederico Augustus,M,Masters 1,105,Raw,1979,Berserker,PR,102.00,SBD,155.0,165.0,175.0,175.0,110.0,117.5,125.0,125.0,210.0,225.0,240.0,240.0,540.0,
3,Alexandre Costa,M,Juniors,105,Raw,2001,Katchau Powerlifting,PR,96.25,SBD,185.0,192.5,200.0,200.0,100.0,105.0,110.0,110.0,200.0,210.0,220.0,220.0,530.0,
1,Joao Luis Souza,M,Sub-Juniors,105,Raw,2005,The Grinders,PR,99.25,SBD,-170.0,175.0,-187.5,175.0,115.0,-125.0,-125.0,115.0,200.0,215.0,230.0,230.0,520.0,
2,Joao Luis Souza,M,Novice,105,Raw,2005,The Grinders,PR,99.25,SBD,-170.0,175.0,-187.5,175.0,115.0,-125.0,-125.0,115.0,200.0,215.0,230.0,230.0,520.0,
7,Ramon Henrique da Silva,M,Open,105,Raw,1995,Legion,PR,102.25,SBD,155.0,170.0,185.0,185.0,105.0,-112.5,-112.5,105.0,185.0,192.5,-200.0,192.5,482.5,
3,Ramon Henrique da Silva,M,Novice,105,Raw,1995,Legion,PR,102.25,SBD,155.0,170.0,185.0,185.0,105.0,-112.5,-112.5,105.0,185.0,192.5,-200.0,192.5,482.5,
2,Elvis Fontana Augusto da Silva,M,Sub-Juniors,105,Raw,2005,Legion,PR,97.00,SBD,-140.0,140.0,-155.0,140.0,105.0,112.5,117.5,117.5,190.0,200.0,-210.0,200.0,457.5,
4,Elvis Fontana Augusto da Silva,M,Novice,105,Raw,2005,Legion,PR,97.00,SBD,-140.0,140.0,-155.0,140.0,105.0,112.5,117.5,117.5,190.0,200.0,-210.0,200.0,457.5,
5,Wellington Costa Oliveira,M,Novice,105,Raw,1989,Legion,PR,102.20,SBD,127.5,140.0,-150.0,140.0,120.0,125.0,-127.5,125.0,150.0,165.0,175.0,175.0,440.0,
DQ,Eduardo Milograna Demarchi,M,Open,105,Raw,1992,Legion,PR,103.50,SBD,-145.0,-150.0,-150.0,,87.5,95.0,100.0,100.0,170.0,175.0,200.0,200.0,,
1,Romulo Luz,M,Open,120,Raw,1985,Time Rafael Ramos,PR,118.20,SBD,247.5,262.5,275.0,275.0,180.0,187.5,-191.0,187.5,245.0,260.0,270.0,270.0,732.5,
2,Henrique Peres,M,Open,120,Raw,1992,Katchau Powerlifting,PR,115.80,SBD,247.5,260.0,270.0,270.0,152.5,160.0,-165.0,160.0,252.5,260.0,-267.5,260.0,690.0,
1,Stvan Oliveira,M,Juniors,120,Raw,2004,Legion,PR,109.60,SBD,220.0,230.0,237.5,237.5,-165.0,172.5,180.0,180.0,260.0,270.0,-272.5,270.0,687.5,
3,Stvan Oliveira,M,Open,120,Raw,2004,Legion,PR,109.60,SBD,220.0,230.0,237.5,237.5,-165.0,172.5,180.0,180.0,260.0,270.0,-272.5,270.0,687.5,
4,José Roberto Miguel Junior,M,Open,120,Raw,1993,Time Rafael Ramos,PR,117.60,SBD,220.0,235.0,247.5,247.5,135.0,142.5,-150.0,142.5,245.0,257.5,265.0,265.0,655.0,
2,Pedro Henrique Nunes Souza,M,Juniors,120,Raw,2001,The Grinders,PR,113.60,SBD,185.0,195.0,210.0,210.0,130.0,140.0,142.5,142.5,265.0,280.0,282.5,282.5,635.0,
1,Pedro Henrique Nunes Souza,M,Novice,120,Raw,2001,The Grinders,PR,113.60,SBD,185.0,195.0,210.0,210.0,130.0,140.0,142.5,142.5,265.0,280.0,282.5,282.5,635.0,
5,Rafael de Mattos,M,Open,120,Raw,1998,Urutau,PR,111.00,SBD,235.0,245.0,-255.0,245.0,125.0,-135.0,142.5,142.5,235.0,245.0,-257.5,245.0,632.5,
2,Rafael de Mattos,M,Novice,120,Raw,1998,Urutau,PR,111.00,SBD,235.0,245.0,-255.0,245.0,125.0,-135.0,142.5,142.5,235.0,245.0,-257.5,245.0,632.5,
6,Roger Percy Soares Isaacson,M,Open,120,Raw,1988,Time Rafael Ramos,PR,117.50,SBD,180.0,187.5,200.0,200.0,135.0,142.5,150.0,150.0,245.0,260.0,270.0,270.0,620.0,
3,Roger Percy Soares Isaacson,M,Novice,120,Raw,1988,Time Rafael Ramos,PR,117.50,SBD,180.0,187.5,200.0,200.0,135.0,142.5,150.0,150.0,245.0,260.0,270.0,270.0,620.0,
3,Italo dos Anjos,M,Juniors,120,Raw,2004,The Grinders,PR,107.45,SBD,200.0,-215.0,215.0,215.0,-110.0,115.0,125.0,125.0,240.0,255.0,262.5,262.5,602.5,
1,Matheus Gregorio,M,Sub-Juniors,120,Raw,2005,Fpps,PR,118.80,SBD,-205.0,205.0,220.0,220.0,110.0,120.0,-140.0,120.0,210.0,230.0,-250.0,230.0,570.0,
2,Anthony Limberger,M,Sub-Juniors,120,Raw,2006,The Grinders,PR,111.20,SBD,187.5,202.5,-215.5,202.5,92.5,100.0,110.0,110.0,190.0,205.0,220.0,220.0,532.5,
1,Henrique Hauffe,M,Open,120,Single-ply,1988,Legion,PR,106.00,SBD,135.0,140.0,-147.5,140.0,115.0,-160.0,-160.0,115.0,175.0,200.0,-250.5,200.0,455.0,
1,Henrique Hauffe,M,Novice,120,Single-ply,1988,Legion,PR,106.00,SBD,135.0,140.0,-147.5,140.0,115.0,-160.0,-160.0,115.0,175.0,200.0,-250.5,200.0,455.0,
1,David Cardoso,M,Juniors,120+,Raw,2002,The Grinders,PR,123.00,SBD,260.0,280.0,301.0,301.0,165.0,175.0,-182.5,175.0,275.0,300.0,-330.0,300.0,776.0,
1,David Cardoso,M,Open,120+,Raw,2002,The Grinders,PR,123.00,SBD,260.0,280.0,301.0,301.0,165.0,175.0,-182.5,175.0,275.0,300.0,-330.0,300.0,776.0,
1,David Cardoso,M,Juniors,120+,Single-ply,2002,The Grinders,PR,123.00,SBD,260.0,280.0,301.0,301.0,165.0,175.0,-182.5,175.0,275.0,300.0,-330.0,300.0,776.0,
1,David Cardoso,M,Novice,120+,Single-ply,2002,The Grinders,PR,123.00,SBD,260.0,280.0,301.0,301.0,165.0,175.0,-182.5,175.0,275.0,300.0,-330.0,300.0,776.0,
2,Ruda Emanuel Egidio Pereira Leao,M,Open,120+,Raw,1987,Nirvana Barbell,PR,136.00,SBD,235.0,245.0,255.0,255.0,165.0,167.5,175.0,175.0,280.0,-285.0,,280.0,710.0,
1,Julio Cesar Todeschi Nogas,M,Masters 1,120+,Raw,1980,Time Rafael Ramos,PR,142.20,SBD,180.0,192.5,202.5,202.5,130.0,-135.0,135.0,135.0,225.0,237.0,250.0,250.0,587.5,
1,André Maio,M,Sub-Juniors,120+,Raw,2007,The Grinders,PR,143.00,SBD,140.0,152.5,165.0,165.0,67.5,75.0,82.5,82.5,185.0,195.0,206.5,206.5,454.0,
2,Mizael da Silva Ferreira,M,Sub-Juniors,120+,Raw,2006,Legion,PR,126.50,SBD,-130.0,-130.0,130.0,130.0,90.0,100.0,107.5,107.5,170.0,-185.0,-206.0,170.0,407.5,
3,Renan Vitor de Andrade Ribeiro,M,Open,120+,Raw,1993,Nirvana Barbell,PR,138.00,SBD,100.0,,,100.0,100.0,,,100.0,100.0,,,100.0,300.0,
