Division,WeightClassKg,Place,Name,Team,BodyweightKg,Best3SquatKg,Best3BenchKg,Best3DeadliftKg,TotalKg,Equipment,Event,Sex,BirthDate
Boys,51.71,1,Eric Sanchez,Everman,50.8,151.95,83.91,147.42,383.29,Single-ply,SBD,M,
Boys,51.71,2,Matthew McFadden,Ferris,51.17,79.38,49.9,117.93,247.21,Single-ply,SBD,M,
Boys,51.71,3,Ethan Folsom,Forney,50.8,90.72,61.23,68.04,219.99,Single-ply,SBD,M,
Boys,51.71,4,Bodo Brown,West Mesquite,50.98,61.23,52.16,90.72,204.12,Single-ply,SBD,M,
Boys,51.71,DQ,Gianluca Figueroa Bautis,Carrollton Smith,50.35,,,,,Single-ply,SBD,M,
Boys,55.79,1,Leo Martinez,Ranger,52.44,111.13,68.04,122.47,301.64,Single-ply,SBD,M,
Boys,55.79,2,Dillon Dryman,Sunnyvale,54.98,115.67,61.23,106.59,283.5,Single-ply,SBD,M,
Boys,55.79,DQ,Caleb Quiroz,Ferris,55.25,88.45,36.29,,,Single-ply,SBD,M,
Boys,59.87,1,Jose Jimenez #10,Everman,58.97,215.46,108.86,231.33,555.65,Single-ply,SBD,M,
Boys,59.87,2,Adam Dean,Pollok Central,57.7,133.81,72.57,158.76,365.14,Single-ply,SBD,M,
Boys,59.87,3,Aj Walker,Pollok Central,58.01,124.74,72.57,154.22,351.53,Single-ply,SBD,M,
Boys,59.87,4,Jaden Lopez,Sunnyvale,57.15,127.01,77.11,138.35,342.46,Single-ply,SBD,M,
Boys,59.87,5,Jonathan Cockrell,Pollok Central,58.88,129.27,61.23,145.15,335.66,Single-ply,SBD,M,
Boys,59.87,6,Wyatt Alexander,Pollok Central,58.69,113.4,68.04,147.42,328.85,Single-ply,SBD,M,
Boys,59.87,7,Jamarion Washington,Aubrey,58.51,122.47,68.04,122.47,312.98,Single-ply,SBD,M,
Boys,59.87,8,Kenya Ford,Killeen,59.78,102.06,47.63,124.74,274.42,Single-ply,SBD,M,
Boys,67.13,1,Anthony Lopez,Ferris,66.22,208.65,127.01,183.7,519.36,Single-ply,SBD,M,
Boys,67.13,2,Kia Bagley,Aubrey,66.95,183.7,102.06,183.7,469.47,Single-ply,SBD,M,
Boys,67.13,3,Ralen Allen,Everman,62.23,170.1,97.52,183.7,451.32,Single-ply,SBD,M,
Boys,67.13,4,Aaron Freyer,Aubrey,65.95,165.56,88.45,165.56,419.57,Single-ply,SBD,M,
Boys,67.13,5,Ashton Nguyen,Carrollton Creekview,62.78,158.76,79.38,163.29,401.43,Single-ply,SBD,M,
Boys,67.13,6,Enrique Carrillo,Everman,65.86,151.95,86.18,163.29,401.43,Single-ply,SBD,M,
Boys,67.13,7,Caleb Garcia,Mesquite Horn,67.04,151.95,77.11,170.1,399.16,Single-ply,SBD,M,
Boys,67.13,8,Nathan Matthews,Pollok Central,64.5,133.81,83.91,151.95,369.68,Single-ply,SBD,M,
Boys,67.13,9,Stanley King,Killeen,62.05,138.35,74.84,145.15,358.34,Single-ply,SBD,M,
Boys,67.13,10,Bryan Tamayo,Dallas A+,65.14,136.08,74.84,142.88,353.8,Single-ply,SBD,M,
Boys,67.13,11,Andre Bishop,West Mesquite,61.14,129.27,72.57,147.42,349.27,Single-ply,SBD,M,
Boys,67.13,12,Bryson Stiggers,Mesquite Horn,60.24,104.33,54.43,131.54,290.3,Single-ply,SBD,M,
Boys,67.13,13,David Rodriguez #2,Dallas A+,67.13,106.59,65.77,111.13,283.5,Single-ply,SBD,M,
Boys,67.13,DQ,Massimo Liberator,Carrollton Creekview,63.96,170.1,,,,Single-ply,SBD,M,
Boys,67.13,DQ,Christian Mares,Mesquite Horn,66.68,102.06,,,,Single-ply,SBD,M,
Boys,67.13,DQ,Easton McMillan,Forney,67.04,206.38,,,,Single-ply,SBD,M,
Boys,74.84,1,Carson Coldwell,Sunnyvale,74.03,226.8,122.47,195.04,544.31,Single-ply,SBD,M,
Boys,74.84,2,Aaron Gomez,Argyle,73.84,183.7,154.22,204.12,542.04,Single-ply,SBD,M,
Boys,74.84,3,Ryan Fong,McKinney,73.12,208.65,106.59,204.12,519.36,Single-ply,SBD,M,
Boys,74.84,4,Matthew Leavitt,Sunnyvale,74.21,192.78,113.4,197.31,503.49,Single-ply,SBD,M,
Boys,74.84,5,De'Juan Limbrick,West Mesquite,69.13,181.44,104.33,201.85,487.61,Single-ply,SBD,M,
Boys,74.84,6,Jaden Coulter,Carrollton Smith,74.03,183.7,106.59,165.56,455.86,Single-ply,SBD,M,
Boys,74.84,7,Nathan Reyes,West Mesquite,74.75,163.29,90.72,185.97,439.98,Single-ply,SBD,M,
Boys,74.84,8,Caleb Bumstead,Pollok Central,73.3,167.83,97.52,170.1,435.45,Single-ply,SBD,M,
Boys,74.84,9,Jose Lozano,Everman,74.39,147.42,113.4,174.63,435.45,Single-ply,SBD,M,
Boys,74.84,10,Randall Szostek,Aubrey,70.49,165.56,108.86,158.76,433.18,Single-ply,SBD,M,
Boys,74.84,11,Zak Martin,Pollok Central,70.13,142.88,104.33,154.22,401.43,Single-ply,SBD,M,
Boys,74.84,12,Angel Cardosa-Vargas,Mesquite Horn,72.85,127.01,86.18,151.95,365.14,Single-ply,SBD,M,
Boys,74.84,13,John Jimenez,Mesquite Horn,70.49,136.08,74.84,151.95,362.87,Single-ply,SBD,M,
Boys,74.84,14,Xavion Garcia,Dallas Hillcrest,69.76,113.4,70.31,151.95,335.66,Single-ply,SBD,M,
Boys,74.84,DQ,Jaxon Barwick,Forney,71.85,,,,,Single-ply,SBD,M,
Boys,82.1,1,Derrick Willis,Ferris,79.02,247.21,142.88,226.8,616.89,Single-ply,SBD,M,
Boys,82.1,2,Daniel Wenner,Forney,81.78,192.78,127.01,197.31,517.1,Single-ply,SBD,M,
Boys,82.1,3,Stephen Thrasher,Forney,81.74,188.24,120.2,192.78,501.22,Single-ply,SBD,M,
Boys,82.1,4,Jaqualon Armstrong,Duncanville,82.1,188.24,108.86,204.12,501.22,Single-ply,SBD,M,
Boys,82.1,5,Robert Hudson,Mesquite Horn,79.65,179.17,124.74,192.78,496.68,Single-ply,SBD,M,
Boys,82.1,6,Keolan Harongsemal,Carrollton Creekview,75.57,179.17,115.67,195.04,489.88,Single-ply,SBD,M,
Boys,82.1,7,Metric Manning,Duncanville,81.56,181.44,113.4,192.78,487.61,Single-ply,SBD,M,
Boys,82.1,8,Ja'Kayln Browder,Everman,76.75,170.1,108.86,204.12,483.08,Single-ply,SBD,M,
Boys,82.1,9,Landon Wright,Sunnyvale,82.1,197.31,117.93,167.83,483.08,Single-ply,SBD,M,
Boys,82.1,10,Danial Adams,Killeen,76.38,167.83,97.52,165.56,430.91,Single-ply,SBD,M,
Boys,82.1,11,Anthony Marquez,Carrollton Creekview,76.57,158.76,83.91,181.44,424.11,Single-ply,SBD,M,
Boys,82.1,12,Tarrick Borner,Mesquite Horn,77.11,142.88,86.18,170.1,399.16,Single-ply,SBD,M,
Boys,82.1,13,Michael Griger,Aubrey,75.84,142.88,95.25,158.76,396.89,Single-ply,SBD,M,
Boys,82.1,14,Brennen Anderson,Rockwall Heath,76.29,129.27,79.38,174.63,383.29,Single-ply,SBD,M,
Boys,82.1,15,John Hurt,Argyle,78.38,147.42,65.77,167.83,381.02,Single-ply,SBD,M,
Boys,82.1,16,Preston Burks,Dallas Hillcrest,80.47,117.93,102.06,149.69,369.68,Single-ply,SBD,M,
Boys,82.1,17,Nick Gilbert,Ranger,76.2,113.4,104.33,142.88,360.61,Single-ply,SBD,M,
Boys,82.1,18,Tony Lusha,Carrollton Creekview,76.38,113.4,86.18,149.69,349.27,Single-ply,SBD,M,
Boys,82.1,19,Jacobi Garner,Dallas Life Oak Cliff,78.93,83.91,38.56,129.27,251.74,Single-ply,SBD,M,
Boys,82.1,DQ,Kaeden Landry,Duncanville,76.38,,102.06,151.95,,Single-ply,SBD,M,
Boys,89.81,1,Blake Martinez,Mesquite Poteet,87.63,233.6,142.88,224.53,601.01,Single-ply,SBD,M,
Boys,89.81,2,Zach Fuller,Forney,88.36,215.46,106.59,215.46,537.51,Single-ply,SBD,M,
Boys,89.81,3,Solomon Charles,Duncanville,87.63,204.12,124.74,201.85,530.7,Single-ply,SBD,M,
Boys,89.81,4,Canaan Dirden,West Mesquite,87.72,188.24,122.47,208.65,519.36,Single-ply,SBD,M,
Boys,89.81,5,Brady Gibson,Dallas Hillcrest,87.91,185.97,129.27,204.12,519.36,Single-ply,SBD,M,
Boys,89.81,6,Caden Yates,Argyle,87.91,195.04,99.79,208.65,503.49,Single-ply,SBD,M,
Boys,89.81,7,David Langi,Euless Trinity,88.72,192.78,113.4,170.1,476.27,Single-ply,SBD,M,
Boys,89.81,8,Ricky Reyes,Euless Trinity,87.82,183.7,127.01,163.29,474,Single-ply,SBD,M,
Boys,89.81,9,Josiah Garica,Killeen,85.18,163.29,111.13,188.24,462.66,Single-ply,SBD,M,
Boys,89.81,10,Alex Luna,Euless Trinity,84.01,156.49,97.52,181.44,435.45,Single-ply,SBD,M,
Boys,89.81,11,Damiyon Stevens,Everman,82.92,124.74,99.79,136.08,360.61,Single-ply,SBD,M,
Boys,89.81,12,Jordan Jaramillo,Ranger,87.18,124.74,83.91,127.01,335.66,Single-ply,SBD,M,
Boys,89.81,13,Leiland Mayer,Dallas Hillcrest,89.81,117.93,72.57,142.88,333.39,Single-ply,SBD,M,
Boys,89.81,DQ,John McClinton,Duncanville,88.09,,,,,Single-ply,SBD,M,
Boys,89.81,DQ,Tanner Howland,Forney,89.22,204.12,,,,Single-ply,SBD,M,
Boys,99.79,1,Diyan Pun,Sunnyvale,94.62,244.94,170.1,244.94,659.98,Single-ply,SBD,M,
Boys,99.79,2,Shan Chimni,Rockwall Heath,99.06,224.53,131.54,226.8,582.87,Single-ply,SBD,M,
Boys,99.79,3,Tymadre Ross,Everman,99.34,226.8,145.15,204.12,576.06,Single-ply,SBD,M,
Boys,99.79,4,Nai Mose,Euless Trinity,98.07,219.99,138.35,201.85,560.19,Single-ply,SBD,M,
Boys,99.79,5,Nick Webber,Carrollton Smith,98.16,204.12,138.35,183.7,526.17,Single-ply,SBD,M,
Boys,99.79,5,Marc Anthony Calderon,Ferris,97.89,199.58,117.93,199.58,517.1,Single-ply,SBD,M,
Boys,99.79,6,Carter Anderson,Pollok Central,99.7,199.58,113.4,208.65,521.63,Single-ply,SBD,M,
Boys,99.79,7,Sam Beasley,Rockwall Heath,98.61,206.38,124.74,188.24,519.36,Single-ply,SBD,M,
Boys,99.79,8,Josue Benevides,Carrollton Creekview,99.79,188.24,127.01,192.78,508.02,Single-ply,SBD,M,
Boys,99.79,9,Matthew Amaya,West Mesquite,94.89,195.04,129.27,181.44,505.76,Single-ply,SBD,M,
Boys,99.79,10,Nate Burleson,Sunnyvale,96.8,192.78,102.06,208.65,503.49,Single-ply,SBD,M,
Boys,99.79,11,Markel Porter,Duncanville,96.71,181.44,117.93,201.85,501.22,Single-ply,SBD,M,
Boys,99.79,12,Damon Dunbar,Terrell,98.79,215.46,92.99,192.78,501.22,Single-ply,SBD,M,
Boys,99.79,13,Braylon Vick,Terrell,98.52,206.38,113.4,179.17,498.95,Single-ply,SBD,M,
Boys,99.79,14,Tirso Lopez,Killeen,92.62,204.12,106.59,176.9,487.61,Single-ply,SBD,M,
Boys,99.79,15,Ty Justice,Dallas Hillcrest,99.43,165.56,129.27,192.78,487.61,Single-ply,SBD,M,
Boys,99.79,16,Lamarrion Cotton,Killeen,90.17,176.9,111.13,183.7,471.74,Single-ply,SBD,M,
Boys,99.79,17,Jared Guajardo,Terrell,92.62,199.58,108.86,158.76,467.2,Single-ply,SBD,M,
Boys,99.79,18,Christian Watts,West Mesquite,95.53,174.63,95.25,188.24,458.13,Single-ply,SBD,M,
Boys,99.79,19,Damarcus Cannon,Carrollton Creekview,97.61,181.44,90.72,170.1,442.25,Single-ply,SBD,M,
Boys,99.79,20,Jackson Glassy,Aubrey,93.8,172.37,111.13,154.22,437.72,Single-ply,SBD,M,
Boys,99.79,21,Ma'Kyven Wamble,Carrollton Smith,91.63,170.1,108.86,142.88,421.84,Single-ply,SBD,M,
Boys,99.79,22,Jack Nelson,Carrollton Creekview,93.08,158.76,92.99,165.56,417.3,Single-ply,SBD,M,
Boys,99.79,23,Darryl McGregor,Mesquite Horn,93.71,133.81,79.38,165.56,378.75,Single-ply,SBD,M,
Boys,99.79,24,Jake Hartjen,Argyle,98.43,131.54,81.65,165.56,378.75,Single-ply,SBD,M,
Boys,99.79,25,Cole Moravec,Rockwall Heath,98.79,142.88,83.91,142.88,369.68,Single-ply,SBD,M,
Boys,99.79,26,Chris Wrighten,Euless Trinity,96.8,142.88,77.11,136.08,356.07,Single-ply,SBD,M,
Boys,99.79,DQ,Elijah Wilson,Duncanville,92.53,165.56,,,,Single-ply,SBD,M,
Boys,99.79,DQ,Liam Dugan,Aubrey,97.16,181.44,102.06,,,Single-ply,SBD,M,
Boys,99.79,DQ,Cody Phillips,Terrell,97.79,,,,,Single-ply,SBD,M,
Boys,109.77,1,Michael Taylor #1,Pollok Central,101.7,192.78,127.01,226.8,546.58,Single-ply,SBD,M,
Boys,109.77,2,Xavier McCoy,Aubrey,107.05,204.12,129.27,204.12,537.51,Single-ply,SBD,M,
Boys,109.77,3,Toby Beard,Pollok Central,107.68,226.8,106.59,197.31,530.7,Single-ply,SBD,M,
Boys,109.77,4,Luke Taylor,Sunnyvale,105.14,190.51,129.27,208.65,528.44,Single-ply,SBD,M,
Boys,109.77,6,Bryant Ifenso,Dallas Hillcrest,109.32,183.7,95.25,222.26,501.22,Single-ply,SBD,M,
Boys,109.77,7,Gage Porche,Carrollton Creekview,102.69,174.63,95.25,204.12,474,Single-ply,SBD,M,
Boys,109.77,8,Blaze Flanigan,Sunnyvale,104.42,185.97,102.06,163.29,451.32,Single-ply,SBD,M,
Boys,109.77,9,Dean Henderson,Terrell,103.78,161.03,88.45,199.58,449.06,Single-ply,SBD,M,
Boys,109.77,10,Hunter Bartram,Argyle,107.5,172.37,90.72,167.83,430.91,Single-ply,SBD,M,
Boys,109.77,11,Oscar Villarreal,Ranger,100.52,151.95,83.91,183.7,419.57,Single-ply,SBD,M,
Boys,109.77,12,Landon Farmer,Ranger,106.68,149.69,102.06,129.27,381.02,Single-ply,SBD,M,
Boys,109.77,DQ,Nathan Ramey,Sunnyvale,102.51,222.26,136.08,,,Single-ply,SBD,M,
Boys,109.77,DQ,Tayton Auldridge,Forney,100.83,,,,,Single-ply,SBD,M,
Boys,109.77,DQ,Hearsey McGrady,Terrell,105.78,,,,,Single-ply,SBD,M,
Boys,124.74,1,Alyric Brown,Sunnyvale,115.3,244.94,129.27,244.94,619.15,Single-ply,SBD,M,
Boys,124.74,2,Christian Thomas,Forney,124.1,206.38,147.42,213.19,566.99,Single-ply,SBD,M,
Boys,124.74,2,Matthew Quiroz,Ferris,124.38,283.5,174.63,206.38,664.51,Single-ply,SBD,M,
Boys,124.74,3,Michael Kennedy,Terrell,111.04,224.53,142.88,197.31,564.72,Single-ply,SBD,M,
Boys,124.74,4,Aaron Barnwell,Killeen,115.94,188.24,138.35,235.87,562.45,Single-ply,SBD,M,
Boys,124.74,5,Artavion Brown,West Mesquite,113.13,226.8,124.74,204.12,555.65,Single-ply,SBD,M,
Boys,124.74,6,Davonte McCleveland,Dallas Life Oak Cliff,124.74,226.8,122.47,195.04,544.31,Single-ply,SBD,M,
Boys,124.74,7,Noah Sanchez,Carrollton Creekview,116.21,233.6,117.93,188.24,539.77,Single-ply,SBD,M,
Boys,124.74,8,Prophet Hishaw,Dallas Hillcrest,124.28,183.7,138.35,217.72,539.77,Single-ply,SBD,M,
Boys,124.74,9,Nelson Mendoza,Euless Trinity,117.75,188.24,147.42,201.85,537.51,Single-ply,SBD,M,
Boys,124.74,10,Noah Ponce,Duncanville,119.11,204.12,131.54,197.31,532.97,Single-ply,SBD,M,
Boys,124.74,11,Jalon Gillaspie,Sunnyvale,123.65,188.24,140.61,190.51,519.36,Single-ply,SBD,M,
Boys,124.74,12,Davon Hampton,Duncanville,115.21,192.78,127.01,185.97,505.76,Single-ply,SBD,M,
Boys,124.74,13,Travis Chinamhora,Carrollton Creekview,124.47,192.78,136.08,170.1,498.95,Single-ply,SBD,M,
Boys,124.74,14,Aiden Gonzalez,Pollok Central,123.38,213.19,102.06,181.44,496.68,Single-ply,SBD,M,
Boys,124.74,15,Joseph Hutson,Ferris,111.95,192.78,117.93,172.37,483.08,Single-ply,SBD,M,
Boys,124.74,16,Anthony Wynne,Terrell,124.74,188.24,104.33,188.24,480.81,Single-ply,SBD,M,
Boys,124.74,17,Emmanuel Capistran,Dallas A+,114.94,181.44,92.99,170.1,444.52,Single-ply,SBD,M,
Boys,124.74,18,Daylon Owens,Dallas Life Oak Cliff,119.93,172.37,83.91,183.7,439.98,Single-ply,SBD,M,
Boys,124.74,19,Victor Chatman,West Mesquite,120.93,174.63,111.13,145.15,430.91,Single-ply,SBD,M,
Boys,124.74,20,Tyler Roberts,Argyle,120.47,145.15,79.38,176.9,401.43,Single-ply,SBD,M,
Boys,124.74,21,Nigel Davis,Dallas Life Oak Cliff,119.02,142.88,65.77,120.2,328.85,Single-ply,SBD,M,
Boys,139.71,1,Seth Martin,Everman,133.17,317.51,185.97,306.17,809.66,Single-ply,SBD,M,
Boys,139.71,2,Jahymeer Larkins,Killeen,134.72,244.94,154.22,260.82,659.98,Single-ply,SBD,M,
Boys,139.71,3,Joseph Fuentes,Ferris,138.25,260.82,183.7,215.46,659.98,Single-ply,SBD,M,
Boys,139.71,3,Reese Mercer,Forney,129.46,272.16,149.69,229.06,650.91,Single-ply,SBD,M,
Boys,139.71,4,Hunter Vasquez,Pollok Central,134.9,240.4,145.15,231.33,616.89,Single-ply,SBD,M,
Boys,139.71,5,Zahmaurixa Jones-Lewis,Duncanville,131.27,238.14,138.35,215.46,591.94,Single-ply,SBD,M,
Boys,139.71,6,Kylon Holmes,Terrell,132.81,188.24,142.88,229.06,560.19,Single-ply,SBD,M,
Boys,139.71,7,Nicholas Randle,Everman,128.91,206.38,142.88,165.56,514.83,Single-ply,SBD,M,
Boys,139.71,8,Dhani Eiland,Rockwall Heath,139.53,215.46,104.33,183.7,503.49,Single-ply,SBD,M,
Boys,139.71,9,Thor Johansson,Argyle,125.55,188.24,104.33,190.51,483.08,Single-ply,SBD,M,
Boys,139.71,10,Kevin Kopitskie,Killeen,126.82,174.63,129.27,165.56,469.47,Single-ply,SBD,M,
Boys,139.71,DQ,William Glenn,Duncanville,130.09,224.53,,,,Single-ply,SBD,M,
Boys,139.71,DQ,Eddie Watson,Dallas Carter,137.98,215.46,,,,Single-ply,SBD,M,
Boys,139.71+,1,Adrian Anderson,Everman,141.43,317.51,206.38,204.12,728.02,Single-ply,SBD,M,
Boys,139.71+,4,Sebastian Martinez,Rockwall Heath,153.95,260.82,149.69,249.48,659.98,Single-ply,SBD,M,
Boys,139.71+,5,Nick Singleton,West Mesquite,170.37,254.01,122.47,226.8,603.28,Single-ply,SBD,M,
Boys,139.71+,6,Selvin Maldonado,Dallas Hillcrest,168.83,183.7,142.88,201.85,528.44,Single-ply,SBD,M,
Boys,139.71+,7,Steven Gipson,Duncanville,144.88,204.12,120.2,195.04,519.36,Single-ply,SBD,M,
Boys,139.71+,8,Hector Mares,Dallas A+,152.68,185.97,113.4,172.37,471.74,Single-ply,SBD,M,
Boys,139.71+,9,Islie Ware,Killeen,158.39,129.27,83.91,154.22,367.41,Single-ply,SBD,M,
