Division,WeightClassKg,Place,Name,Team,BodyweightKg,Best3SquatKg,Best3BenchKg,Best3DeadliftKg,TotalKg,Equipment,Event,Sex,BirthDate
Girls,44.23,1,Karla Linares,Victoria West,41.59,138.35,65.77,124.74,328.85,Unlimited,SBD,F,
Girls,44.23,2,Alexia Alanis,Brownsville Veterans Memorial,43.5,117.93,68.04,136.08,322.05,Unlimited,SBD,F,
Girls,44.23,3,Aaliyah Izaguirre,Victoria East,42.68,124.74,52.16,120.2,297.1,Unlimited,SBD,F,
Girls,44.23,4,June Acevedo,Donna,43.14,117.93,52.16,113.4,283.5,Unlimited,SBD,F,
Girls,44.23,5,Avery Cano,Victoria East,43.45,115.67,52.16,115.67,283.5,Unlimited,SBD,F,
Girls,44.23,6,Hanna Mercado,San Antonio Southside,39.92,115.67,61.23,102.06,278.96,Unlimited,SBD,F,
Girls,44.23,7,Lunah Orama,Kyle Lehman,43.73,102.06,45.36,117.93,265.35,Unlimited,SBD,F,
Girls,44.23,8,Karla Estrada,San Antonio Southside,43.5,108.86,47.63,102.06,258.55,Unlimited,SBD,F,
Girls,44.23,9,Mylei Donahue,Kyle Lehman,43.18,99.79,43.09,102.06,244.94,Unlimited,SBD,F,
Girls,44.23,10,Ariana Jarillo,Sherman,43.95,90.72,45.36,104.33,240.4,Unlimited,SBD,F,
Girls,44.23,11,Trinity Thornton,Azle,42.05,81.65,70.31,86.18,238.14,Unlimited,SBD,F,
Girls,44.23,12,Arabella Campo,Abilene,44,77.11,36.29,104.33,217.72,Unlimited,SBD,F,
Girls,44.23,13,Giselle Gil,New Caney Porter,44,83.91,43.09,90.72,217.72,Unlimited,SBD,F,
Girls,44.23,14,Loralai Nash,New Caney Porter,44,72.57,43.09,90.72,206.38,Unlimited,SBD,F,
Girls,44.23,15,Kalli Arroyo,Midlothian,44,72.57,29.48,65.77,167.83,Unlimited,SBD,F,
Girls,44.23,DQ,Ashley Dominguez,McAllen,39.33,97.52,,,,Unlimited,SBD,F,
Girls,47.85,1,Alyssa Martinez,Kyle Lehman,47.45,156.49,83.91,147.42,387.82,Unlimited,SBD,F,
Girls,47.85,2,Dinorah Galvan,La Joya Palmview,46.18,172.37,70.31,133.81,376.48,Unlimited,SBD,F,
Girls,47.85,3,Leah Galvan,Weslaco East,47.13,142.88,77.11,142.88,362.87,Unlimited,SBD,F,
Girls,47.85,4,Kendall Gutierrez,Kyle Lehman,46.9,145.15,58.97,133.81,337.93,Unlimited,SBD,F,
Girls,47.85,5,Bianca Arciniega,Burleson Centennial,47.4,124.74,56.7,127.01,308.44,Unlimited,SBD,F,
Girls,47.85,6,Arianna Malacara,McAllen Memorial,45.9,129.27,54.43,122.47,306.17,Unlimited,SBD,F,
Girls,47.85,7,Jayden Caratachea,McAllen Rowe,47.54,127.01,52.16,127.01,306.17,Unlimited,SBD,F,
Girls,47.85,8,Victoria Cuellar,McAllen Memorial,47.08,127.01,54.43,122.47,303.91,Unlimited,SBD,F,
Girls,47.85,9,Jovanna Hernandez,Victoria East,46.58,127.01,65.77,108.86,301.64,Unlimited,SBD,F,
Girls,47.85,10,Hailey Vargas,San Antonio Southwest Legacy,46.63,124.74,54.43,122.47,301.64,Unlimited,SBD,F,
Girls,47.85,11,Miranda Vidal,Brownsville Veterans Memorial,46.67,113.4,61.23,124.74,299.37,Unlimited,SBD,F,
Girls,47.85,12,Alyssa Dickens,Baytown Lee,47.13,95.25,68.04,108.86,272.16,Unlimited,SBD,F,
Girls,47.85,13,Illiana Valenzuela,Carrollton Turner,47.49,108.86,52.16,92.99,254.01,Unlimited,SBD,F,
Girls,47.85,14,Lia Diaz,Carrollton Turner,47.58,90.72,45.36,106.59,242.67,Unlimited,SBD,F,
Girls,47.85,15,Citlaly Dehoyos,Abilene,46.54,95.25,45.36,86.18,226.8,Unlimited,SBD,F,
Girls,47.85,DQ,Xandra Hernandez,Crosby,47.08,,,,,Unlimited,SBD,F,
Girls,51.94,1,Julie Tamez,La Joya Palmview,51.44,156.49,70.31,149.69,376.48,Unlimited,SBD,F,
Girls,51.94,2,Maddisin Ruiz,Victoria East,50.35,145.15,72.57,154.22,371.95,Unlimited,SBD,F,
Girls,51.94,3,Natalie Martinez,Weslaco East,49.99,142.88,86.18,138.35,367.41,Unlimited,SBD,F,
Girls,51.94,4,Kassandra Falcon,McAllen Memorial,51.8,138.35,77.11,140.61,356.07,Unlimited,SBD,F,
Girls,51.94,5,Leslie Martinez,Weslaco East,51.8,142.88,70.31,131.54,344.73,Unlimited,SBD,F,
Girls,51.94,6,Nexi Gutierrez,Kyle Lehman,50.17,138.35,68.04,131.54,337.93,Unlimited,SBD,F,
Girls,51.94,7,Kaya Shellhammer,Buda Hays,50.35,133.81,54.43,136.08,324.32,Unlimited,SBD,F,
Girls,51.94,8,Bianca Duron,Victoria West,50.71,113.4,81.65,120.2,315.25,Unlimited,SBD,F,
Girls,51.94,9,Nayelly Garcia,Rio Grande City,50.48,129.27,65.77,117.93,312.98,Unlimited,SBD,F,
Girls,51.94,10,Taylor Sehnem,Aledo,51.07,113.4,61.23,108.86,283.5,Unlimited,SBD,F,
Girls,51.94,11,Catherine Rivera,New Caney Porter,51.71,113.4,52.16,106.59,272.16,Unlimited,SBD,F,
Girls,51.94,12,Kaavya Pari,Frisco Lebanon Trail,51.71,95.25,61.23,108.86,265.35,Unlimited,SBD,F,
Girls,51.94,13,Emma Walker,Lufkin,51.12,74.84,52.16,104.33,231.33,Unlimited,SBD,F,
Girls,51.94,14,Gabriela Hernandez,Abilene,50.71,83.91,38.56,81.65,204.12,Unlimited,SBD,F,
Girls,51.94,DQ,Tatum Hocker,Midlothian,50.03,83.91,,,,Unlimited,SBD,F,
Girls,51.94,DQ,Britney Mendoza,McAllen Memorial,48.49,151.95,61.23,,,Unlimited,SBD,F,
Girls,51.94,DQ,Luannelis Cintron,Baytown Goose Creek Memorial,50.89,106.59,,,,Unlimited,SBD,F,
Girls,56.02,1,Ollie Valdez,Brownsville Veterans Memorial,54.16,170.1,81.65,158.76,410.5,Unlimited,SBD,F,
Girls,56.02,2,Luna Cuevas,McAllen Memorial,56.02,163.29,97.52,138.35,399.16,Unlimited,SBD,F,
Girls,56.02,3,Raegan Williams,Azle,53.61,142.88,77.11,158.76,378.75,Unlimited,SBD,F,
Girls,56.02,4,Jennifer Escalante,Edinburg Vela,54.75,147.42,92.99,138.35,378.75,Unlimited,SBD,F,
Girls,56.02,5,Leila Gomez,Kyle Lehman,55.75,158.76,72.57,147.42,378.75,Unlimited,SBD,F,
Girls,56.02,6,Jayla Hernandez,Victoria East,53.93,151.95,74.84,147.42,374.21,Unlimited,SBD,F,
Girls,56.02,7,Noemi Perez,Brownsville Veterans Memorial,55.47,147.42,79.38,138.35,365.14,Unlimited,SBD,F,
Girls,56.02,8,Lauren Jaramillo,Weslaco East,54.66,131.54,86.18,138.35,356.07,Unlimited,SBD,F,
Girls,56.02,9,Jimena Quintanilla,Edinburg Vela,54.88,149.69,77.11,117.93,344.73,Unlimited,SBD,F,
Girls,56.02,10,Alanis Lozano,Donna,54.43,129.27,63.5,138.35,331.12,Unlimited,SBD,F,
Girls,56.02,11,Natalie Santos,Victoria East,55.79,127.01,65.77,127.01,319.78,Unlimited,SBD,F,
Girls,56.02,12,Cooper Yates,Azle,54.98,111.13,61.23,127.01,299.37,Unlimited,SBD,F,
Girls,56.02,13,Madison Perez,Lubbock Cooper,53.93,115.67,61.23,113.4,290.3,Unlimited,SBD,F,
Girls,56.02,14,Deaija Collins,Abilene,55.79,88.45,43.09,102.06,233.6,Unlimited,SBD,F,
Girls,56.02,DQ,Evah Mayfiels,Midlothian,55.43,111.13,58.97,,,Unlimited,SBD,F,
Girls,56.02,DQ,Sophie Sorger,New Caney Porter,55.79,115.67,,,,Unlimited,SBD,F,
Girls,56.02,DQ,Zion Wells,Manvel,55.79,,,,,Unlimited,SBD,F,
Girls,56.02,DQ,Leah Bazan,Castroville Medina Valley,55.79,,,,,Unlimited,SBD,F,
Girls,56.02,DQ,Reese Sigler,College Station,55.79,,,,,Unlimited,SBD,F,
Girls,60.1,1,Rhonda Valdez,Donna,59.74,172.37,92.99,151.95,417.3,Unlimited,SBD,F,
Girls,60.1,2,Kylie Kramer,College Station,59.96,167.83,72.57,163.29,403.7,Unlimited,SBD,F,
Girls,60.1,3,Leilani Dudley,Killeen Ellison,57.47,163.29,88.45,149.69,401.43,Unlimited,SBD,F,
Girls,60.1,4,Jasmine Jaimes,Kyle Lehman,58.56,170.1,77.11,151.95,399.16,Unlimited,SBD,F,
Girls,60.1,5,Alondra Gonzalez,Brownsville Veterans Memorial,58.33,145.15,90.72,154.22,390.09,Unlimited,SBD,F,
Girls,60.1,6,Keileigh Bowie,College Station,58.69,161.03,92.99,136.08,390.09,Unlimited,SBD,F,
Girls,60.1,7,Zariah Dean,Victoria West,59.28,156.49,83.91,145.15,385.55,Unlimited,SBD,F,
Girls,60.1,8,Hadley Kelly,Magnolia,59.51,158.76,74.84,151.95,385.55,Unlimited,SBD,F,
Girls,60.1,9,Ashlyn Norton,Azle,58.38,147.42,99.79,136.08,383.29,Unlimited,SBD,F,
Girls,60.1,10,Emery Castillo,Lake Belton,58.11,154.22,90.72,133.81,378.75,Unlimited,SBD,F,
Girls,60.1,11,Jocelyn Saenz,Donna,59.24,154.22,58.97,158.76,371.95,Unlimited,SBD,F,
Girls,60.1,12,Riley McKelvain,Azle,56.99,136.08,86.18,147.42,369.68,Unlimited,SBD,F,
Girls,60.1,13,Skyler Arellano,Azle,59.56,142.88,97.52,129.27,369.68,Unlimited,SBD,F,
Girls,60.1,14,Sam Swan,Georgetown,59.6,122.47,72.57,142.88,337.93,Unlimited,SBD,F,
Girls,60.1,15,Paige Matthews,Magnolia,59.65,129.27,72.57,122.47,324.32,Unlimited,SBD,F,
Girls,60.1,16,Hannah Spkies,Lufkin,57.88,113.4,56.7,111.13,281.23,Unlimited,SBD,F,
Girls,60.1,DQ,Alina Gonzalez,Brownsville Veterans Memorial,57.65,,,,,Unlimited,SBD,F,
Girls,60.1,DQ,Dawn Haddox,Midlothian,58.29,99.79,47.63,,,Unlimited,SBD,F,
Girls,60.1,DQ,Emerale Cortez,Abilene,59.87,,,,,Unlimited,SBD,F,
Girls,67.36,1,Cristal Montoya,La Joya Palmview,64.86,192.78,79.38,172.37,444.52,Unlimited,SBD,F,
Girls,67.36,2,Ashlyn Montes,PSJA North,64.23,185.97,99.79,149.69,435.45,Unlimited,SBD,F,
Girls,67.36,3,Elaina Herrera,Lake Belton,65.63,163.29,88.45,163.29,415.04,Unlimited,SBD,F,
Girls,67.36,4,Lydia Guerreca,Cleburne,65.5,172.37,88.45,151.95,412.77,Unlimited,SBD,F,
Girls,67.36,5,Tori Patek,Victoria West,66,170.1,102.06,140.61,412.77,Unlimited,SBD,F,
Girls,67.36,6,Ryan Doggett,Pflugerville Hendrickson,65.05,158.76,104.33,147.42,410.5,Unlimited,SBD,F,
Girls,67.36,7,Madison Barber,College Station,65,172.37,77.11,156.49,405.97,Unlimited,SBD,F,
Girls,67.36,8,Kaedyn Pulido,McAllen,66.18,176.9,92.99,133.81,403.7,Unlimited,SBD,F,
Girls,67.36,9,Aubrey Reyes,Weslaco East,65.41,147.42,108.86,142.88,399.16,Unlimited,SBD,F,
Girls,67.36,10,Jacee Oehlert,College Station,63.91,174.63,65.77,149.69,390.09,Unlimited,SBD,F,
Girls,67.36,11,Serenity Garza,McAllen Memorial,64.64,142.88,88.45,158.76,390.09,Unlimited,SBD,F,
Girls,67.36,12,Greenly Martinez,Victoria West,65.23,158.76,83.91,147.42,390.09,Unlimited,SBD,F,
Girls,67.36,13,Zandra Martinez,Victoria East,67.13,165.56,83.91,140.61,390.09,Unlimited,SBD,F,
Girls,67.36,14,Aaliyah Respress,Kyle Lehman,63.91,174.63,68.04,138.35,381.02,Unlimited,SBD,F,
Girls,67.36,15,Azeneth Perez,Rio Grande City,67.09,154.22,72.57,149.69,376.48,Unlimited,SBD,F,
Girls,67.36,16,Giovanna Castellani,College Station,64.68,161.03,70.31,142.88,374.21,Unlimited,SBD,F,
Girls,67.36,17,Alexia Campuzano,Buda Hays,64.41,142.88,72.57,145.15,360.61,Unlimited,SBD,F,
Girls,67.36,18,Ari Mathias,Aledo,66.68,136.08,79.38,138.35,353.8,Unlimited,SBD,F,
Girls,67.36,19,Rose Osafo,Magnolia,62.19,142.88,61.23,147.42,351.53,Unlimited,SBD,F,
Girls,67.36,20,Marisol Gomez,Carrollton Turner,66.77,142.88,77.11,124.74,344.73,Unlimited,SBD,F,
Girls,67.36,21,Jessica Hadnot,Lufkin,66.63,122.47,68.04,129.27,319.78,Unlimited,SBD,F,
Girls,67.36,22,Jasman Redwine,Abilene,67.13,117.93,49.9,138.35,306.17,Unlimited,SBD,F,
Girls,67.36,23,Hannah Brooks,Midlothian,63.68,122.47,58.97,117.93,299.37,Unlimited,SBD,F,
Girls,67.36,24,Natalia Ramos,Abilene,66.45,88.45,38.56,99.79,226.8,Unlimited,SBD,F,
Girls,67.36,DQ,Alianis Cintron,Baytown Goose Creek Memorial,64.82,133.81,79.38,,,Unlimited,SBD,F,
Girls,75.07,1,Lizbeth Alegria,Cleburne,74.34,201.85,111.13,183.7,496.68,Unlimited,SBD,F,
Girls,75.07,2,Francis Arroyo,Saginaw,74.84,188.24,97.52,151.95,437.72,Unlimited,SBD,F,
Girls,75.07,3,Jessica Kolodziejczyk,College Station,67.45,197.31,81.65,149.69,428.64,Unlimited,SBD,F,
Girls,75.07,4,Rachel Velasquez,Brownsville Veterans Memorial,72.71,176.9,102.06,149.69,428.64,Unlimited,SBD,F,
Girls,75.07,5,Eternity De La Garza,McAllen Memorial,74.93,161.03,111.13,154.22,426.38,Unlimited,SBD,F,
Girls,75.07,6,Aryana Hernandez,San Antonio Wagner,72.67,163.29,86.18,167.83,417.3,Unlimited,SBD,F,
Girls,75.07,7,Cyara Eason,Manvel,73.26,170.1,99.79,147.42,417.3,Unlimited,SBD,F,
Girls,75.07,8,Mackenzie Tamez,Harlingen South,75.07,183.7,72.57,158.76,415.04,Unlimited,SBD,F,
Girls,75.07,9,Alisa Ramirez,McAllen Rowe,68.72,170.1,83.91,147.42,401.43,Unlimited,SBD,F,
Girls,75.07,10,Cierra Perea,Frisco Lone Star,74.48,151.95,88.45,161.03,401.43,Unlimited,SBD,F,
Girls,75.07,11,Maddie Hodges,Midlothian,73.71,136.08,81.65,172.37,390.09,Unlimited,SBD,F,
Girls,75.07,12,Holly Racicot,College Station A&M Cons,72.8,151.95,79.38,154.22,385.55,Unlimited,SBD,F,
Girls,75.07,13,Riley Kinser,Georgetown East View,71.3,158.76,74.84,149.69,383.29,Unlimited,SBD,F,
Girls,75.07,14,Ashley Harris,College Station,70.26,172.37,72.57,131.54,376.48,Unlimited,SBD,F,
Girls,75.07,15,Kate Lindamood,Galveston Ball,71.3,142.88,83.91,147.42,374.21,Unlimited,SBD,F,
Girls,75.07,16,Martha Martinez,Brownsville Pace,74.8,161.03,70.31,142.88,374.21,Unlimited,SBD,F,
Girls,75.07,17,Samantha Olguin,Abilene,74.84,108.86,52.16,115.67,276.69,Unlimited,SBD,F,
Girls,75.07,18,Marissa Cardenas,Abilene,67.49,92.99,40.82,117.93,251.74,Unlimited,SBD,F,
Girls,75.07,DQ,Natalie Arredondo,Weslaco East,73.53,158.76,106.59,,,Unlimited,SBD,F,
Girls,75.07,DQ,Alixus Paine,San Antonio Southwest Legacy,74.84,,,,,Unlimited,SBD,F,
Girls,75.07,DQ,Elexia Rodriguez,San Antonio Wagner,74.84,151.95,,,,Unlimited,SBD,F,
Girls,75.07,DQ,Ainsleigh Walton,Midlothian,74.25,129.27,56.7,117.93,,Unlimited,SBD,F,
Girls,82.33,1,Alyssa Sauceda,Victoria East,80.15,226.8,136.08,199.58,562.45,Unlimited,SBD,F,
Girls,82.33,2,Angelina Yanez,Donna,81.56,158.76,111.13,190.51,460.4,Unlimited,SBD,F,
Girls,82.33,3,Mylie Martinez,Victoria East,78.61,185.97,83.91,167.83,437.72,Unlimited,SBD,F,
Girls,82.33,4,Morgan Marvell,Cleburne,78.06,183.7,104.33,147.42,435.45,Unlimited,SBD,F,
Girls,82.33,5,Alejandra Calderon,McAllen Memorial,79.97,181.44,92.99,147.42,421.84,Unlimited,SBD,F,
Girls,82.33,6,Scarlett Whitacre,College Station,77.11,172.37,74.84,147.42,394.63,Unlimited,SBD,F,
Girls,82.33,7,Miranda Vidales,San Antonio Southwest,79.42,181.44,77.11,136.08,394.63,Unlimited,SBD,F,
Girls,82.33,8,Gennesis Gamez,New Caney Porter,82.1,138.35,83.91,127.01,349.27,Unlimited,SBD,F,
Girls,82.33,9,Rihanna Sias,Frisco Heritage,77.84,145.15,65.77,136.08,347,Unlimited,SBD,F,
Girls,82.33,10,Mea Benton,Sherman,78.61,145.15,81.65,108.86,335.66,Unlimited,SBD,F,
Girls,82.33,11,Lyndsey McCauley,Midlothian,75.52,113.4,68.04,106.59,288.03,Unlimited,SBD,F,
Girls,82.33,12,Faith Tedford,Abilene,82.1,90.72,47.63,97.52,235.87,Unlimited,SBD,F,
Girls,82.33,13,Itzell Mares,Abilene,82.1,72.57,31.75,86.18,190.51,Unlimited,SBD,F,
Girls,82.33,DQ,Roselyn Saldana,New Caney Porter,82.1,136.08,,,,Unlimited,SBD,F,
Girls,82.33,DQ,Ixchel Mirelez,McAllen Memorial,81.56,181.44,,,,Unlimited,SBD,F,
Girls,90.04,1,Nayeli Barrera,Weslaco East,88.99,204.12,120.2,165.56,489.88,Unlimited,SBD,F,
Girls,90.04,2,Christen Hernandez,Victoria East,86,188.24,104.33,183.7,476.27,Unlimited,SBD,F,
Girls,90.04,3,Hailey Byrd,Victoria West,87.23,210.92,97.52,167.83,476.27,Unlimited,SBD,F,
Girls,90.04,4,Tricia Leyva,Donna,89.45,206.38,117.93,145.15,469.47,Unlimited,SBD,F,
Girls,90.04,5,Brittany Lugo,Laredo Nixon,85.77,174.63,74.84,176.9,426.38,Unlimited,SBD,F,
Girls,90.04,6,Tatum Humphries,Azle,88.41,161.03,113.4,149.69,424.11,Unlimited,SBD,F,
Girls,90.04,7,Ariana Olague,Georgetown East View,85.37,167.83,79.38,172.37,419.57,Unlimited,SBD,F,
Girls,90.04,8,Mia Lopez,Victoria East,88.04,165.56,95.25,154.22,415.04,Unlimited,SBD,F,
Girls,90.04,9,Sala Nuu,Comal Canyon,86.77,170.1,86.18,156.49,412.77,Unlimited,SBD,F,
Girls,90.04,10,Jada Washington,Sherman,85.55,167.83,72.57,161.03,401.43,Unlimited,SBD,F,
Girls,90.04,11,Anna Ramirez,Lake Belton,82.42,156.49,83.91,158.76,399.16,Unlimited,SBD,F,
Girls,90.04,12,Mercedes Torres,Cleburne,87.72,161.03,63.5,151.95,376.48,Unlimited,SBD,F,
Girls,90.04,13,Shylar McKenzie,Midlothian,88.36,140.61,79.38,124.74,344.73,Unlimited,SBD,F,
Girls,90.04,14,Kayleigh Bowling,Crosby,87.36,142.88,65.77,120.2,328.85,Unlimited,SBD,F,
Girls,90.04,15,Isabella Carrasco,Lubbock Cooper,86.91,131.54,83.91,99.79,315.25,Unlimited,SBD,F,
Girls,90.04,16,Valerie Galvan,Lubbock Cooper,86.32,131.54,61.23,113.4,306.17,Unlimited,SBD,F,
Girls,90.04,DQ,Dimauri Crenshaw,Magnolia,88.09,,,,,Unlimited,SBD,F,
Girls,100.02,1,Crystal Martinez,Kyle Lehman,97.3,240.4,131.54,199.58,571.53,Unlimited,SBD,F,
Girls,100.02,2,Alyse Gonzales,Victoria West,97.7,192.78,120.2,174.63,487.61,Unlimited,SBD,F,
Girls,100.02,3,Emily Thompson,College Station,97.98,192.78,111.13,163.29,467.2,Unlimited,SBD,F,
Girls,100.02,4,Olivia Zboral,Victoria East,91.72,199.58,106.59,158.76,464.93,Unlimited,SBD,F,
Girls,100.02,5,Hally Cuevas,PSJA North,95.07,192.78,111.13,149.69,453.59,Unlimited,SBD,F,
Girls,100.02,6,Amy Sauceda,Harlingen South,96.39,199.58,79.38,161.03,439.98,Unlimited,SBD,F,
Girls,100.02,7,Yisel Salas,Brownsville Pace,98.02,185.97,102.06,149.69,437.72,Unlimited,SBD,F,
Girls,100.02,8,Lanijah Harrell,Killeen Ellison,97.7,176.9,90.72,161.03,428.64,Unlimited,SBD,F,
Girls,100.02,9,Molly Greeson,Midlothian,98.34,163.29,83.91,156.49,403.7,Unlimited,SBD,F,
Girls,100.02,10,Cora Tippie,Justin Northwest,98.25,142.88,65.77,156.49,365.14,Unlimited,SBD,F,
Girls,100.02,11,Shyann Huerta,Lubbock Cooper,97.93,117.93,86.18,113.4,317.51,Unlimited,SBD,F,
Girls,100.02,12,Jazzche Jones,Galveston Ball,94.76,106.59,70.31,124.74,301.64,Unlimited,SBD,F,
Girls,100.02,13,Precious Gomez,Abilene,92.76,108.86,65.77,120.2,294.84,Unlimited,SBD,F,
Girls,100.02,DQ,Celera Bejarano,Baytown Lee,99.88,142.88,,,,Unlimited,SBD,F,
Girls,100.02,DQ,Emily Gonzalez,Edinburg Vela,99.79,,,,,Unlimited,SBD,F,
Girls,100.02,DQ,Adrianna Lambert,Aledo,99.79,,,,,Unlimited,SBD,F,
Girls,117.71,1,Yaresi Ozuna,McAllen,108.27,217.72,142.88,176.9,537.51,Unlimited,SBD,F,
Girls,117.71,2,Arianna Prill,Kyle Lehman,111.27,226.8,156.49,154.22,537.51,Unlimited,SBD,F,
Girls,117.71,3,Kayra Guerrero,Donna,110.45,217.72,120.2,165.56,503.49,Unlimited,SBD,F,
Girls,117.71,4,Audra Parsons,Cleburne,107.23,215.46,111.13,161.03,487.61,Unlimited,SBD,F,
Girls,117.71,5,Kylee Grigsby,Cleburne,113.94,206.38,113.4,161.03,480.81,Unlimited,SBD,F,
Girls,117.71,6,Genesis Coss,Donna North,107.18,208.65,97.52,163.29,469.47,Unlimited,SBD,F,
Girls,117.71,7,Alyssa Cantu,Brownsville Pace,108.86,195.04,99.79,163.29,458.13,Unlimited,SBD,F,
Girls,117.71,8,Victoria Medina,Brownsville Pace,113.31,195.04,102.06,149.69,446.79,Unlimited,SBD,F,
Girls,117.71,9,Emily Lewis,Azle,112.35,190.51,92.99,136.08,419.57,Unlimited,SBD,F,
Girls,117.71,10,Haley Gentry,Sherman,101.29,170.1,92.99,131.54,394.63,Unlimited,SBD,F,
Girls,117.71,11,Valeria Rivera,Baytown Lee,103.56,142.88,86.18,142.88,371.95,Unlimited,SBD,F,
Girls,117.71,12,Stephanie Martinez,Baytown Lee,109.41,138.35,95.25,138.35,371.95,Unlimited,SBD,F,
Girls,117.71,13,Rylee Wallingsford,Midlothian,114.94,154.22,79.38,136.08,369.68,Unlimited,SBD,F,
Girls,117.71,14,Arianna Salas,Lubbock Cooper,103.83,156.49,86.18,111.13,353.8,Unlimited,SBD,F,
Girls,117.71,15,Chantelle Wahome,Abilene,117.48,136.08,54.43,136.08,326.59,Unlimited,SBD,F,
Girls,117.71,DQ,Le Desouzas,San Antonio Southwest Legacy,117.48,,,,,Unlimited,SBD,F,
Girls,117.71+,1,Maya Magallanes,Rio Grande City,124.38,219.99,115.67,179.17,514.83,Unlimited,SBD,F,
Girls,117.71+,2,Halimat Omilabu,Frisco Centennial,146.83,213.19,106.59,176.9,496.68,Unlimited,SBD,F,
Girls,117.71+,3,Briana Galvan,Weslaco East,117.98,204.12,104.33,174.63,483.08,Unlimited,SBD,F,
Girls,117.71+,4,Terriny Pace,Killeen,150.18,192.78,97.52,192.78,483.08,Unlimited,SBD,F,
Girls,117.71+,5,Genesis Rodriguez,Victoria East,118.48,195.04,120.2,158.76,474,Unlimited,SBD,F,
Girls,117.71+,6,Sara Arista,PSJA North,120.34,226.8,117.93,124.74,469.47,Unlimited,SBD,F,
Girls,117.71+,7,Rose Moore,Cleburne,118.34,195.04,111.13,145.15,451.32,Unlimited,SBD,F,
Girls,117.71+,8,Avery Gray,Aledo,133.08,145.15,79.38,136.08,360.61,Unlimited,SBD,F,
Girls,117.71+,9,Abrielle Velasquez,Manvel,121.74,127.01,83.91,142.88,353.8,Unlimited,SBD,F,
Girls,117.71+,10,Alondra Gallegos,Port Arthur Memorial,128.28,145.15,52.16,136.08,333.39,Unlimited,SBD,F,
Girls,117.71+,11,Lilliana Gonzales,Abilene,117.93,122.47,52.16,122.47,297.1,Unlimited,SBD,F,
